<svg xmlns="http://www.w3.org/2000/svg" xmlns:xlink="http://www.w3.org/1999/xlink" version="1.1" id="Layer" x="0" y="0" viewBox="2 170.9 600 500" xml:space="preserve" enable-background="new 2 170.9 600 500">
  <style type="text/css">
    .st0{fill:url(#SVGID_1_);}
    .st1{fill:url(#SVGID_2_);}
    .st2{fill:url(#SVGID_3_);}
    .st3{fill:#C6CBD0;}
    .st4{fill:#CBCFD4;}
    .st5{fill:#CFD3D7;}
    .st6{fill:#D4D7DB;}
    .st7{fill:#D9DCDF;}
    .st8{fill:#DEE0E3;}
    .st9{fill:#E2E4E6;}
    .st10{fill:#E7E8EA;}
    .st11{fill:#4D5B5F;}
    .st12{fill:url(#SVGID_4_);}
    .st13{fill:#CDCDCD;}
    .st14{fill:#2E3E43;}
    .st15{fill:url(#SVGID_5_);}
    .st16{fill:url(#SVGID_6_);}
    .st17{fill:#BDC3C8;}
    .st18{fill:#343434;}
    .st19{fill:url(#SVGID_7_);}
    .st20{fill:url(#SVGID_8_);}
    .st21{fill:url(#SVGID_9_);}
    .st22{fill:url(#SVGID_10_);}
    .st23{fill:#B0B8BD;}
    .st24{fill:url(#SVGID_11_);}
    .st25{fill:#394447;}
    .st26{fill:url(#SVGID_12_);}
    .st27{fill:url(#SVGID_13_);}
    .st28{fill:url(#SVGID_14_);}
    .st29{fill:#C7CCD1;}
    .st30{fill:url(#SVGID_15_);}
    .st31{fill:url(#SVGID_16_);}
    .st32{fill:url(#SVGID_17_);}
    .st33{fill:#F3F3F3;}
    .st34{fill:#FD8272;}
    .st35{fill:url(#SVGID_18_);}
    .st36{fill:#304043;}
    .st37{fill:url(#SVGID_19_);}
    .st38{fill:#EB503A;}
    .st39{fill:url(#SVGID_20_);}
    .st40{fill:url(#SVGID_21_);}
    .st41{fill:url(#SVGID_22_);}
    .st42{fill:#C5CACF;}
    .st43{fill:url(#SVGID_23_);}
    .st44{fill:url(#SVGID_24_);}
    .st46{fill:#fff;}
    .st45 {
    fill: none;
    stroke: #000000;
    stroke-width: 0.4345;
    stroke-miterlimit: 10;
    }
    .st46 {}
    .st47 {fill: #1F345F;}
    .st48-dais {fill: # FFFFFF;}
    .st49 {fill: #EF8023;}
    .st50 {
    fill: none;
    stroke: #26100D;
    stroke-width: 0.6159;
    stroke-linecap: round;
    stroke-miterlimit: 10;
    clip-path:url(#SVGID_27_);
    }
  </style>
  <defs>
    <path id="SVGID_26_" d="M-26.7 41.3c-20.7 0.4-42.8 6-53.1 14.8h-9.5V2.5h113v53.7l-14.3 0C5 39.1-4.8 40.9-26.7 41.3z"/>
  </defs>
  <clipPath id="SVGID_27_">
    <use xlink:href="#SVGID_26_" overflow="visible"/>
  </clipPath>
  <linearGradient id="SVGID_1_" gradientUnits="userSpaceOnUse" x1="-32.52" y1="-287.62" x2="34.05" y2="-296.89" gradientTransform="matrix(1 0 0 1 0 292)">
    <stop offset="0" stop-color="#FEE20C"/>
    <stop offset="0.04" stop-color="#FEE408"/>
    <stop offset="0.09" stop-color="#FEE625"/>
    <stop offset="0.13" stop-color="#FEE725"/>
    <stop offset="0.17" stop-color="#FEEA3D"/>
    <stop offset="0.18" stop-color="#FEEA3B"/>
    <stop offset="0.2" stop-color="#FEE930"/>
    <stop offset="0.22" stop-color="#FEE92C"/>
    <stop offset="0.27" stop-color="#FEEA39"/>
    <stop offset="0.31" stop-color="#FEED2C"/>
    <stop offset="0.36" stop-color="#FEEA33"/>
    <stop offset="0.37" stop-color="#FEE928"/>
    <stop offset="0.38" stop-color="#FEE71D"/>
    <stop offset="0.4" stop-color="#FEE71A"/>
    <stop offset="0.45" stop-color="#FEE71D"/>
    <stop offset="0.49" stop-color="#FEE70C"/>
    <stop offset="0.54" stop-color="#FEE40C"/>
    <stop offset="0.58" stop-color="#FEE200"/>
    <stop offset="0.63" stop-color="#FEE100"/>
    <stop offset="0.67" stop-color="#F4D600"/>
    <stop offset="0.72" stop-color="#F2D300"/>
    <stop offset="0.77" stop-color="#DDC000"/>
    <stop offset="0.83" stop-color="#DCBF00"/>
    <stop offset="0.87" stop-color="#CFB400"/>
    <stop offset="0.93" stop-color="#CFB400"/>
    <stop offset="0.96" stop-color="#C3A700"/>
    <stop offset="1" stop-color="#C8AF00"/>
  </linearGradient>
  <linearGradient id="SVGID_2_" gradientUnits="userSpaceOnUse" x1="-32.51" y1="-287.32" x2="34.06" y2="-296.59" gradientTransform="matrix(1 0 0 1 0 292)">
    <stop offset="0" stop-color="#FEEF27"/>
    <stop offset="0.03" stop-color="#FEF023"/>
    <stop offset="0.04" stop-color="#FEF121"/>
    <stop offset="0.09" stop-color="#FEF240"/>
    <stop offset="0.13" stop-color="#FEF340"/>
    <stop offset="0.17" stop-color="#FEF55B"/>
    <stop offset="0.18" stop-color="#FEF558"/>
    <stop offset="0.2" stop-color="#FEF44D"/>
    <stop offset="0.22" stop-color="#FEF449"/>
    <stop offset="0.27" stop-color="#FEF557"/>
    <stop offset="0.31" stop-color="#FEF749"/>
    <stop offset="0.36" stop-color="#FEF551"/>
    <stop offset="0.37" stop-color="#FEF444"/>
    <stop offset="0.38" stop-color="#FEF339"/>
    <stop offset="0.4" stop-color="#FEF336"/>
    <stop offset="0.45" stop-color="#FEF339"/>
    <stop offset="0.49" stop-color="#FEF427"/>
    <stop offset="0.54" stop-color="#FEF127"/>
    <stop offset="0.58" stop-color="#FEF017"/>
    <stop offset="0.63" stop-color="#FEEF11"/>
    <stop offset="0.67" stop-color="#FEED00"/>
    <stop offset="0.72" stop-color="#FEEB00"/>
    <stop offset="0.77" stop-color="#F1DF00"/>
    <stop offset="0.83" stop-color="#F0DE00"/>
    <stop offset="0.87" stop-color="#E2D100"/>
    <stop offset="0.93" stop-color="#E2D100"/>
    <stop offset="0.96" stop-color="#D5C300"/>
    <stop offset="1" stop-color="#DCCA00"/>
  </linearGradient>
  <linearGradient id="SVGID_3_" gradientUnits="userSpaceOnUse" x1="-32.45" y1="-287.33" x2="34" y2="-296.58" gradientTransform="matrix(1 0 0 1 0 292)">
    <stop offset="0" stop-color="#FEF147"/>
    <stop offset="0.03" stop-color="#FEF243"/>
    <stop offset="0.04" stop-color="#FEF341"/>
    <stop offset="0.09" stop-color="#FEF463"/>
    <stop offset="0.13" stop-color="#FEF563"/>
    <stop offset="0.17" stop-color="#FEF780"/>
    <stop offset="0.18" stop-color="#FEF77C"/>
    <stop offset="0.2" stop-color="#FEF671"/>
    <stop offset="0.22" stop-color="#FEF66D"/>
    <stop offset="0.27" stop-color="#FEF77C"/>
    <stop offset="0.31" stop-color="#FEF86D"/>
    <stop offset="0.36" stop-color="#FEF775"/>
    <stop offset="0.37" stop-color="#FEF666"/>
    <stop offset="0.38" stop-color="#FEF55B"/>
    <stop offset="0.4" stop-color="#FEF558"/>
    <stop offset="0.45" stop-color="#FEF55B"/>
    <stop offset="0.49" stop-color="#FEF547"/>
    <stop offset="0.54" stop-color="#FEF347"/>
    <stop offset="0.58" stop-color="#FEF236"/>
    <stop offset="0.63" stop-color="#FEF12F"/>
    <stop offset="0.67" stop-color="#FEEF17"/>
    <stop offset="0.72" stop-color="#FEEE15"/>
    <stop offset="0.77" stop-color="#FEEB00"/>
    <stop offset="0.83" stop-color="#FEEB00"/>
    <stop offset="0.87" stop-color="#FAE700"/>
    <stop offset="0.93" stop-color="#FAE700"/>
    <stop offset="0.96" stop-color="#EBD800"/>
    <stop offset="1" stop-color="#F3E000"/>
  </linearGradient>
  <radialGradient id="SVGID_4_" cx="16727.57" cy="-25926.73" r="38.92" gradientTransform="matrix(1.2388 -8.609000e-02 -0.1062 -1.2617 -23334.5781 -31249.8066)" gradientUnits="userSpaceOnUse">
    <stop offset="0" stop-color="#343434"/>
    <stop offset="1" stop-color="#404040"/>
  </radialGradient>
  <radialGradient id="SVGID_5_" cx="-10251.55" cy="10436.03" r="113.61" gradientTransform="matrix(0.7007 0 0 0.7007 7129.877 -7339.4526)" gradientUnits="userSpaceOnUse">
    <stop offset="0" stop-color="#E7E8EA"/>
    <stop offset="0.39" stop-color="#E4E5E8"/>
    <stop offset="0.68" stop-color="#DADDE0"/>
    <stop offset="0.95" stop-color="#CACFD3"/>
    <stop offset="1" stop-color="#C6CBD0"/>
  </radialGradient>
  <radialGradient id="SVGID_6_" cx="-29.3" cy="-344.4" r="71.33" gradientTransform="matrix(1 0 0 1 0 292)" gradientUnits="userSpaceOnUse">
    <stop offset="0" stop-color="#F3E4E7"/>
    <stop offset="0.53" stop-color="#EFE5E8"/>
    <stop offset="1" stop-color="#E5E8EA"/>
  </radialGradient>
  <linearGradient id="SVGID_7_" gradientUnits="userSpaceOnUse" x1="12936.48" y1="1694.08" x2="12953.71" y2="1686.3" gradientTransform="matrix(1.5192 1.3008 -1.3008 1.5192 -17355.2051 -19571.0195)">
    <stop offset="0" stop-color="#343434"/>
    <stop offset="1" stop-color="#4A4A4A"/>
  </linearGradient>
  <linearGradient id="SVGID_8_" gradientUnits="userSpaceOnUse" x1="12926.86" y1="1692.38" x2="12940.1" y2="1686.1" gradientTransform="matrix(1.5192 1.3008 -1.3008 1.5192 -17355.2051 -19571.0195)">
    <stop offset="0" stop-color="#343434"/>
    <stop offset="1" stop-color="#4A4A4A"/>
  </linearGradient>
  <radialGradient id="SVGID_9_" cx="28925.88" cy="-9659.55" r="32.59" gradientTransform="matrix(1.0725 0.3488 -0.3913 1.2035 -34966.2344 1479.4755)" gradientUnits="userSpaceOnUse">
    <stop offset="0" stop-color="#343434"/>
    <stop offset="1" stop-color="#404040"/>
  </radialGradient>
  <linearGradient id="SVGID_10_" gradientUnits="userSpaceOnUse" x1="47568.83" y1="-49.27" x2="47584.44" y2="-76.65" gradientTransform="matrix(-1 0 0 1 47568.25 292)">
    <stop offset="0" stop-color="#81460C"/>
    <stop offset="0.29" stop-color="#7E440C"/>
    <stop offset="0.51" stop-color="#743E0B"/>
    <stop offset="0.71" stop-color="#64330A"/>
    <stop offset="0.9" stop-color="#4D2509"/>
    <stop offset="1" stop-color="#3D1A08"/>
  </linearGradient>
  <radialGradient id="SVGID_11_" cx="-15681.35" cy="16357.45" r="107.74" gradientTransform="matrix(0.6043 0 0 0.6043 9474.3223 -9697.6084)" gradientUnits="userSpaceOnUse">
    <stop offset="0" stop-color="#4D5B5F"/>
    <stop offset="0.41" stop-color="#4A585C"/>
    <stop offset="0.72" stop-color="#404F53"/>
    <stop offset="1" stop-color="#304043"/>
    <stop offset="1" stop-color="#304043"/>
  </radialGradient>
  <radialGradient id="SVGID_12_" cx="-15668.22" cy="16350.92" r="90.96" gradientTransform="matrix(0.6043 0 0 0.6043 9474.3223 -9697.6084)" gradientUnits="userSpaceOnUse">
    <stop offset="0" stop-color="#FFA178"/>
    <stop offset="0.34" stop-color="#FF9E77"/>
    <stop offset="0.6" stop-color="#FF9472"/>
    <stop offset="0.83" stop-color="#FF846B"/>
    <stop offset="1" stop-color="#FF7363"/>
  </radialGradient>
  <radialGradient id="SVGID_13_" cx="-15668.22" cy="16354.68" r="90.95" gradientTransform="matrix(0.6043 0 0 0.6043 9474.3223 -9697.6084)" gradientUnits="userSpaceOnUse">
    <stop offset="0" stop-color="#EC8865"/>
    <stop offset="0.33" stop-color="#EC8563"/>
    <stop offset="0.59" stop-color="#EA7B5D"/>
    <stop offset="0.81" stop-color="#E86B53"/>
    <stop offset="1" stop-color="#E55747"/>
  </radialGradient>
  <radialGradient id="SVGID_14_" cx="-10243.73" cy="10686.36" r="95.83" gradientTransform="matrix(0.7007 0 0 0.7007 7129.877 -7339.4526)" gradientUnits="userSpaceOnUse">
    <stop offset="0" stop-color="#E7E8EA"/>
    <stop offset="0.39" stop-color="#E4E5E8"/>
    <stop offset="0.68" stop-color="#DADDE0"/>
    <stop offset="0.95" stop-color="#CACFD3"/>
    <stop offset="1" stop-color="#C6CBD0"/>
  </radialGradient>
  <radialGradient id="SVGID_15_" cx="-12099.73" cy="8627.22" r="139.61" gradientTransform="matrix(0.6996 -3.860000e-02 3.860000e-02 0.6996 8103.7373 -6428.6138)" gradientUnits="userSpaceOnUse">
    <stop offset="0" stop-color="#FFC2A3"/>
    <stop offset="0.31" stop-color="#FFBFA1"/>
    <stop offset="0.54" stop-color="#FFB59A"/>
    <stop offset="0.74" stop-color="#FFA58F"/>
    <stop offset="0.94" stop-color="#FF8E7F"/>
    <stop offset="1" stop-color="#FF8579"/>
  </radialGradient>
  <radialGradient id="SVGID_16_" cx="-12075.65" cy="8650.53" r="134.95" gradientTransform="matrix(0.6996 -3.860000e-02 3.860000e-02 0.6996 8103.7373 -6428.6138)" gradientUnits="userSpaceOnUse">
    <stop offset="0" stop-color="#FFD3BA"/>
    <stop offset="0.3" stop-color="#FFD0B8"/>
    <stop offset="0.53" stop-color="#FFC6B0"/>
    <stop offset="0.74" stop-color="#FFB6A3"/>
    <stop offset="0.92" stop-color="#FF9F90"/>
    <stop offset="1" stop-color="#FF9487"/>
  </radialGradient>
  <radialGradient id="SVGID_17_" cx="-4851.17" cy="5008.72" r="11.41" gradientTransform="matrix(0.8328 0 0 0.8328 3983.7092 -3980.2954)" gradientUnits="userSpaceOnUse">
    <stop offset="0" stop-color="#163B42"/>
    <stop offset="0.3" stop-color="#16353B"/>
    <stop offset="0.74" stop-color="#172426"/>
    <stop offset="1" stop-color="#171717"/>
  </radialGradient>
  <radialGradient id="SVGID_18_" cx="-10222.47" cy="10717.15" r="64.96" gradientTransform="matrix(0.7007 0 0 0.7007 7129.877 -7339.4526)" gradientUnits="userSpaceOnUse">
    <stop offset="0" stop-color="#4D5B5F"/>
    <stop offset="0.41" stop-color="#4A585C"/>
    <stop offset="0.72" stop-color="#404F53"/>
    <stop offset="1" stop-color="#304043"/>
    <stop offset="1" stop-color="#304043"/>
  </radialGradient>
  <radialGradient id="SVGID_19_" cx="-4799.56" cy="5008.72" r="11.41" gradientTransform="matrix(0.8328 0 0 0.8328 3983.7092 -3980.2954)" gradientUnits="userSpaceOnUse">
    <stop offset="0" stop-color="#163B42"/>
    <stop offset="0.3" stop-color="#16353B"/>
    <stop offset="0.74" stop-color="#172426"/>
    <stop offset="1" stop-color="#171717"/>
  </radialGradient>
  <radialGradient id="SVGID_20_" cx="-10331.03" cy="10733.72" r="88.16" gradientTransform="matrix(0.7007 0 0 0.7007 7129.877 -7339.4526)" gradientUnits="userSpaceOnUse">
    <stop offset="0" stop-color="#FFA178"/>
    <stop offset="0.34" stop-color="#FF9E77"/>
    <stop offset="0.6" stop-color="#FF9472"/>
    <stop offset="0.83" stop-color="#FF846B"/>
    <stop offset="1" stop-color="#FF7363"/>
  </radialGradient>
  <radialGradient id="SVGID_21_" cx="-10331.04" cy="10737.34" r="82.63" gradientTransform="matrix(0.7007 0 0 0.7007 7129.877 -7339.4526)" gradientUnits="userSpaceOnUse">
    <stop offset="0" stop-color="#EC8865"/>
    <stop offset="0.33" stop-color="#EC8563"/>
    <stop offset="0.59" stop-color="#EA7B5D"/>
    <stop offset="0.81" stop-color="#E86B53"/>
    <stop offset="1" stop-color="#E55747"/>
  </radialGradient>
  <linearGradient id="SVGID_22_" gradientUnits="userSpaceOnUse" x1="-95.49" y1="-46.89" x2="-77.66" y2="-78.18" gradientTransform="matrix(1 0 0 1 0 292)">
    <stop offset="0" stop-color="#81460C"/>
    <stop offset="0.29" stop-color="#7E440C"/>
    <stop offset="0.51" stop-color="#743E0B"/>
    <stop offset="0.71" stop-color="#64330A"/>
    <stop offset="0.9" stop-color="#4D2509"/>
    <stop offset="1" stop-color="#3D1A08"/>
  </linearGradient>
  <linearGradient id="SVGID_23_" gradientUnits="userSpaceOnUse" x1="-75.58" y1="-517.81" x2="-41.15" y2="-533.36" gradientTransform="matrix(1 0 0 1 0 292)">
    <stop offset="0" stop-color="#343434"/>
    <stop offset="1" stop-color="#4A4A4A"/>
  </linearGradient>
  <linearGradient id="SVGID_24_" gradientUnits="userSpaceOnUse" x1="-94.79" y1="-521.15" x2="-68.3" y2="-533.71" gradientTransform="matrix(1 0 0 1 0 292)">
    <stop offset="0" stop-color="#343434"/>
    <stop offset="1" stop-color="#4A4A4A"/>
  </linearGradient>
  <linearGradient id="SVGID_25_" gradientUnits="userSpaceOnUse" x1="-66.34" y1="7.84" x2="-4.66" y2="7.84">
    <stop offset="0" stop-color="#77471C"/>
    <stop offset="0.25" stop-color="#AF7B2B"/>
    <stop offset="0.5" stop-color="#FAF39F"/>
    <stop offset="0.75" stop-color="#AF7B2B"/>
    <stop offset="1" stop-color="#77471C"/>
  </linearGradient>
  <symbol id="Coin_Symbol" viewBox="-36.4 -4.5 72.9 9">
    <path class="st0" d="M36.1-4.5H-36c-0.2 0-0.4 0.2-0.4 0.5v7.7c0 0.3 0.2 0.5 0.4 0.5h72.1c0.2 0 0.4-0.2 0.4-0.5V-4C36.5-4.2 36.3-4.5 36.1-4.5z"/>
    <path class="st1" d="M36.1-4.2H-36c-0.2 0-0.4 0.2-0.4 0.5V4c0 0.3 0.2 0.5 0.4 0.5h72.1c0.2 0 0.4-0.2 0.4-0.5v-7.7C36.5-4 36.3-4.2 36.1-4.2z"/>
    <path class="st2" d="M36.1-3.6H-36c-0.2 0-0.4 0.2-0.4 0.4v6.7c0 0.2 0.2 0.4 0.4 0.4h72.1c0.2 0 0.4-0.2 0.4-0.4v-6.7C36.5-3.4 36.3-3.6 36.1-3.6z"/>
  </symbol>
  <symbol id="Daisy_Symbol" viewBox="-181 -246.8 361.9 493.7">
    <path class="st3" d="M145.9 43.6c4.5-2.3 7.5-6.5 8.3-11.4s-0.7-10.6-4.7-15.5c-4.9-6.1-10.4-12-16.7-17.4-6.2-5.3-13.3-10.1-21-13.8s-16-6.2-24.4-7.3-16.8-0.8-24.7 0.4c-15.9 2.6-29.9 8.8-42.5 16.2C7.6 2.3-3.6 11.1-14 20.8c-4.2 3.8-7.2 8.2-8.7 11.8-1.6 3.6-1.8 6.6-0.3 8.1l2 1.9c1.5 1.4 4.3 1.2 7.8 0s7.8-3.5 11.9-6.6c5.2-3.9 10.6-7.4 16.1-10.7s11.1-6.2 16.8-8.7c11.4-5 23.2-8.3 34.3-8.5C71.4 8 76.7 8.6 81.6 10s9.4 3.5 13.6 6.3c8.3 5.6 15.4 13.9 21 23.8 2.3 3.9 5.8 6.6 10 7.9 4.2 1.3 9.2 1 13.7-1.3L145.9 43.6z"/>
    <path class="st4" d="M-4.2 36.8c5.3-4.1 10.8-7.9 16.5-11.5 5.7-3.5 11.5-6.7 17.4-9.4 11.8-5.4 24.2-9.1 35.9-9.5 5.9-0.2 11.5 0.4 16.8 1.9S92.6 12 97 15.1c9 6.1 16.4 15.2 22.3 25.7 2 3.5 5.1 5.8 8.9 6.9 3.8 1.1 8.1 0.8 12-1.2l5.2-2.7c3.9-2 6.6-5.6 7.4-9.8s-0.3-9.1-3.5-13.3c-4.8-6.4-10.2-12.5-16.3-18-6.1-5.6-13.1-10.6-20.7-14.4-7.7-3.9-16-6.6-24.5-7.8-8.5-1.3-16.9-1.1-25 0.2-8.1 1.3-15.7 3.5-22.9 6.4s-14 6.3-20.4 10.2C6.7 5-4.9 14.1-15.5 24.1c-3.5 3.3-6 7-7.4 10.2-1.3 3.1-1.5 5.7-0.2 7l1.7 1.6c1.3 1.2 3.7 1.1 6.7 0C-11.4 41.5-7.7 39.5-4.2 36.8z"/>
    <path class="st5" d="M-7.1 37.5C-1.7 33.1 4 29 9.8 25.2s11.8-7.2 18-10.1C40 9.2 53 5.1 65.4 4.5c6.2-0.3 12.2 0.3 17.9 1.9 5.6 1.5 10.9 4 15.7 7.3 9.6 6.6 17.4 16.5 23.6 27.7 1.7 3 4.4 5 7.7 5.8 3.3 0.9 7.1 0.6 10.3-1.1l4.4-2.3c3.2-1.7 5.6-4.7 6.4-8.3s0.2-7.6-2.4-11.2c-4.7-6.6-9.9-12.9-16-18.7-6-5.8-12.8-11-20.4-15.1s-15.9-7-24.4-8.4S71.1-19.2 63-18c-8.2 1.2-15.9 3.5-23.3 6.4C32.4-8.7 25.5-5.1 18.9-1.2 5.8 6.7-6 16.1-16.8 26.4c-2.9 2.8-4.9 5.9-6 8.5s-1.1 4.8-0.1 5.8l1.5 1.4c1.1 1 3.1 0.9 5.7 0C-13 41.5-10 39.9-7.1 37.5z"/>
    <path class="st6" d="M-9.9 38.4c5.5-4.7 11.3-9 17.3-13.1 6-4 12.2-7.7 18.5-10.9s12.9-5.9 19.5-7.9 13.3-3.4 19.9-3.7c6.6-0.4 13 0.2 19 1.9 6 1.6 11.7 4.3 16.8 7.9 10.3 7.2 18.5 17.8 24.9 29.7 1.3 2.5 3.7 4 6.5 4.7 2.8 0.6 6 0.4 8.5-1l3.7-1.9c2.6-1.3 4.6-3.8 5.4-6.7s0.5-6.2-1.4-9c-4.5-6.8-9.7-13.3-15.6-19.3S120.5-2.3 113-6.6s-15.8-7.4-24.4-9c-8.5-1.6-17.2-1.6-25.5-0.4s-16.2 3.5-23.6 6.4C32-6.6 25-3 18.3 1 4.9 9.1-7.1 18.8-18.2 29.4c-4.6 4.4-6.3 10-4.6 11.6l1.2 1.1c0.9 0.8 2.5 0.8 4.6 0.1C-14.7 41.7-12.2 40.3-9.9 38.4z"/>
    <path class="st7" d="M-12.8 39.4C-1.5 29.5 10.9 20.8 24 13.9c6.6-3.4 13.3-6.4 20.2-8.6S58.1 1.6 65 1.1 78.8 1.2 85.2 3c6.5 1.7 12.5 4.7 17.9 8.6 10.9 7.8 19.5 19.2 26.2 31.8 1 1.9 3 3 5.3 3.4s4.8 0.1 6.8-0.9l2.9-1.5c1.9-1 3.6-3 4.4-5.2s0.8-4.8-0.5-6.9c-4.4-7-9.4-13.7-15.2-19.9S120.7 0.6 113.2-3.9c-7.4-4.5-15.7-7.9-24.2-9.5-8.5-1.7-17.3-1.8-25.6-0.7C55-13 47-10.7 39.5-7.7 31.9-4.7 24.7-1 17.9 3.2c-13.6 8.3-26 18.3-37.2 29.2-3.4 3.3-4.5 7.7-3.2 8.9l1 0.9C-20.2 43.4-16.2 42.3-12.8 39.4z"/>
    <path class="st8" d="M-15.5 40.4C-4 29.9 8.7 20.6 22.2 13.2 29 9.5 36 6.3 43.1 3.9c7.2-2.4 14.5-4.1 21.8-4.7 7.3-0.6 14.6 0 21.5 1.9s13.3 5.1 19.1 9.3c5.8 4.2 10.9 9.4 15.5 15.2 4.5 5.8 8.5 12.1 12 18.8 1.3 2.6 6.4 2.6 9 1.3l2.1-1.1c2.6-1.3 5.3-5.7 3.6-8.5-4.3-7.2-9.1-14.1-14.8-20.5-5.6-6.4-12.1-12.2-19.4-16.9C106.2-6 98-9.5 89.5-11.4s-17.3-2.1-25.7-1S47.2-9 39.5-6s-15 6.8-22 11.1c-7 4.2-13.6 8.9-19.9 14-6.3 5-12.4 10.4-18.1 16.1-2.2 2.2-2.7 5.4-1.8 6.2l0.7 0.7C-20.8 42.8-17.8 42.4-15.5 40.4z"/>
    <path class="st9" d="M-18.3 41.5c5.8-5.6 12-10.8 18.4-15.6s13.1-9.3 20.1-13.2 14.2-7.4 21.6-10 15.1-4.5 22.8-5.1C72.3-3.1 80-2.5 87.4-0.5c7.3 2 14.2 5.4 20.3 10 6.1 4.5 11.5 10.1 16.2 16.2s8.8 12.8 12.4 19.8c0.7 1.3 4.6 0.6 5.9 0l1.4-0.7c1.3-0.7 4-3.5 3.2-4.9-4.2-7.3-8.9-14.5-14.4-21-5.5-6.6-11.8-12.6-19-17.5S98.1-7.2 89.6-9.2s-17.3-2.3-25.8-1.3S47.1-7.1 39.2-4.1C31.4-1 23.9 2.8 16.9 7.2 9.8 11.5 3.1 16.4-3.4 21.5-9.8 26.7-16 32.2-21.8 38.1c-1.1 1.1-0.9 3.1-0.4 3.5l0.5 0.4C-21.3 42.3-19.4 42.5-18.3 41.5z"/>
    <path class="st10" d="M145.9 43.6c-4-7.5-8.6-14.8-14-21.6-5.3-6.7-11.5-13-18.5-18.1s-15-9-23.5-11.1c-8.5-2.2-17.3-2.6-25.8-1.6-8.6 1-16.9 3.3-24.8 6.4S23.8 4.7 16.6 9.1 2.5 18.5-4.1 23.8-17 34.7-22.9 40.9l2 1.9c5.8-5.9 12.2-11.4 18.7-16.5 6.6-5.1 13.4-9.8 20.6-14.1C25.6 8 33 4.3 40.7 1.4s15.7-4.9 23.9-5.7c8.1-0.8 16.3-0.2 24.1 2 7.8 2.1 15 5.9 21.5 10.8s12.1 10.8 17 17.3c4.9 6.5 9.1 13.6 12.9 20.9L145.9 43.6z"/>
    <path class="st11" d="M67.4 8.1c-1.6-1.9-3.9-2.7-7-3.2-3.1-0.4-7-0.5-11.8-0.9-2.9-0.2-5-0.7-6.6-1.4s-2.8-1.5-4-2.1c-2.3-1.3-4.6-2.1-10.2 1.1-5.5 3.2-7.9 6.2-8.5 8.4s0.6 3.7 2.6 4.5c1.7 0.7 2.3 3.1 2.1 5.7 7.2-3.6 14.5-6.7 21.8-8.8S60.4 8.1 67.4 8.1z"/>
    <path class="st11" d="M71.6-22.3c0 0 1.7 2.5 5.1 5.4 1.7 1.5 3.9 3.1 6.5 4.6 2.6 1.6 5.6 3.1 9.3 4.4 3.6 1.4 6.5 2.6 8.9 3.6s4.4 1.7 6.1 2.2c3.4 1 6 1 9 1.3s8.1 1 12.5 1.9c4.4 0.9 8.2 2 8.2 2-8.4-8-18.5-15.1-29.9-19.7-5.7-2.3-11.6-4-17.7-4.9S77.5-22.6 71.6-22.3z"/>
    <path class="st12" d="M131.2 22.9c-1.8 0.1-2.9 1.5-4.4 2s-2.5-0.2-4.3 0.4c-1.7 0.6-2.4 1.8-3.9 2.4-1 0.4-2.3-0.1-3.2 0.2-1.7 0.5-1.8 1.5-2.8 2.1-1.9 1-2.9-0.2-3.2 0.9-0.9 3-4.8 26.6 3.4 26.2l67.6 0.2c5.1-12.6-25.3-22.9-26.2-26-0.2-0.8-0.7-0.3-1.9-1.3-0.7-0.6-1-2.5-2.6-3.2s-3.3-0.3-5.5-1c-1.4-0.4-2.3-2.3-4.9-2.4-1.5-0.1-2.7 1-4.7 0.8C133.7 24.2 132.8 22.8 131.2 22.9z"/>
    <path class="st3" d="M77.4-182.8c-0.7-0.6-2.4-2-3.8-2.9-1.1-0.7-2.2-1.3-3.3-1.8-2.2-1-4.5-1.5-6.6-1.6-4.3-0.2-8 1.3-10.4 4.5-3.1 4.1-6.1 8.3-9.1 12.4s-6 8.3-9 12.5-6 8.4-8.9 12.6c-3 4.2-5.9 8.4-8.8 12.6l1.3-1.3C12.4-128.4 6-121-0.3-113.4c-3.2 3.8-6.3 7.5-9.4 11.3l-4.7 5.7-4.6 5.8c-2.5 3.1-4.2 6.7-5 9.6-0.9 2.9-0.9 5.2 0.3 6.5l1.5 1.6c1.2 1.2 3.5 1.3 6.4 0.7 3-0.7 6.6-2.1 9.9-4.4l6.1-4.2 6-4.3c4-2.9 8-5.7 11.9-8.6 7.9-5.8 15.8-11.7 23.6-17.6l-0.6 0.4 1.8-1.7c3.7-3.6 7.5-7.1 11.1-10.7 3.7-3.6 7.4-7.1 11.1-10.7s7.3-7.2 11-10.8c3.6-3.6 7.3-7.2 10.9-10.9 2.8-2.8 3.8-6.8 2.9-11-0.4-2.1-1.3-4.2-2.6-6.3-0.6-1-1.4-2-2.2-3-1.1-1.2-2.8-2.8-3.5-3.4L77.4-182.8z"/>
    <path class="st4" d="M-8.5-76.2C8-88.1 24.2-100.3 40.2-112.8l-0.4 0.3 1.5-1.4c3.8-3.7 7.6-7.4 11.4-11.1L64-136.2c3.7-3.7 7.5-7.5 11.2-11.3s7.5-7.5 11.1-11.3c2.4-2.5 3.1-5.9 2.3-9.6-0.4-1.8-1.2-3.7-2.3-5.5-0.3-0.5-0.6-0.9-0.9-1.3l-0.5-0.7c-0.2-0.2-0.4-0.4-0.6-0.7-1.1-1.2-2.4-2.4-2.9-2.8l-3.5-3c-0.6-0.5-2-1.6-3.3-2.5-0.3-0.2-0.6-0.4-0.8-0.5l-0.7-0.4c-0.5-0.3-1-0.5-1.5-0.7-1.9-0.8-3.9-1.3-5.8-1.5-3.8-0.3-7.1 0.9-9.2 3.7-3.2 4.2-6.4 8.5-9.5 12.7-3.2 4.2-6.3 8.5-9.4 12.8l-9.4 12.9c-3.1 4.3-6.2 8.6-9.3 12.9l1.1-1.2C6.6-119.1-6.7-103.7-19.6-88c-2.2 2.7-3.6 5.7-4.4 8.1-0.7 2.5-0.8 4.5 0.2 5.6l1.3 1.4c1 1.1 3 1.2 5.5 0.6C-14.4-73-11.3-74.2-8.5-76.2z"/>
    <path class="st5" d="M-11-75.8c4.2-3.2 8.4-6.3 12.6-9.5s8.3-6.4 12.5-9.6c8.3-6.4 16.5-12.9 24.7-19.4l-0.2 0.2 1.1-1.2 11.6-11.6 11.5-11.7c3.8-3.9 7.6-7.8 11.4-11.8 3.8-3.9 7.6-7.9 11.4-11.8 2-2.1 2.4-5.1 1.6-8.2-0.4-1.6-1.1-3.2-2.1-4.7-0.2-0.4-0.5-0.8-0.8-1.1-0.3-0.4-0.5-0.7-1-1.2l-0.7-0.7-0.7-0.7c-0.4-0.4-0.7-0.7-1-0.9l-3-2.6c-0.3-0.2-0.6-0.5-1.1-0.9l-0.8-0.6-0.8-0.6c-0.6-0.4-0.9-0.6-1.4-0.8-0.4-0.2-0.8-0.4-1.2-0.6-1.7-0.7-3.4-1.2-5-1.4-3.2-0.3-6.1 0.6-7.9 2.9-3.3 4.3-6.7 8.7-10 13s-6.6 8.7-9.9 13.1L30-145l-9.7 13.2 1-1c-7 7.7-14.1 15.5-21 23.3-3.5 3.9-6.9 7.9-10.4 11.8s-6.8 8-10.3 11.9c-1.9 2.2-3.1 4.7-3.7 6.8-0.6 2.1-0.6 3.8 0.2 4.7l1.1 1.2c0.8 0.9 2.5 1 4.6 0.5C-15.8-73.1-13.3-74.1-11-75.8z"/>
    <path class="st6" d="M-13.4-75.3l12.8-10 12.7-10.1c8.5-6.7 16.8-13.6 25.2-20.4l-0.1 0.1 0.9-0.9c7.9-8.1 15.7-16.2 23.5-24.3l11.7-12.2 11.6-12.3c1.6-1.7 1.8-4.2 1-6.8-0.4-1.3-1-2.7-1.9-3.9-0.4-0.7-0.8-1.2-1.6-2l-0.5-0.6-0.5-0.5c-0.3-0.3-0.6-0.5-0.8-0.7l-2.5-2.1c-0.2-0.2-0.5-0.4-0.8-0.7l-0.6-0.4-0.6-0.4c-1-0.7-1.5-0.9-2.2-1.3-1.4-0.6-2.8-1.1-4.2-1.2-2.7-0.4-5.2 0.2-6.6 2l-10.4 13.1-10.3 13.4c-6.9 8.9-13.7 17.9-20.5 27l0.8-0.8c-7.4 7.9-14.7 15.8-22 23.8l-10.9 12L-21-83.4c-1.5 1.7-2.5 3.7-2.9 5.4-0.5 1.7-0.4 3.1 0.2 3.8l0.9 1c0.7 0.7 2 0.8 3.8 0.5C-17.2-73.1-15.2-74-13.4-75.3z"/>
    <path class="st7" d="M-15.7-74.8c4.4-3.5 8.7-7 13-10.5l12.9-10.6c8.6-7.1 17.2-14.2 25.7-21.4l0 0 0.6-0.7c8-8.4 16-16.8 24-25.3 7.9-8.5 15.9-17 23.7-25.5 1.2-1.3 1.2-3.3 0.4-5.4-0.4-1.1-0.9-2.1-1.6-3.1-0.2-0.3-0.3-0.5-0.6-0.8l-0.4-0.4-0.4-0.5c-0.2-0.3-0.6-0.6-0.8-0.8-0.2-0.2-0.4-0.4-0.6-0.5l-2-1.7c-0.2-0.1-0.4-0.3-0.6-0.5s-0.6-0.4-0.9-0.6l-0.5-0.4-0.5-0.3c-0.3-0.2-0.5-0.3-0.8-0.4-1.1-0.5-2.2-0.9-3.3-1.1-2.2-0.4-4.2-0.1-5.3 1.2-7.2 9.1-14.4 18.2-21.6 27.3s-14.3 18.3-21.4 27.5L24-130c-7.7 8-15.4 16.1-23 24.2l-11.3 12.4c-3.8 4.1-7.6 8.2-11.3 12.3-1.1 1.3-1.9 2.8-2.2 4.1-0.3 1.3-0.3 2.4 0.2 2.9l0.7 0.8c0.5 0.5 1.6 0.7 2.9 0.4C-18.6-73.1-17-73.8-15.7-74.8z"/>
    <path class="st8" d="M-18-74.2c17.7-14.6 35.2-29.5 52.6-44.5l0.1-0.1 0.4-0.5c16.3-17.5 32.5-35.1 48.5-52.8 0.8-0.8 0.6-2.4-0.2-4-0.4-0.8-0.8-1.6-1.4-2.3-0.6-0.8-1.6-1.8-1.9-2.1l-1.4-1.2c-0.4-0.3-1.5-1.1-2.4-1.6-0.8-0.4-1.7-0.8-2.5-1-1.7-0.4-3.2-0.4-3.9 0.5-15.1 18.6-30 37.2-44.9 56l0.5-0.5C9.4-111.9-6.6-95.5-22.3-78.7c-1.5 1.7-1.8 4.2-1.1 4.9l0.5 0.6C-22.2-72.7-19.8-72.8-18-74.2z"/>
    <path class="st9" d="M-20.2-73.6c18-15.4 35.7-31 53.4-46.6l0.1-0.1 0.3-0.3c16.5-18.2 33-36.5 49.3-54.8 0.4-0.4 0-1.5-0.7-2.5-0.5-0.9-2-2.5-2.3-2.8l-0.9-0.8c-0.3-0.3-2.1-1.5-3.1-1.8-1.1-0.5-2.2-0.7-2.6-0.3-15.7 19-31.2 38-46.7 57.1l0.3-0.4c-16.8 16.6-33.5 33.3-50 50.3-0.8 0.8-0.6 2.4-0.2 2.8l0.4 0.4C-22.6-73.2-21.1-72.9-20.2-73.6z"/>
    <path class="st10" d="M77.4-182.8l-0.3-0.2c-0.1-0.1-0.2-0.1-0.2-0.1-0.2-0.1-0.2-0.1-0.3-0.1-0.1 0.1-0.1 0.1-0.2 0.2l-0.4 0.5-0.8 0.9-1.5 1.8-3 3.6-6.1 7.3-12.2 14.5-24.3 29.1 0.2-0.2C10.8-108.6-6.6-91.7-23.9-74.6l1.5 1.6c18.2-16.2 36.2-32.5 54.2-48.8l0.1-0.1L32-122l25.1-28.4 12.5-14.2 6.3-7.1 3.1-3.6 1.6-1.8 0.8-0.9 0.4-0.4c0.1-0.1 0.1-0.1 0.2-0.2 0-0.1 0-0.1-0.1-0.3 0-0.1-0.1-0.1-0.1-0.2l-0.2-0.3L77.4-182.8z"/>
    <path class="st11" d="M-4.4-108.8c0 0-1.4 3.7-2.5 7.6s-2.1 8.1-0.7 9.6c1.6 1.8 6 1.5 10.6 0 4.5-1.5 9-4.3 9.7-8.6 0.7-4.3-0.4-5.9-1.5-7.4s-2.2-2.9-1.9-7.1c0.2-3.7 1.6-8 3-11.3 1.4-3.3 2.7-5.7 2.8-5.7C8.5-124.1 2-116.5-4.4-108.8z"/>
    <path class="st11" d="M47.8-117.5c0 0-2.5-2.1-3.8-5.3-1.2-3.1-1.4-7.4 3.6-11.4 5.2-4.1 5.8 1.6 10-1.5 3-2.3 3.4-4.4 3.8-6.7 0.4-2.3 1-4.7 4.5-7.4 2.9-2.2 6.9-2.7 9.4-2.7 4.6 0 8.9-0.6 8.9-0.6-6 6-12 12-18.1 17.9-3 3-6.1 5.9-9.1 8.9L47.8-117.5z"/>
    <path class="st13" d="M-86.1-88.9c-1.2-1.9-2.3-3.4-3.6-5-1.3-1.5-2.7-3-4.1-4.4-3-2.8-6.4-5.2-10.3-6.7s-8.5-1.9-12.5-0.8-7.5 3.3-10.3 5.8l1.9 2.5c2.9-1.9 6.1-3.3 9.3-3.7 3.2-0.4 6.2 0.3 9 1.9 2.7 1.5 5.1 3.8 7.2 6.4 1 1.3 2 2.7 2.8 4.1s1.7 3 2.2 4.3L-86.1-88.9z"/>
    <path class="st14" d="M-124-99.5c0.9 1.8-0.8 6.1-6 5.5-4.2-0.5-7.5-5.9-7-6.4 0.3-0.4 3.4 2.2 7.8-0.1C-125.9-102.3-124.8-101-124-99.5z"/>
    <path class="st15" d="M-16.4 57C-7.5 36.3 6.8-6.7 9-35.4 11.3-64 5.4-97.7-52.6-98.1c-58 0.4-63.8 34.1-61.6 62.7 2.3 28.6 16.5 71.6 25.4 92.4 4 9.3 14 16.5 36.1 16.5S-20.4 66.3-16.4 57z"/>
    <path class="st16" d="M9-35.3c-0.8 10.5-3.3 23-6.5 35.6-6.8 8.6-16.2 14.2-28.2 14.2C-54.6 14.5-68-17.7-68-46.1s13.1-42.4 42.3-42.4c6.8 0 12.7 0.8 17.8 2.3C8.6-73.8 10.5-53.6 9-35.3z"/>
    <path class="st11" d="M-90-61.7c2.8 9.4-7.4 12.8-7.7 18.7-0.4 5.8 10.2 13.8 3.9 20.9-7.6 8.5-13.7 7.7-17 7.9-1.5-7.5-2.7-14.7-3.2-21.2-1.1-13.8-0.3-28.7 7.3-40.5C-101.3-74.1-92.8-71-90-61.7z"/>
    <path class="st11" d="M-93.5 22.6c3.8 8.1 2.9 12.3 2.6 17.6-0.1 1.6-0.9 4.2-1.8 6.9-3-7.8-6.2-17.1-9.3-26.9C-99 19.6-95.1 19.2-93.5 22.6z"/>
    <path class="st17" d="M-16.4 57c-4 9.3-14 16.5-36.1 16.5-19.9 0-30-5.9-34.7-13.8C-74.3 48-54.3 40.1-25.8 38.5c5.9-0.3 11.4-0.3 16.7-0.1C-11.8 45.6-14.2 52-16.4 57z"/>
    <path class="st3" d="M-160.9-76.6c-4.9-1.3-9.8-0.5-13.5 2s-6.2 6.8-6.4 12c-0.6 12.9 0.5 26.3 4.2 39.1 1.9 6.4 4.3 12.6 7.3 18.5s6.6 11.4 10.6 16.4c8 10.1 17.6 18.4 27.8 25s21 11.8 32.2 15.7c4.4 1.6 8.9 1.9 12.3 1.4s5.8-1.9 6.3-3.8l0.7-2.6c0.5-2-0.6-4.2-2.7-6.5s-5.2-4.7-8.8-6.6c-4.6-2.4-9-5-13.2-7.8s-8.2-5.9-11.9-9.3c-7.4-6.6-13.7-14.1-18.1-22.2-4.5-8.1-7.2-16.7-8.1-25.5-0.9-8.8-0.2-17.8 1.9-26.7 0.8-3.6-0.1-7.1-2.6-10.2s-6.4-5.9-11.4-7.1L-160.9-76.6z"/>
    <path class="st4" d="M-89.4 36c-4.9-2.3-9.5-5-14-7.9s-8.8-6-12.7-9.4c-7.9-6.8-14.7-14.5-19.5-23.1-4.9-8.5-7.8-17.6-8.8-27s-0.2-18.9 2.1-28.4c0.8-3.1-0.2-6.3-2.4-9-2.2-2.8-5.7-5.2-10-6.2l-5.7-1.4c-4.2-1.1-8.5-0.5-11.8 1.6s-5.6 5.6-5.9 10c-1 13.1-0.2 26.7 3.3 39.7 1.8 6.5 4.1 12.8 7.1 18.8s6.6 11.6 10.6 16.8c8.1 10.3 17.8 18.8 28.3 25.5s21.5 12 33 15.9c3.8 1.3 7.6 1.6 10.5 1.1s4.9-1.7 5.4-3.4l0.6-2.3c0.5-1.7-0.5-3.7-2.3-5.7C-83.6 39.6-86.2 37.5-89.4 36z"/>
    <path class="st5" d="M-87.9 38c-5.1-2.3-10.1-4.9-14.8-7.8-4.7-2.9-9.3-6.1-13.5-9.6-8.4-6.9-15.7-15-20.9-23.9s-8.5-18.6-9.6-28.5c-1.1-10-0.2-20.1 2.3-30.2 0.7-2.7-0.2-5.4-2.2-7.8s-5-4.4-8.6-5.3l-4.8-1.2c-3.5-0.9-7.2-0.5-10.1 1.2-2.9 1.6-5 4.5-5.3 8-1.3 13.2-0.9 27 2.4 40.2 1.6 6.6 3.9 13.1 6.9 19.2 2.9 6.1 6.5 11.9 10.6 17.1 8.1 10.5 18.1 19.2 28.7 26 10.7 6.9 22 12.1 33.8 16.1 3.1 1.1 6.3 1.2 8.7 0.8s4.1-1.5 4.5-2.9l0.5-2c0.4-1.4-0.4-3.1-1.9-4.8C-82.9 40.9-85.2 39.2-87.9 38z"/>
    <path class="st6" d="M-86.3 39.9c-5.4-2.3-10.6-4.9-15.6-7.8s-9.8-6.1-14.3-9.7c-9-7.1-16.8-15.4-22.4-24.7-5.7-9.3-9.2-19.6-10.3-30.1-1.2-10.6-0.1-21.4 2.5-32 0.5-2.2-0.3-4.5-2.1-6.4-1.7-2-4.3-3.6-7.2-4.4l-4-1c-2.8-0.7-5.9-0.4-8.4 0.8-2.5 1.2-4.3 3.4-4.7 6.2-1.7 13.3-1.6 27.2 1.4 40.7 1.5 6.7 3.7 13.3 6.6 19.5 2.9 6.2 6.4 12.1 10.5 17.4 8.2 10.7 18.2 19.5 29.1 26.5s22.5 12.3 34.6 16.3c5 1.6 10 0.3 10.5-2l0.4-1.6c0.3-1.1-0.3-2.5-1.5-3.9C-82.3 42.2-84.1 40.9-86.3 39.9z"/>
    <path class="st7" d="M-84.7 41.8c-11.3-4.4-22-10.4-31.5-17.5-9.5-7.2-17.8-15.8-23.9-25.6-6.1-9.8-9.8-20.6-11.1-31.8s-0.1-22.7 2.8-33.8c0.4-1.7-0.4-3.5-1.9-5-1.5-1.6-3.6-2.9-5.8-3.4l-3.2-0.8c-2.1-0.5-4.6-0.4-6.7 0.5-2.1 0.9-3.6 2.4-3.9 4.4-2.1 13.4-2.3 27.4 0.4 41 1.4 6.8 3.5 13.5 6.3 19.8s6.3 12.3 10.4 17.7c8.2 10.9 18.4 19.9 29.5 27s23 12.5 35.4 16.5c3.8 1.2 7.5-0.1 7.9-1.8l0.3-1.3C-79.1 46-81.3 43.2-84.7 41.8z"/>
    <path class="st8" d="M-83 43.6c-11.8-4.3-23.1-10.2-33.2-17.5s-18.9-16.2-25.4-26.4-10.6-21.7-11.8-33.5c-1.3-11.9 0-24 3-35.7 0.6-2.3-3.3-5.2-6.1-6l-2.3-0.6c-2.8-0.7-7.6 0.3-8.1 2.9-2.5 13.5-3.1 27.6-0.6 41.4 1.2 6.9 3.2 13.6 6 20 2.7 6.4 6.2 12.5 10.3 18 8.2 11.1 18.5 20.3 29.8 27.5s23.5 12.8 36.2 16.7c2.5 0.8 5.1-0.5 5.4-1.7l0.2-0.9C-79.3 46.8-80.7 44.5-83 43.6z"/>
    <path class="st9" d="M-81.2 45.4c-12.4-4.1-24.2-10.1-34.8-17.5s-20.1-16.5-27-27.2c-7-10.6-11.3-22.8-12.6-35.3-1.4-12.5 0.1-25.3 3.3-37.6 0.3-1.1-3.1-3-4.5-3.4l-1.5-0.4c-1.4-0.4-5.3-0.2-5.5 1.1-2.8 13.6-3.8 27.7-1.6 41.7 1.1 6.9 3 13.8 5.6 20.3 2.7 6.5 6.1 12.6 10.2 18.3 8.1 11.3 18.6 20.6 30.1 27.9 5.7 3.7 11.7 6.9 17.9 9.7s12.5 5.2 19.1 7.1c1.3 0.4 2.7-0.9 2.8-1.4l0.2-0.6C-79.5 47.5-80 45.8-81.2 45.4z"/>
    <path class="st10" d="M-160.9-76.6c-3.2 13.6-4.6 27.9-2.7 41.9 0.9 7 2.7 13.9 5.3 20.5s5.9 12.8 10 18.5c8.1 11.5 18.7 20.9 30.4 28.4 5.8 3.7 12 7 18.3 9.9 6.3 2.8 12.8 5.3 19.5 7.1l0.7-2.6c-6.4-1.9-12.8-4.4-18.9-7.3-6.1-2.9-12-6.3-17.6-10-11.2-7.5-21.2-16.9-28.6-28-7.4-11.1-12.1-23.9-13.5-37.1s0.2-26.7 3.6-39.6L-160.9-76.6z"/>
    <path class="st11" d="M-145.5 18c2.2 2.8 5 4.1 9.5 5.6s10.5 3.2 19.2 5.9c6.1 1.9 9.4 5.7 11.6 9.8s3.2 8.5 3.7 11.7c-12-4.5-23.7-10.5-34.6-18.3-5.4-3.9-10.6-8.3-15.4-13.3-4.8-4.9-9.2-10.4-13.1-16.4 0.6-0.1 1.2-0.2 1.9-0.3 7.5-0.9 10.3 1.3 12.2 4.7C-148.7 10.8-147.7 15.2-145.5 18z"/>
    <path class="st11" d="M-138.6-14.9c-2.3-0.2-3.8-1.5-5.3-3.5-1.6-1.9-3.2-4.5-5.8-7.4-3.2-3.6-6.8-4.2-9.9-5-3-0.8-5.5-2-5.6-7.4s2-8.4 4.7-9.6c2.7-1.3 5.9-0.9 8.5 0.1 2.3 0.9 6.1 0.3 10-0.7-0.7 5.7-0.8 11.4-0.3 17C-141.8-25.8-140.5-20.2-138.6-14.9z"/>
    <path class="st18" d="M98.1-193.9c-18.4-15.7-28.8-24.7-42.3-9-10 11.7-8.9 24-7.4 24.8s4.4 0.9 6 2.3c1.5 1.3 0.7 4.5 2.5 6 3 2.8 5.3 1.9 7.3 3.9s1.3 4.9 3.8 7.3 3.5 0.6 6.9 3.3c0.8 0.6 3.3 4.7 6.1 5.9 9.1 4 31.2 5.7 37.2 2C126.1-152.3 109.2-184.4 98.1-193.9z"/>
    <path class="st19" d="M76.8-184.9c9.9-13.1 24.3-4.4 42.6 11.3 11.1 9.5 12.2 15.3 6.1 22.4s-20.3 10.9-37.9-4.2C77.5-164 67.7-172.9 76.8-184.9z"/>
    <path class="st20" d="M57.8-201.2c9.9-13.1 25.3-5.6 43.7 10.2 11.1 9.5 13.2 14.1 7.1 21.2s-22.3 13.2-40-1.9C58.6-180.3 48.7-189.2 57.8-201.2z"/>
    <path class="st21" d="M-161.6-56.3c-1.6-0.4-2.2-2.1-3.4-2.9-1.3-0.8-2.3-0.3-3.7-1.3-1.4-0.9-1.6-2.3-2.9-3.2-0.8-0.6-2-0.4-2.7-0.9-1.4-0.9-1.2-1.9-2-2.6-1.4-1.4-2.6-0.5-2.6-1.5 0-3.1 5.9-28.2 13-26.1 7.2 2.1 7 7.9 12.2 9.1s7.8-4 15.1-2.8c7.4 1.3 0.8 26.2-0.7 28.9-0.4 0.7-0.7 0.2-2 0.9-0.7 0.4-1.5 2.2-3 2.5-1.6 0.3-3-0.4-5.1-0.2-1.4 0.1-2.6 1.7-4.9 1.3-1.3-0.2-2.2-1.5-4-1.8C-159.1-57-160.2-55.9-161.6-56.3z"/>
    <path class="st22" d="M-4.8 209c0 0 5.9 10.8 4.6 21.2s-6.8 15-10.4 14-1.7-5.2-7.7-13c-4.1-5.2-8.1-7.4-8.1-7.4L-4.8 209z"/>
    <path class="st23" d="M-23.2 226.2c0.6 0 1 0 1.2-0.3 0.2-0.2 0.4-1.6 1-1.7s2.2-0.1 2.6-0.2c0.4-0.1 0.4-1.3 1.1-1.4 0.7-0.1 1.5 0.4 2.5 0s1-1.3 1.5-1.3c0.6-0.1 1.1 0.4 1.8 0s0.5-1.8 1-2.1 1.7-0.2 2.2-0.4 0.6-1.5 0.8-1.9c0.2-0.3 1.7 0.1 2.2 0s0.3-2.1 0.9-2.3c0.4-0.1 1.2-0.2 1.8-0.4-1.2-3.2-2.3-5.2-2.3-5.2l-21.7 14.9C-26.5 223.9-25.1 224.6-23.2 226.2z"/>
    <path class="st24" d="M-4.4 202.5l1.9-25.7c0 0 28.5 1.3 43.3 10s18.9 26.5 15.6 31.9c-3.3 5.3-25.6 11.5-41.7 1.7C7.6 215.9 5.3 209.8-4.4 202.5z"/>
    <path class="st25" d="M3.1 209.1c-2-2.1-4.3-4.3-7.4-6.6l1.9-25.7c0 0 6.9 0.3 15.6 1.6C12.6 190.6 9.1 200.9 3.1 209.1z"/>
    <path class="st26" d="M52.8 212.1c1.8-2.3-2.9-19.7-23.5-26.1s-23-3.5-23.8-2.2c-0.8 1.2-0.1 23.4 21.2 24.5C47.4 209.3 50.6 215 52.8 212.1z"/>
    <path class="st27" d="M26.7 205.9c20.7 1 23.9 6.8 26.1 3.9 0.1-0.1 0.2-0.3 0.2-0.5 0.2 1.4 0.1 2.4-0.2 2.8-2.2 2.9-5.4-2.8-26.1-3.9-19.8-1-21.7-20.1-21.3-23.9C5.8 190.8 9.6 205.1 26.7 205.9z"/>
    <path class="st28" d="M9.5 174.2c0-29.2 10.3-85-65.2-80.8-30.4 1.7-34 1.1-40.9 7-10.2 8.8-7.3 56.4-7.3 73.9 0 29.2 16.7 52.5 56.7 52.5C-7.2 226.7 9.5 203.4 9.5 174.2z"/>
    <path class="st29" d="M-56.2 178.6c-5.4 0-8.5 3.5-8.5 9.6 0 7 3.6 12 8.5 12s8.5-5.1 8.5-12C-47.7 182-50.8 178.6-56.2 178.6z"/>
    <path class="st30" d="M59.1 101.3c-1.9-35.1-28-62.6-86.8-59.4-58.8 3.2-81.7 33.5-79.8 68.6s29.8 63.9 86.9 60.7C36.5 168.1 61 136.4 59.1 101.3z"/>
    <path class="st31" d="M-27.6 45.1c-27.1 1.5-47.6 8.8-60.9 21.6-11.6 11.2-17.3 26.5-16.3 44.2 1.7 30.3 24.6 61.5 84.1 58.2 59.4-3.3 78.8-36.8 77.2-67.1-1-17.7-8.3-32.3-21-42.1C20.7 48.6-0.4 43.6-27.6 45.1z"/>
    <path class="st32" d="M-49.3 189.7c0-5.5-2.8-8-6.9-8s-6.9 2.4-6.9 8c0 5.5 2.6 10.4 6.9 10.4S-49.3 195.3-49.3 189.7z"/>
    <path class="st33" d="M-52.2 195.6c0.6-1.7 0.3-3.3-0.8-3.7-1-0.4-2.4 0.6-3 2.3s-0.3 3.3 0.8 3.7C-54.1 198.3-52.8 197.3-52.2 195.6z"/>
    <path class="st34" d="M-44.6 151.8c0.2-2 10.5-0.6 9.2 2.4C-36.7 157.2-44.8 153.8-44.6 151.8z"/>
    <path class="st34" d="M31.8 147.6c-0.4-2-10.5 0.6-8.9 3.4C24.5 153.8 32.2 149.6 31.8 147.6z"/>
    <path class="st35" d="M2.2 203.8c-7.4 1.3-5.4 5.9-11.4 10.3-6.9 5-15 6.7-18.1 0-3.8-8.2 0.1-12 0.8-22.4 0.6-8.1-2.9-9.7 4.1-15.8 5.9-5.1 14.3-2.5 16.9 1.5s0.7 3.9 4 7.3c3.6 3.7 6.4 1.7 10.5-1.6C8.1 190.6 5.9 197.7 2.2 203.8z"/>
    <path class="st36" d="M-13.2 178.6c-5.4 0-8.5 3.5-8.5 9.6 0 7 3.6 12 8.5 12s8.5-5.1 8.5-12C-4.7 182-7.8 178.6-13.2 178.6z"/>
    <path class="st37" d="M-6.3 189.7c0-5.5-2.8-8-6.9-8-4.2 0-6.9 2.4-6.9 8 0 5.5 2.6 10.4 6.9 10.4S-6.3 195.3-6.3 189.7z"/>
    <path class="st33" d="M-9.2 195.6c0.6-1.7 0.3-3.3-0.8-3.7-1-0.4-2.4 0.6-3 2.3s-0.3 3.3 0.8 3.7S-9.8 197.3-9.2 195.6z"/>
    <path class="st38" d="M-7.1 65.1c-42.1 0-46.7 15.4-46.9 16.1-0.3 1 0.3 2.1 1.4 2.4 1 0.3 2.1-0.3 2.4-1.4 0-0.1 5.4-15.6 53.8-13 34.6 1.9 40.1 11.9 40.8 16.2 0.2 1 1.2 1.7 2.2 1.6 1-0.2 1.7-1.2 1.6-2.2C46.9 77 38.1 67.3 3.8 65.5-0.1 65.2-3.7 65.1-7.1 65.1z"/>
    <path class="st3" d="M-95.9 201.1c0 0 2-3.1 2-16.5 0-7.4-4.9-11.7-4.9-11.7s-33.1 1.5-50.2 11.6c-17.2 10.1-21.9 27.5-18.1 33.6 3.8 6.2 29.7 16.6 48.3 5.3C-110.5 218.3-107.1 209.6-95.9 201.1z"/>
    <path class="st39" d="M-162.8 213.9c-2-2.7 3.4-22.9 27.2-30.3 23.9-7.4 26.7-4 27.6-2.6 0.9 1.5 0.2 27.1-24.6 28.4C-156.6 210.6-160.2 217.3-162.8 213.9z"/>
    <path class="st40" d="M-162.8 211.2c2.6 3.4 6.2-3.3 30.3-4.5 19.8-1 24.2-17.6 24.7-25 0.5 4.4-1.8 26.5-24.7 27.7-24 1.2-27.7 7.9-30.3 4.5-0.4-0.5-0.5-1.7-0.3-3.3C-163 210.8-162.9 211.1-162.8 211.2z"/>
    <path class="st41" d="M-90.7 206.5c0 0-6.7 12.3-5.3 24.2 1.5 11.9 7.7 17.2 11.9 16 4.1-1.1 1.9-5.9 8.9-14.8 4.7-6 9.3-8.4 9.3-8.4L-90.7 206.5z"/>
    <path class="st42" d="M-69.4 226.1c-0.6 0-1.4 0-1.7-0.3-0.2-0.3-0.5-1.8-1.1-1.9-0.6-0.1-2.6-0.1-3-0.3s-0.4-1.5-1.3-1.6-1.8 0.4-2.9 0-1.1-1.4-1.8-1.5c-0.7-0.1-1.3 0.4-2 0-0.8-0.4-0.6-2.1-1.2-2.4-0.6-0.3-1.9-0.3-2.5-0.5-0.6-0.3-0.7-1.8-0.9-2.1-0.3-0.3-1.9 0.1-2.5 0s-0.3-2.4-1-2.6c-0.5-0.1-1.2-1.3-1.8-1.5 1.3-3.6 2.3-5.3 2.3-5.3s9 3.7 14.1 6.8c5.1 3 11 10.7 11 10.7S-67.2 224.3-69.4 226.1z"/>
    <path class="st3" d="M-102.7-220.4c-0.8 0.3-3 1.1-4.5 1.7-1.2 0.6-2.3 1.2-3.3 1.9-2 1.4-3.6 3-4.9 4.7-2.5 3.4-3.3 7.3-1.9 10.9 3.4 9.1 6.6 18.2 9.4 27.2 1.4 4.5 2.8 9 4 13.5 1.2 4.4 2.2 8.8 2.9 12.7 0.2 1 0.3 1.9 0.4 2.8l0.2 1.3 0.1 0.6c0 0.1 0 0.3 0 0.5v0.6c0.1 2.9 0.2 5.6 0.4 8.3 0.4 5.3 1 10.4 1.6 15.5 1.3 10.2 2.8 20.3 4.6 30.3 0.7 4 2.3 7.6 3.9 10.2s3.4 4.1 5.1 4.1l2.2-0.1c1.7-0.1 3.3-1.7 4.7-4.4 1.4-2.7 2.8-6.3 3.2-10.3l3.4-29.9c0.6-4.9 1.2-9.8 1.9-14.6 0.3-2.4 0.7-4.7 1.1-6.8l0.1-0.4c0-0.1 0.1-0.2 0.1-0.5l0.2-1.3c0.1-0.8 0.2-1.7 0.3-2.5 0.2-1.6 0.3-3.2 0.3-4.7 0.2-6.1 0.1-11.7-0.4-17.2-0.4-5.5-1-10.8-1.7-16.1-1.4-10.6-3.3-20.8-5.5-31.1-0.9-4.1-3.7-7.2-7.8-8.8-2-0.8-4.3-1.2-6.7-1.3-1.2 0-2.4 0.1-3.8 0.3-1.7 0.3-3.9 0.9-4.7 1.2L-102.7-220.4z"/>
    <path class="st4" d="M-75.9-86.5l3.1-30.9c0.5-5.1 1-10.2 1.7-15.2 0.3-2.5 0.6-4.9 1-7.1l0.2-0.8 0.2-1.3c0.1-0.9 0.2-1.7 0.3-2.5 0.2-1.6 0.2-3.2 0.3-4.8 0.2-6.2-0.1-11.9-0.6-17.5s-1.1-11.1-1.9-16.5-1.7-10.7-2.7-16-2.1-10.6-3.3-15.8c-0.8-3.5-3.4-6.1-7-7.4-1.8-0.7-3.8-1-5.9-1-0.5 0-1.1 0-1.6 0.1l-0.8 0.1c-0.3 0-0.6 0.1-0.9 0.1-1.6 0.3-3.2 0.8-4 1l-4.4 1.4c-0.7 0.2-2.4 0.9-3.8 1.5-0.3 0.2-0.6 0.3-0.8 0.4l-0.7 0.4c-0.5 0.3-0.9 0.6-1.4 0.9-1.7 1.2-3.2 2.6-4.3 4.1-2.2 3-3 6.3-1.9 9.5 3.4 9.4 6.7 19 9.6 28.4 1.4 4.7 2.8 9.4 4 14.1 1.2 4.6 2.2 9.2 2.8 13.5 0.2 1 0.3 2.1 0.4 3l0.1 1.4v0.7 1.1c0 2.9 0.2 5.7 0.4 8.4 0.4 5.4 0.9 10.7 1.5 16 1.2 10.5 2.6 20.9 4.3 31.3 0.5 3.4 1.9 6.5 3.2 8.7 1.4 2.2 2.9 3.6 4.4 3.5l2-0.1c1.5-0.1 2.8-1.5 4.1-3.8C-77.3-79.9-76.2-83.1-75.9-86.5z"/>
    <path class="st5" d="M-77.2-84.4l2.6-32c0.5-5.3 0.9-10.6 1.5-15.7 0.3-2.6 0.6-5.1 1-7.5l0.1-0.9v-0.2-0.3l0.1-0.6c0.1-0.9 0.2-1.7 0.3-2.5 0.1-1.6 0.2-3.2 0.3-4.8 0.1-6.2-0.2-12-0.8-17.7-0.5-5.7-1.3-11.3-2.2-16.8s-1.9-11-3-16.4-2.3-10.8-3.6-16.2c-0.7-2.9-3-5-6.1-6-1.6-0.5-3.3-0.8-5.1-0.8-0.5 0-0.9 0-1.4 0.1-0.5 0-0.9 0.1-1.6 0.2l-1 0.2-0.9 0.2c-0.6 0.1-1 0.3-1.3 0.4l-3.8 1.2c-0.3 0.1-0.7 0.3-1.3 0.5l-0.9 0.3-0.9 0.4c-0.6 0.3-1 0.5-1.4 0.7s-0.8 0.5-1.2 0.7c-1.5 1-2.8 2.2-3.8 3.5-2 2.5-2.8 5.4-1.9 8 1.7 4.9 3.4 9.8 5.1 14.8 1.6 4.9 3.2 9.9 4.7 14.8s2.8 9.9 4 14.7c1.2 4.9 2.2 9.7 2.8 14.2 0.1 1.1 0.3 2.2 0.3 3.2 0 0.5 0.1 1 0.1 1.5v0.4 0.2 0.3 1.1c0 3 0.1 5.8 0.3 8.6 0.3 5.6 0.8 11 1.3 16.4 1.1 10.8 2.4 21.6 4 32.3 0.4 2.9 1.5 5.4 2.7 7.3 1.2 1.8 2.5 3 3.7 2.9l1.7-0.1c1.2 0 2.4-1.3 3.4-3.2C-78.3-78.9-77.4-81.5-77.2-84.4z"/>
    <path class="st6" d="M-78.4-82.3l2.2-33.1c0.4-5.5 0.8-11 1.3-16.3 0.3-2.7 0.5-5.3 0.9-7.8l0.1-0.9 0.1-0.5 0.1-0.6c0.1-0.9 0.2-1.7 0.3-2.5 0.1-1.7 0.2-3.3 0.2-4.8 0.1-6.3-0.3-12.2-1-18-0.6-5.8-1.5-11.5-2.5-17.2-1-5.6-2.1-11.2-3.3-16.8-1.2-5.6-2.5-11.1-3.9-16.6-0.6-2.3-2.6-3.9-5.3-4.7-1.3-0.4-2.8-0.6-4.3-0.5-0.8 0-1.4 0-2.6 0.3l-0.8 0.2-0.7 0.2c-0.4 0.1-0.8 0.2-1 0.3l-3.1 1c-0.3 0.1-0.6 0.2-1 0.4l-0.7 0.3-0.7 0.3c-1.1 0.5-1.6 0.8-2.3 1.2-1.3 0.8-2.4 1.8-3.3 2.8-1.8 2.1-2.6 4.4-1.8 6.5 3.6 10.2 6.9 20.5 9.9 30.8 1.5 5.1 2.8 10.3 4 15.4s2.2 10.2 2.7 15c0.1 1.2 0.2 2.4 0.3 3.5 0 0.6 0.1 1.1 0.1 1.6v0.4 0.6 1.1c0 3 0.1 5.9 0.2 8.7 0.3 5.7 0.7 11.3 1.2 16.9 1 11.2 2.2 22.2 3.6 33.3 0.3 2.3 1.2 4.3 2.1 5.8 1 1.5 2 2.4 3 2.3l1.4-0.1c1 0 2-1 2.8-2.5C-79.3-77.9-78.6-80-78.4-82.3z"/>
    <path class="st7" d="M-79.5-80.2c0.5-11.4 1.1-22.8 1.7-34.1 0.3-5.7 0.6-11.3 1.1-16.9 0.2-2.8 0.5-5.5 0.8-8.2l0.3-2c0.1-0.9 0.2-1.7 0.2-2.5 0.1-1.7 0.2-3.3 0.2-4.8 0-6.3-0.5-12.3-1.2-18.3-0.7-5.9-1.7-11.7-2.7-17.5-2.2-11.5-4.8-22.9-7.8-34.1-0.4-1.7-2.2-2.8-4.4-3.3-1.1-0.3-2.3-0.4-3.5-0.3-0.3 0-0.6 0-0.9 0.1l-0.6 0.1-0.6 0.1c-0.4 0.1-0.8 0.2-1.1 0.2-0.3 0.1-0.5 0.1-0.8 0.2l-2.5 0.8c-0.2 0.1-0.4 0.2-0.7 0.3-0.3 0.1-0.7 0.3-1 0.4l-0.6 0.3-0.5 0.3c-0.3 0.2-0.5 0.3-0.8 0.5-1 0.6-1.9 1.4-2.7 2.2-1.5 1.6-2.3 3.5-1.8 5 3.6 10.6 7 21.3 10 32 1.5 5.4 2.9 10.7 4.1 16s2.2 10.7 2.7 15.7c0.1 1.3 0.2 2.5 0.3 3.7 0 0.6 0 1.2 0 1.8v2.2c0 3 0 6 0.1 8.9 0.2 5.8 0.6 11.6 1 17.3 0.8 11.5 1.9 22.9 3.2 34.3 0.2 1.7 0.9 3.3 1.6 4.4 0.8 1.1 1.6 1.8 2.4 1.7h1.1c0.7 0 1.5-0.8 2.2-1.9C-80.2-76.9-79.6-78.5-79.5-80.2z"/>
    <path class="st8" d="M-80.6-78.1c0.3-11.8 0.7-23.5 1.1-35.2 0.2-5.8 0.5-11.7 0.9-17.5 0.2-2.9 0.4-5.8 0.7-8.5l0.2-2.1c0.1-0.8 0.2-1.7 0.2-2.5 0.1-1.6 0.1-3.3 0.1-4.9 0-6.4-0.6-12.5-1.5-18.5-0.8-6-1.9-12-3-17.8-2.4-11.8-5.2-23.3-8.4-34.9-0.3-1.1-1.7-1.8-3.5-2-0.9-0.1-1.8-0.2-2.7-0.1-1 0.1-2.4 0.4-2.8 0.6l-1.8 0.6c-0.4 0.1-1.7 0.7-2.6 1.2-0.8 0.5-1.5 1-2.2 1.6-1.3 1.2-2.1 2.5-1.7 3.5 3.7 10.9 7.1 22.1 10.1 33.2 1.5 5.6 2.9 11.1 4.1 16.7 1.2 5.6 2.2 11.1 2.6 16.5 0.1 1.3 0.2 2.7 0.2 4 0 0.6 0 1.3 0 1.9l-0.1 2.3c-0.1 3.1 0 6.1 0.1 9.1 0.2 6 0.4 11.9 0.8 17.8 0.7 11.8 1.7 23.6 2.8 35.3 0.3 2.3 2 4.1 2.9 4h0.8C-82.2-73.9-80.7-75.8-80.6-78.1z"/>
    <path class="st9" d="M-81.6-76c0.1-12.1 0.2-24.2 0.5-36.3 0.1-6 0.3-12.1 0.6-18 0.2-3 0.3-6 0.6-8.9l0.2-2.2c0.1-0.8 0.2-1.7 0.2-2.5 0.1-1.6 0.1-3.3 0.1-4.9-0.1-6.4-0.8-12.6-1.7-18.7s-2.1-12.2-3.3-18.2c-2.6-12-5.6-23.8-9-35.6-0.2-0.6-1.3-0.8-2.5-0.8-1.1-0.1-3.2 0.4-3.6 0.5l-1.2 0.4c-0.4 0.1-2.4 1-3.2 1.7-1 0.7-1.8 1.5-1.6 2 3.8 11.3 7.2 22.8 10.3 34.4 1.5 5.8 2.9 11.6 4.1 17.4 1.2 5.8 2.1 11.6 2.5 17.3 0.1 1.4 0.2 2.8 0.2 4.2 0 0.7 0 1.4 0 2.1l-0.1 2.4c-0.1 3.1-0.1 6.2 0 9.3 0.1 6.1 0.3 12.2 0.6 18.3 0.6 12.1 1.4 24.2 2.3 36.3 0.1 1.1 1.5 2 1.9 2h0.5C-82.9-73.8-81.6-74.8-81.6-76z"/>
    <path class="st10" d="M-102.7-220.4l-0.3 0.2c-0.1 0.1-0.1 0.1-0.2 0.1-0.1 0.1-0.2 0.2-0.2 0.2 0 0.1 0.1 0.2 0.1 0.3l0.2 0.5 0.4 1.1 0.7 2.2 1.4 4.4c0.9 3 1.8 5.9 2.7 8.9 1.7 5.9 3.4 11.9 4.9 17.9s2.9 12 4.1 18c1.1 6 2.1 12.1 2.5 18.1 0.1 1.5 0.1 3 0.1 4.5 0 0.7 0 1.4-0.1 2.2l-0.1 2.4c-0.1 3.2-0.2 6.3-0.2 9.4 0 6.3 0.2 12.5 0.4 18.7 0.4 12.5 1 24.9 1.8 37.4l2.2-0.1c-0.1-12.4-0.2-24.9-0.2-37.3 0-6.2 0.1-12.4 0.3-18.6 0.1-3.1 0.2-6.2 0.5-9.2l0.2-2.3c0.1-0.8 0.1-1.6 0.2-2.4 0.1-1.6 0.1-3.2 0-4.9-0.2-6.4-1-12.7-2-18.9s-2.3-12.4-3.6-18.5c-1.4-6.1-2.9-12.2-4.5-18.2-0.8-3-1.6-6-2.5-9.1l-1.3-4.5-0.7-2.3-0.3-1.1-0.2-0.6c0-0.1 0-0.2-0.1-0.3-0.1 0-0.1-0.1-0.3-0.1-0.1 0-0.1 0-0.3 0h-0.4L-102.7-220.4z"/>
    <path class="st11" d="M-72.9-133.8c-2 0.9-3.3 0-4.7-1-1.3-1-2.6-2-4.4-1.3s-3 1.7-4 3.8-1.8 5.2-2.6 10.3c-0.5 3.7-2.1 7-3.7 9.6s-3.3 4.6-4.4 5.8c-1.2-8.4-2.3-16.8-3-25.5-0.2-2.2-0.3-4.4-0.5-6.7-0.1-1.1-0.1-2.3-0.1-3.5 0-0.3 0-0.7 0-0.8l-0.1-0.5-0.1-1c-0.4-2.9-1-6.4-1.9-10 0.5-0.5 1.2-0.9 2.1-1.3 2.9-1.3 5.3 0.3 7.4 2.4 2.1 2.1 3.9 4.6 6.2 5 2.3 0.3 3.5-1.5 5-4s3.2-5.5 6.7-7.5c2.9-1.6 5.6-2.2 7.7-2.4 0.2 4.2 0.3 8.5 0.1 13.1-0.1 2.3-0.3 4.7-0.6 7.2l-0.1 1c0 0.3-0.1 0.7-0.1 0.8l-0.2 1.2c-0.2 0.8-0.3 1.7-0.4 2.5C-70.1-135.5-71.6-134.5-72.9-133.8z"/>
    <path class="st11" d="M-117.2-201.2c2.6-1.3 7.7 3.6 10.5 7.5s-1.6 4.7-1 8.2c0.3 1.8-0.9 3.7-2.1 5.2C-112.2-187.3-114.6-194.3-117.2-201.2z"/>
    <path class="st18" d="M-88.4-246.8c-24.2 0-38 0-38 20.7 0 15.4 8.9 24 10.5 23.7 1.7-0.3 3.9-2.2 6-2.2 2 0 3.5 2.9 5.8 3 4.1 0.1 5.2-2 8.1-1.8 2.8 0.2 4.2 2.9 7.6 3.1 3.5 0.2 3.1-1.8 7.4-2 1 0 5.6 1.4 8.4 0.5 9.5-2.9 27.4-16 29.5-22.7C-40-233.4-73.8-246.8-88.4-246.8z"/>
    <path class="st43" d="M-98.7-226.1c-1-16.4 15.6-19.1 39.8-19.1 14.6 0 19.2 3.7 19.2 13 0 9.4-8.4 21.4-31.6 21.4C-84.5-210.7-97.8-211-98.7-226.1z"/>
    <path class="st44" d="M-123.7-226.1c-1-16.4 15.6-20.7 39.8-20.7 14.6 0 19.2 2.1 19.2 11.5s-8.4 24.6-31.6 24.6C-109.5-210.7-122.8-211-123.7-226.1z"/>
    <g class="st46">
      <polygon class="st47" points="-88.3 29.4 -11.2 23.1 -13.7 -5.2 -90.8 1.1 "/>
      <path class="st48-dais" d="M-54.3 7.9c1.2-0.1 1.5 0.4 1.6 1.5l0.4 4.2 -1.5 0.9 0.1 0.8 4.4 1.4 0.7-0.1L-49.3 9c-0.1-1.2 0.2-1.6 1.3-1.8l-0.1-1.3 -6.3 0.5L-54.3 7.9z"/>
      <path class="st48-dais" d="M-73.5 21.7l0.1 0.8 4.4 1.4 0.7-0.1 -1.2-13.4c-0.1-0.8 0.1-1.2 0.7-1.3 0.1 0 0.4 0 0.7 0l-0.1-1.3 -4.9-0.3v1.3c-1.2-0.8-2.4-1.2-3.7-1.1 -2.8 0.3-4.8 2.5-4.5 5.7 0.3 3.4 2.7 5.5 6.1 5.2 0.9-0.1 1.9-0.4 2.8-1.1l0.3 3L-73.5 21.7zM-74.6 17.7c-1.5 0.1-2.8-1.3-3.1-3.7 -0.2-2.4 0.9-4 2.6-4.1 0.6-0.1 1.3 0.3 2.2 0.9l0.5 4.9C-72.8 16.9-73.7 17.7-74.6 17.7"/>
      <path class="st48-dais" d="M-64 7.1c-2.2 0.2-3.2 1.2-3.1 2.5 0.2 1.9 2.5 3.1 7.1 3.8l0.1 1.5c0.1 0.9-0.4 1.3-1.4 1.4 -1.3 0.1-2.2-0.1-2.2-0.5 0-0.3 0.2-0.6 0.2-1.1 -0.1-0.8-0.7-1.3-1.8-1.2 -0.9 0.1-1.4 0.6-1.4 1.4 0.1 1.4 2.5 3 5.8 2.7 1.3-0.1 2.5-0.5 3.4-1.2 0.8-0.6 0.8-1.3 0.7-2.3L-57 10c-0.1-1-0.1-1.4 0.5-1.4 0.2 0 0.5 0.1 0.7 0.3l0.7-0.8c-1.1-1.2-2.2-1.7-3.3-1.6C-59.3 6.6-60 7-60.5 7.9 -61.6 7.4-62.8 7-64 7.1M-60 12.1c-2.3-0.4-3.6-1.2-3.7-2.2 -0.1-0.5 0.4-1.1 1-1.1 0.7-0.1 1.4 0.3 2.4 0.8L-60 12.1z"/>
      <path class="st48-dais" d="M-46.5 9.6l0.8-0.1c1.1-1.8 2.4-2.7 3.5-2.8 0.9-0.1 1.6 0.4 1.7 1.2 0.1 1-1.4 1.3-3.7 2.3 -1.5 0.7-2.2 1.6-2.1 3.1 0.2 1.9 2.1 3.1 4.9 2.9 1.3-0.1 2.5-0.4 3.7-1.2l-0.3-2.8 -0.8 0.1c-0.9 1.6-2.2 2.4-3.4 2.5 -0.8 0.1-1.5-0.4-1.5-0.9 -0.1-1 1.4-1.2 3.8-2.3 1.7-0.8 2.4-1.9 2.3-3.3 -0.2-2-2.2-3.2-5.1-3 -1.4 0.1-2.7 0.6-4.2 1.4L-46.5 9.6z"/>
      <path class="st48-dais" d="M-35.1 13c-0.2 0.7-0.7 1.1-1.4 1.2 -0.1 0-0.2 0-0.3 0l0.1 1.3 6.4-0.5 -0.1-1.3h-0.2c-0.7 0.1-1.1-0.1-1.1-0.5 0-0.2 0.1-0.4 0.1-0.6l1.7-5.1 2.4 4.9c0.1 0.2 0.2 0.4 0.2 0.5 0 0.4-0.3 0.7-0.9 0.7 -0.1 0-0.2 0-0.4 0l0.1 1.3 4.5-0.4 -0.1-1.3c-0.8 0.1-1.4-0.3-1.9-1l-4.5-8.6c-1.5-2.8-2.4-4.4-4.7-4.2 -1.5 0.1-2.4 1.1-2.3 2.2 0.1 0.8 0.7 1.3 1.5 1.3 0.3 0 0.7-0.2 0.9-0.4 0.7-0.6 1-1 1.2-1.1 0.4 0 1 0.7 1.7 2.3L-35.1 13z"/>
      <path class="st49" d="M-24 7.7c1.1-0.1 2-1 1.8-2.1 -0.1-1.1-1-1.9-2.2-1.8 -1.1 0.1-1.9 1-1.8 2.1C-26 7.1-25.1 7.8-24 7.7"/>
      <path class="st48-dais" d="M-50 22.6c1.1-0.1 1.9-1 1.8-2.1s-1-1.8-2.2-1.7c-1.1 0.1-1.9 1-1.8 2.1C-52.1 21.8-51.1 22.6-50 22.6"/>
      <path class="st48-dais" d="M-74.5 27.9c0.4 0 0.7-0.3 0.7-0.6 0-0.3-0.3-0.6-0.7-0.6s-0.7 0.3-0.7 0.6S-74.9 27.9-74.5 27.9z"/>
      <path class="st48-dais" d="M-25.9 23.9c0.4 0 0.7-0.3 0.7-0.6 0-0.3-0.3-0.6-0.7-0.6 -0.4 0-0.7 0.3-0.7 0.6C-26.6 23.6-26.3 23.9-25.9 23.9z"/>
      <line class="st50" x1="-25.8" y1="23.9" x2="-15.1" y2="58.7"/>
      <line class="st50" x1="-74.4" y1="27.9" x2="-78.9" y2="63.9"/>
    </g>
  </symbol>
  <g id="Coins1" class="st49">
    <use xlink:href="#Coin_Symbol" width="72.9" height="9" x="-36.4" y="-4.5" transform="matrix(1 0 0 -1 452.9496 505.2849)"/>
    <use xlink:href="#Coin_Symbol" width="72.9" height="9" x="-36.4" y="-4.5" transform="matrix(1 0 0 -1 451.9496 496.7849)"/>
    <use xlink:href="#Coin_Symbol" width="72.9" height="9" x="-36.4" y="-4.5" transform="matrix(1 0 0 -1 451.9496 487.7849)"/>
  </g>
  <g id="Coins2" class="st49">
    <use xlink:href="#Coin_Symbol" width="72.9" height="9" x="-36.4" y="-4.5" transform="matrix(1 0 0 -1 453.2996 479.3849)"/>
    <use xlink:href="#Coin_Symbol" width="72.9" height="9" x="-36.4" y="-4.5" transform="matrix(1 0 0 -1 452.2996 470.8849)"/>
    <use xlink:href="#Coin_Symbol" width="72.9" height="9" x="-36.4" y="-4.5" transform="matrix(1 0 0 -1 453.2996 461.8849)"/>
  </g>
  <g id="Coins3" class="st49">
    <use xlink:href="#Coin_Symbol" width="72.9" height="9" x="-36.4" y="-4.5" transform="matrix(1 0 0 -1 453.3451 452.8849)"/>
    <use xlink:href="#Coin_Symbol" width="72.9" height="9" x="-36.4" y="-4.5" transform="matrix(1 0 0 -1 453.3451 444.3849)"/>
    <use xlink:href="#Coin_Symbol" width="72.9" height="9" x="-36.4" y="-4.5" transform="matrix(1 0 0 -1 452.3451 435.3849)"/>
  </g>
  <g id="Coins4" class="st49">
    <use xlink:href="#Coin_Symbol" width="72.9" height="9" x="-36.4" y="-4.5" transform="matrix(1 0 0 -1 450.3906 426.3849)"/>
    <use xlink:href="#Coin_Symbol" width="72.9" height="9" x="-36.4" y="-4.5" transform="matrix(1 0 0 -1 451.3906 417.8849)"/>
    <use xlink:href="#Coin_Symbol" width="72.9" height="9" x="-36.4" y="-4.5" transform="matrix(1 0 0 -1 452.3906 408.8849)"/>
  </g>
  <g id="Coins5" class="st49">
    <use xlink:href="#Coin_Symbol" width="72.9" height="9" x="-36.4" y="-4.5" transform="matrix(1 0 0 -1 455.436 399.8849)"/>
    <use xlink:href="#Coin_Symbol" width="72.9" height="9" x="-36.4" y="-4.5" transform="matrix(1 0 0 -1 453.436 391.3849)"/>
    <use xlink:href="#Coin_Symbol" width="72.9" height="9" x="-36.4" y="-4.5" transform="matrix(1 0 0 -1 454.436 382.3849)"/>
  </g>
  <g id="Coins6" class="st49">
    <use xlink:href="#Coin_Symbol" width="72.9" height="9" x="-36.4" y="-4.5" transform="matrix(1 0 0 -1 457.4815 373.3849)"/>
    <use xlink:href="#Coin_Symbol" width="72.9" height="9" x="-36.4" y="-4.5" transform="matrix(1 0 0 -1 456.4815 364.8849)"/>
    <use xlink:href="#Coin_Symbol" width="72.9" height="9" x="-36.4" y="-4.5" transform="matrix(1 0 0 -1 459.4815 355.8849)"/>
  </g>
  <g id="Coins7" class="st49">
    <use xlink:href="#Coin_Symbol" width="72.9" height="9" x="-36.4" y="-4.5" transform="matrix(1 0 0 -1 458.5269 346.8849)"/>
    <use xlink:href="#Coin_Symbol" width="72.9" height="9" x="-36.4" y="-4.5" transform="matrix(1 0 0 -1 457.5269 338.3849)"/>
    <use xlink:href="#Coin_Symbol" width="72.9" height="9" x="-36.4" y="-4.5" transform="matrix(1 0 0 -1 457.5269 329.3849)"/>
  </g>
  <g id="daisycoins0">
    <use xlink:href="#Daisy_Symbol" width="361.9" height="493.7" x="-181" y="-246.8" transform="matrix(0.9998 0 0 -0.9998 307.2115 422.2378)" overflow="visible"/>
    <g id="Coins1_1_">
      <use xlink:href="#Coin_Symbol" width="72.9" height="9" x="-36.4" y="-4.5" transform="matrix(1 0 0 -1 452.9496 360.8705)" overflow="visible"/>
      <use xlink:href="#Coin_Symbol" width="72.9" height="9" x="-36.4" y="-4.5" transform="matrix(1 0 0 -1 451.9496 352.3705)" overflow="visible"/>
      <use xlink:href="#Coin_Symbol" width="72.9" height="9" x="-36.4" y="-4.5" transform="matrix(1 0 0 -1 451.9496 343.3705)" overflow="visible"/>
    </g>
  </g>
  <g id="daisycoins1">
    <use xlink:href="#Daisy_Symbol" width="361.9" height="493.7" x="-181" y="-246.8" transform="matrix(0.9998 0 0 -0.9998 307.2115 422.2378)" overflow="visible"/>
    <g id="Coins1_2_">
      <use xlink:href="#Coin_Symbol" width="72.9" height="9" x="-36.4" y="-4.5" transform="matrix(1 0 0 -1 452.9496 360.8705)" overflow="visible"/>
      <use xlink:href="#Coin_Symbol" width="72.9" height="9" x="-36.4" y="-4.5" transform="matrix(1 0 0 -1 451.9496 352.3705)" overflow="visible"/>
      <use xlink:href="#Coin_Symbol" width="72.9" height="9" x="-36.4" y="-4.5" transform="matrix(1 0 0 -1 451.9496 343.3705)" overflow="visible"/>
    </g>
    <g id="Coins2_1_">
      <use xlink:href="#Coin_Symbol" width="72.9" height="9" x="-36.4" y="-4.5" transform="matrix(1 0 0 -1 453.2996 334.9706)" overflow="visible"/>
      <use xlink:href="#Coin_Symbol" width="72.9" height="9" x="-36.4" y="-4.5" transform="matrix(1 0 0 -1 452.2996 326.4706)" overflow="visible"/>
      <use xlink:href="#Coin_Symbol" width="72.9" height="9" x="-36.4" y="-4.5" transform="matrix(1 0 0 -1 453.2996 317.4706)" overflow="visible"/>
    </g>
  </g>
  <g id="daisycoins2">
    <use xlink:href="#Daisy_Symbol" width="361.9" height="493.7" x="-181" y="-246.8" transform="matrix(0.9998 0 0 -0.9998 307.2115 422.2378)" overflow="visible"/>
    <g id="Coins1_3_">
      <use xlink:href="#Coin_Symbol" width="72.9" height="9" x="-36.4" y="-4.5" transform="matrix(1 0 0 -1 452.9496 360.8705)" overflow="visible"/>
      <use xlink:href="#Coin_Symbol" width="72.9" height="9" x="-36.4" y="-4.5" transform="matrix(1 0 0 -1 451.9496 352.3705)" overflow="visible"/>
      <use xlink:href="#Coin_Symbol" width="72.9" height="9" x="-36.4" y="-4.5" transform="matrix(1 0 0 -1 451.9496 343.3705)" overflow="visible"/>
    </g>
    <g id="Coins2_2_">
      <use xlink:href="#Coin_Symbol" width="72.9" height="9" x="-36.4" y="-4.5" transform="matrix(1 0 0 -1 453.2996 334.9706)" overflow="visible"/>
      <use xlink:href="#Coin_Symbol" width="72.9" height="9" x="-36.4" y="-4.5" transform="matrix(1 0 0 -1 452.2996 326.4706)" overflow="visible"/>
      <use xlink:href="#Coin_Symbol" width="72.9" height="9" x="-36.4" y="-4.5" transform="matrix(1 0 0 -1 453.2996 317.4706)" overflow="visible"/>
    </g>
    <g id="Coins3_1_">
      <use xlink:href="#Coin_Symbol" width="72.9" height="9" x="-36.4" y="-4.5" transform="matrix(1 0 0 -1 453.3451 308.4706)" overflow="visible"/>
      <use xlink:href="#Coin_Symbol" width="72.9" height="9" x="-36.4" y="-4.5" transform="matrix(1 0 0 -1 453.3451 299.9706)" overflow="visible"/>
      <use xlink:href="#Coin_Symbol" width="72.9" height="9" x="-36.4" y="-4.5" transform="matrix(1 0 0 -1 452.3451 290.9706)" overflow="visible"/>
    </g>
  </g>
  <g id="daisycoins3">
    <use xlink:href="#Daisy_Symbol" width="361.9" height="493.7" x="-181" y="-246.8" transform="matrix(0.9998 0 0 -0.9998 307.2115 422.2378)" overflow="visible"/>
    <g id="Coins1_7_">
      <use xlink:href="#Coin_Symbol" width="72.9" height="9" x="-36.4" y="-4.5" transform="matrix(1 0 0 -1 452.9496 360.8705)" overflow="visible"/>
      <use xlink:href="#Coin_Symbol" width="72.9" height="9" x="-36.4" y="-4.5" transform="matrix(1 0 0 -1 451.9496 352.3705)" overflow="visible"/>
      <use xlink:href="#Coin_Symbol" width="72.9" height="9" x="-36.4" y="-4.5" transform="matrix(1 0 0 -1 451.9496 343.3705)" overflow="visible"/>
    </g>
    <g id="Coins2_6_">
      <use xlink:href="#Coin_Symbol" width="72.9" height="9" x="-36.4" y="-4.5" transform="matrix(1 0 0 -1 453.2996 334.4706)" overflow="visible"/>
      <use xlink:href="#Coin_Symbol" width="72.9" height="9" x="-36.4" y="-4.5" transform="matrix(1 0 0 -1 452.2996 325.9706)" overflow="visible"/>
      <use xlink:href="#Coin_Symbol" width="72.9" height="9" x="-36.4" y="-4.5" transform="matrix(1 0 0 -1 453.2996 316.9706)" overflow="visible"/>
    </g>
    <g id="Coins3_5_">
      <use xlink:href="#Coin_Symbol" width="72.9" height="9" x="-36.4" y="-4.5" transform="matrix(1 0 0 -1 453.3451 308.0706)" overflow="visible"/>
      <use xlink:href="#Coin_Symbol" width="72.9" height="9" x="-36.4" y="-4.5" transform="matrix(1 0 0 -1 453.3451 299.5706)" overflow="visible"/>
      <use xlink:href="#Coin_Symbol" width="72.9" height="9" x="-36.4" y="-4.5" transform="matrix(1 0 0 -1.0667 451.6181 290.5706)" overflow="visible"/>
    </g>
    <g id="Coins4_4_">
      <use xlink:href="#Coin_Symbol" width="72.9" height="9" x="-36.4" y="-4.5" transform="matrix(1 0 0 -1 451.2437 281.7237)" overflow="visible"/>
      <use xlink:href="#Coin_Symbol" width="72.9" height="9" x="-36.4" y="-4.5" transform="matrix(1 0 0 -1 451.3906 273.1706)" overflow="visible"/>
      <use xlink:href="#Coin_Symbol" width="72.9" height="9" x="-36.4" y="-4.5" transform="matrix(1 0 0 -1 452.3906 264.1706)" overflow="visible"/>
    </g>
  </g>
  <g id="daisycoins4">
    <use xlink:href="#Daisy_Symbol" width="361.9" height="493.7" x="-181" y="-246.8" transform="matrix(0.9998 0 0 -0.9998 307.2115 422.2378)" overflow="visible"/>
    <g id="Coins1_4_">
      <use xlink:href="#Coin_Symbol" width="72.9" height="9" x="-36.4" y="-4.5" transform="matrix(1 0 0 -1 452.9496 360.8705)" overflow="visible"/>
      <use xlink:href="#Coin_Symbol" width="72.9" height="9" x="-36.4" y="-4.5" transform="matrix(1 0 0 -1 451.9496 352.3705)" overflow="visible"/>
      <use xlink:href="#Coin_Symbol" width="72.9" height="9" x="-36.4" y="-4.5" transform="matrix(1 0 0 -1 451.9496 343.3705)" overflow="visible"/>
    </g>
    <g id="Coins2_3_">
      <use xlink:href="#Coin_Symbol" width="72.9" height="9" x="-36.4" y="-4.5" transform="matrix(1 0 0 -1 453.2996 334.4706)" overflow="visible"/>
      <use xlink:href="#Coin_Symbol" width="72.9" height="9" x="-36.4" y="-4.5" transform="matrix(1 0 0 -1 452.2996 325.9706)" overflow="visible"/>
      <use xlink:href="#Coin_Symbol" width="72.9" height="9" x="-36.4" y="-4.5" transform="matrix(1 0 0 -1 453.2996 316.9706)" overflow="visible"/>
    </g>
    <g id="Coins3_2_">
      <use xlink:href="#Coin_Symbol" width="72.9" height="9" x="-36.4" y="-4.5" transform="matrix(1 0 0 -1 453.3451 308.0706)" overflow="visible"/>
      <use xlink:href="#Coin_Symbol" width="72.9" height="9" x="-36.4" y="-4.5" transform="matrix(1 0 0 -1 453.3451 299.5706)" overflow="visible"/>
      <use xlink:href="#Coin_Symbol" width="72.9" height="9" x="-36.4" y="-4.5" transform="matrix(1 0 0 -1.0667 451.6181 290.5706)" overflow="visible"/>
    </g>
    <g id="Coins4_1_">
      <use xlink:href="#Coin_Symbol" width="72.9" height="9" x="-36.4" y="-4.5" transform="matrix(1 0 0 -1 451.2437 281.7237)" overflow="visible"/>
      <use xlink:href="#Coin_Symbol" width="72.9" height="9" x="-36.4" y="-4.5" transform="matrix(1 0 0 -1 451.3906 273.1706)" overflow="visible"/>
      <use xlink:href="#Coin_Symbol" width="72.9" height="9" x="-36.4" y="-4.5" transform="matrix(1 0 0 -1 452.3906 264.1706)" overflow="visible"/>
    </g>
    <g id="Coins5_3_">
      <use xlink:href="#Coin_Symbol" width="72.9" height="9" x="-36.4" y="-4.5" transform="matrix(1 0 0 -1 455.436 255.2706)" overflow="visible"/>
      <use xlink:href="#Coin_Symbol" width="72.9" height="9" x="-36.4" y="-4.5" transform="matrix(1 0 0 -1 453.436 246.7706)" overflow="visible"/>
      <use xlink:href="#Coin_Symbol" width="72.9" height="9" x="-36.4" y="-4.5" transform="matrix(1 0 0 -1 454.436 237.7706)" overflow="visible"/>
    </g>
  </g>
  <g id="daisycoins5">
    <use xlink:href="#Daisy_Symbol" width="361.9" height="493.7" x="-181" y="-246.8" transform="matrix(0.9998 0 0 -0.9998 307.2115 422.2378)" overflow="visible"/>
    <g id="Coins1_5_">
      <use xlink:href="#Coin_Symbol" width="72.9" height="9" x="-36.4" y="-4.5" transform="matrix(1 0 0 -1 452.9496 360.8705)" overflow="visible"/>
      <use xlink:href="#Coin_Symbol" width="72.9" height="9" x="-36.4" y="-4.5" transform="matrix(1 0 0 -1 451.9496 352.3705)" overflow="visible"/>
      <use xlink:href="#Coin_Symbol" width="72.9" height="9" x="-36.4" y="-4.5" transform="matrix(1 0 0 -1 451.9496 343.3705)" overflow="visible"/>
    </g>
    <g id="Coins2_4_">
      <use xlink:href="#Coin_Symbol" width="72.9" height="9" x="-36.4" y="-4.5" transform="matrix(1 0 0 -1 453.2996 334.4706)" overflow="visible"/>
      <use xlink:href="#Coin_Symbol" width="72.9" height="9" x="-36.4" y="-4.5" transform="matrix(1 0 0 -1 452.2996 325.9706)" overflow="visible"/>
      <use xlink:href="#Coin_Symbol" width="72.9" height="9" x="-36.4" y="-4.5" transform="matrix(1 0 0 -1 453.2996 316.9706)" overflow="visible"/>
    </g>
    <g id="Coins3_3_">
      <use xlink:href="#Coin_Symbol" width="72.9" height="9" x="-36.4" y="-4.5" transform="matrix(1 0 0 -1 453.3451 308.0706)" overflow="visible"/>
      <use xlink:href="#Coin_Symbol" width="72.9" height="9" x="-36.4" y="-4.5" transform="matrix(1 0 0 -1 453.3451 299.5706)" overflow="visible"/>
      <use xlink:href="#Coin_Symbol" width="72.9" height="9" x="-36.4" y="-4.5" transform="matrix(1 0 0 -1.0667 451.6181 290.5706)" overflow="visible"/>
    </g>
    <g id="Coins4_2_">
      <use xlink:href="#Coin_Symbol" width="72.9" height="9" x="-36.4" y="-4.5" transform="matrix(1 0 0 -1 451.2437 281.7237)" overflow="visible"/>
      <use xlink:href="#Coin_Symbol" width="72.9" height="9" x="-36.4" y="-4.5" transform="matrix(1 0 0 -1 451.3906 273.1706)" overflow="visible"/>
      <use xlink:href="#Coin_Symbol" width="72.9" height="9" x="-36.4" y="-4.5" transform="matrix(1 0 0 -1 452.3906 264.1706)" overflow="visible"/>
    </g>
    <g id="Coins5_1_">
      <use xlink:href="#Coin_Symbol" width="72.9" height="9" x="-36.4" y="-4.5" transform="matrix(1 0 0 -1 455.436 255.2706)" overflow="visible"/>
      <use xlink:href="#Coin_Symbol" width="72.9" height="9" x="-36.4" y="-4.5" transform="matrix(1 0 0 -1 453.436 246.7706)" overflow="visible"/>
      <use xlink:href="#Coin_Symbol" width="72.9" height="9" x="-36.4" y="-4.5" transform="matrix(1 0 0 -1 454.436 237.7706)" overflow="visible"/>
    </g>
    <g id="Coins6_2_">
      <use xlink:href="#Coin_Symbol" width="72.9" height="9" x="-36.4" y="-4.5" transform="matrix(1 0 0 -1 457.4815 229.1413)" overflow="visible"/>
      <use xlink:href="#Coin_Symbol" width="72.9" height="9" x="-36.4" y="-4.5" transform="matrix(1 0 0 -1 456.4815 221.0997)" overflow="visible"/>
      <use xlink:href="#Coin_Symbol" width="72.9" height="9" x="-36.4" y="-4.5" transform="matrix(1 0 0 -1 459.4815 212.0997)" overflow="visible"/>
    </g>
  </g>
  <g id="daisycoins6">
    <use xlink:href="#Daisy_Symbol" width="361.9" height="493.7" x="-181" y="-246.8" transform="matrix(0.9998 0 0 -0.9998 307.2115 422.2378)" overflow="visible"/>
    <g id="Coins1_6_">
      <use xlink:href="#Coin_Symbol" width="72.9" height="9" x="-36.4" y="-4.5" transform="matrix(1 0 0 -1 452.9496 360.8705)" overflow="visible"/>
      <use xlink:href="#Coin_Symbol" width="72.9" height="9" x="-36.4" y="-4.5" transform="matrix(1 0 0 -1 451.9496 352.3705)" overflow="visible"/>
      <use xlink:href="#Coin_Symbol" width="72.9" height="9" x="-36.4" y="-4.5" transform="matrix(1 0 0 -1 451.9496 343.3705)" overflow="visible"/>
    </g>
    <g id="Coins2_5_">
      <use xlink:href="#Coin_Symbol" width="72.9" height="9" x="-36.4" y="-4.5" transform="matrix(1 0 0 -1 453.2996 334.4706)" overflow="visible"/>
      <use xlink:href="#Coin_Symbol" width="72.9" height="9" x="-36.4" y="-4.5" transform="matrix(1 0 0 -1 452.2996 325.9706)" overflow="visible"/>
      <use xlink:href="#Coin_Symbol" width="72.9" height="9" x="-36.4" y="-4.5" transform="matrix(1 0 0 -1 453.2996 316.9706)" overflow="visible"/>
    </g>
    <g id="Coins3_4_">
      <use xlink:href="#Coin_Symbol" width="72.9" height="9" x="-36.4" y="-4.5" transform="matrix(1 0 0 -1 453.3451 308.0706)" overflow="visible"/>
      <use xlink:href="#Coin_Symbol" width="72.9" height="9" x="-36.4" y="-4.5" transform="matrix(1 0 0 -1 453.3451 299.5706)" overflow="visible"/>
      <use xlink:href="#Coin_Symbol" width="72.9" height="9" x="-36.4" y="-4.5" transform="matrix(1 0 0 -1.0667 451.6181 290.5706)" overflow="visible"/>
    </g>
    <g id="Coins4_3_">
      <use xlink:href="#Coin_Symbol" width="72.9" height="9" x="-36.4" y="-4.5" transform="matrix(1 0 0 -1 451.2437 281.7237)" overflow="visible"/>
      <use xlink:href="#Coin_Symbol" width="72.9" height="9" x="-36.4" y="-4.5" transform="matrix(1 0 0 -1 451.3906 273.1706)" overflow="visible"/>
      <use xlink:href="#Coin_Symbol" width="72.9" height="9" x="-36.4" y="-4.5" transform="matrix(1 0 0 -1 452.3906 264.1706)" overflow="visible"/>
    </g>
    <g id="Coins5_2_">
      <use xlink:href="#Coin_Symbol" width="72.9" height="9" x="-36.4" y="-4.5" transform="matrix(1 0 0 -1 455.436 255.2706)" overflow="visible"/>
      <use xlink:href="#Coin_Symbol" width="72.9" height="9" x="-36.4" y="-4.5" transform="matrix(1 0 0 -1 453.436 246.7706)" overflow="visible"/>
      <use xlink:href="#Coin_Symbol" width="72.9" height="9" x="-36.4" y="-4.5" transform="matrix(1 0 0 -1 454.436 237.7706)" overflow="visible"/>
    </g>
    <g id="Coins6_1_">
      <use xlink:href="#Coin_Symbol" width="72.9" height="9" x="-36.4" y="-4.5" transform="matrix(1 0 0 -1 457.4815 229.1413)" overflow="visible"/>
      <use xlink:href="#Coin_Symbol" width="72.9" height="9" x="-36.4" y="-4.5" transform="matrix(1 0 0 -1 456.4815 221.0997)" overflow="visible"/>
      <use xlink:href="#Coin_Symbol" width="72.9" height="9" x="-36.4" y="-4.5" transform="matrix(1 0 0 -1 459.4815 212.0997)" overflow="visible"/>
    </g>
    <g id="Coins7_1_">
      <use xlink:href="#Coin_Symbol" width="72.9" height="9" x="-36.4" y="-4.5" transform="matrix(1 0 0 -1 458.5269 203.4706)" overflow="visible"/>
      <use xlink:href="#Coin_Symbol" width="72.9" height="9" x="-36.4" y="-4.5" transform="matrix(1 0 0 -1 457.5269 194.9706)" overflow="visible"/>
      <use xlink:href="#Coin_Symbol" width="72.9" height="9" x="-36.4" y="-4.5" transform="matrix(1 0 0 -1 457.5269 185.9706)" overflow="visible"/>
    </g>
  </g>
</svg>
