<?xml version="1.0" encoding="utf-8"?>
<!-- Generator: Adobe Illustrator 19.1.0, SVG Export Plug-In . SVG Version: 6.00 Build 0)  -->
<svg version="1.1" id="Layer_1" xmlns="http://www.w3.org/2000/svg" xmlns:xlink="http://www.w3.org/1999/xlink" x="0px" y="0px"
	 viewBox="0 0 65.7 65.7" style="enable-background:new 0 0 65.7 65.7;" xml:space="preserve">
<style type="text/css">
	.st0{fill-rule:evenodd;clip-rule:evenodd;fill:#FFD405;}
	.st1{fill-rule:evenodd;clip-rule:evenodd;fill:#1E1E1C;}
</style>
<g>
	<path class="st0" d="M48.9,24.7v11.5h-5.4L48.9,24.7 M25.4,24.6v11.5H20L25.4,24.6z M0.5,0.6h64.1v63.8H0.5V0.6z M31.6,48.5h6.2
		l3-6.1h8.1v6.1H55V15.8h-8.7L31.6,48.5V15.8h-8.7L8.1,48.5h6.2l3-6.1h8.1v6.1H31.6z"/>
	<path class="st1" d="M8.1,48.5l14.8-32.7h8.7v32.7h-6.2v-6.1h-8.1l-3,6.1H8.1 M25.4,24.6v11.5H20L25.4,24.6z"/>
	<path class="st1" d="M31.6,48.5l14.8-32.7H55v32.7h-6.2v-6.1h-8.1l-3,6.1H31.6 M48.9,24.7v11.5h-5.4L48.9,24.7z"/>
	<path class="st1" d="M1.5,1.5h62.7v62.7H1.5V1.5z M0,0h65.7v65.7H0V0z"/>
</g>
</svg>
