<?xml version="1.0" encoding="utf-8"?>
<!-- Generator: Adobe Illustrator 18.0.0, SVG Export Plug-In . SVG Version: 6.00 Build 0)  -->
<!DOCTYPE svg PUBLIC "-//W3C//DTD SVG 1.1//EN" "http://www.w3.org/Graphics/SVG/1.1/DTD/svg11.dtd" [
	<!ENTITY ns_flows "http://ns.adobe.com/Flows/1.0/">
	<!ENTITY ns_extend "http://ns.adobe.com/Extensibility/1.0/">
	<!ENTITY ns_ai "http://ns.adobe.com/AdobeIllustrator/10.0/">
	<!ENTITY ns_graphs "http://ns.adobe.com/Graphs/1.0/">
]>
<svg version="1.1" id="Layer_1" xmlns:x="&ns_extend;" xmlns:i="&ns_ai;" xmlns:graph="&ns_graphs;"
	 xmlns="http://www.w3.org/2000/svg" xmlns:xlink="http://www.w3.org/1999/xlink" xmlns:a="http://ns.adobe.com/AdobeSVGViewerExtensions/3.0/"
	 x="0px" y="0px" viewBox="0 0 128 64" enable-background="new 0 0 128 64" xml:space="preserve">
<g>
	<path fill="#242E30" d="M24,11c-0.6,0.3-1.2,0.4-1.9,0.5c0.7-0.4,1.2-1,1.4-1.8c-0.6,0.4-1.3,0.6-2.1,0.8c-0.6-0.6-1.5-1-2.4-1
		c-1.8,0-3.3,1.5-3.3,3.3c0,0.3,0,0.5,0.1,0.7c-2.7-0.1-5.1-1.4-6.8-3.4c-0.3,0.5-0.4,1-0.4,1.7c0,1.1,0.6,2.1,1.5,2.7
		c-0.5,0-1-0.2-1.5-0.4l0,0c0,1.6,1.1,2.9,2.6,3.2c-0.4,0.3-1,0.3-1.5,0c0.4,1.3,1.6,2.3,3.1,2.3c-1.1,0.9-2.5,1.4-4.1,1.4
		c-0.3,0-0.5,0-0.8,0c1.5,0.9,3.2,1.5,5,1.5c6,0,9.3-5,9.3-9.3c0-0.1,0-0.3,0-0.4C23,12.3,23.6,11.7,24,11z"/>
	<path fill="#FFFFFF" d="M24,43c-0.6,0.3-1.2,0.4-1.9,0.5c0.7-0.4,1.2-1,1.4-1.8c-0.6,0.4-1.3,0.6-2.1,0.8c-0.6-0.6-1.5-1-2.4-1
		c-1.8,0-3.3,1.5-3.3,3.3c0,0.3,0,0.5,0.1,0.7c-2.7-0.1-5.1-1.4-6.8-3.4c-0.3,0.5-0.4,1-0.4,1.7c0,1.1,0.6,2.1,1.5,2.7
		c-0.5,0-1-0.2-1.5-0.4l0,0c0,1.6,1.1,2.9,2.6,3.2c-0.4,0.3-1,0.3-1.5,0c0.4,1.3,1.6,2.3,3.1,2.3c-1.1,0.9-2.5,1.4-4.1,1.4
		c-0.3,0-0.5,0-0.8,0c1.5,0.9,3.2,1.5,5,1.5c6,0,9.3-5,9.3-9.3c0-0.1,0-0.3,0-0.4C23,44.3,23.6,43.7,24,43z"/>
</g>
<g>
	<path fill="#242E30" d="M78,16v8h3v-8h2l1-3h-3c0,0,0-0.5,0-1.3c0-0.3,0.2-0.7,0.7-0.7c1,0,2.9,0,2.3,0V8c0,0-1.6,0-3.3,0
		C79,8,78,9.3,78,10.8s0,2.3,0,2.3h-2v3h2V16z"/>
	<path fill="#FFFFFF" d="M78,48v8h3v-8h2l1-3h-3c0,0,0-0.5,0-1.3c0-0.3,0.2-0.7,0.7-0.7c1,0,2.9,0,2.3,0v-3c0,0-1.6,0-3.3,0
		C79,40,78,41.3,78,42.8s0,2.3,0,2.3h-2v3L78,48L78,48z"/>
</g>
<g>
	<g>
		<path id="path28" fill="#FFFFFF" d="M42.9,55.1V44h-3.7v11.1H42.9z M41.1,42.4
			c1.3,0,2.1-0.9,2.1-1.9c0-1.1-0.8-1.9-2.1-1.9c-1.3,0-2.1,0.8-2.1,1.9C39,41.6,39.8,42.4,41.1,42.4L41.1,42.4L41.1,42.4z"/>
		<path id="path30" fill="#FFFFFF" d="M45,55.1h3.7v-6.2c0-0.3,0-0.7,0.1-0.9
			c0.3-0.7,0.9-1.4,1.9-1.4c1.3,0,1.9,1,1.9,2.5v6h3.7v-6.4c0-3.4-1.8-5-4.3-5c-2,0-2.9,1.1-3.4,1.9h0V44H45C45,45,45,55.1,45,55.1
			L45,55.1z"/>
	</g>
	<g>
		<path id="path28_1_" fill="#242E30" d="M42.9,22.5V11.4h-3.7v11.1H42.9z M41.1,9.8
			c1.3,0,2.1-0.9,2.1-1.9c0-1.1-0.8-1.9-2.1-1.9C39.8,6,39,6.8,39,7.9C39,9,39.8,9.8,41.1,9.8L41.1,9.8L41.1,9.8z"/>
		<path id="path30_1_" fill="#242E30" d="M45,22.5h3.7v-6.2c0-0.3,0-0.7,0.1-0.9
			c0.3-0.7,0.9-1.4,1.9-1.4c1.3,0,1.9,1,1.9,2.5v6h3.7v-6.4c0-3.4-1.8-5-4.3-5c-2,0-2.9,1.1-3.4,1.9h0v-1.6H45
			C45,12.4,45,22.5,45,22.5L45,22.5z"/>
	</g>
</g>
<path fill="#242E30" d="M110.7,16.3c0-1,2.3-1.3,2.3-3.8c0-1.5-0.1-2.4-1.3-2.9c0-0.4,2-0.1,2-0.8h-4.5c0,0-4.5,0.1-4.5,3.9
	s4,3.4,4,3.4v1c0,0.4,0.5,0.3,0.6,1.1c-0.3,0-5.5-0.1-5.5,3.3s4.6,3.3,4.6,3.3s5.3,0.2,5.3-4.1C113.8,18.2,110.7,17.3,110.7,16.3
	L110.7,16.3z M106.9,13c-0.4-1.5,0.1-3,1.2-3.3c1.1-0.3,2.3,0.7,2.7,2.2c0.4,1.5-0.1,3-1.2,3.3C108.5,15.5,107.3,14.5,106.9,13z
	 M109.2,23.7c-1.8,0.1-3.4-0.9-3.5-2.2c-0.1-1.3,1.3-2.5,3.2-2.7c1.8-0.1,3.4,0.9,3.5,2.2C112.4,22.4,111,23.6,109.2,23.7
	L109.2,23.7z M122.2,11.9v0.9h-3.1v3.1h-0.9v-3.1H115v-0.9h3.1V8.8h0.9v3.1"/>
<path fill="#FFFFFF" d="M110.7,47.3c0-1,2.3-1.3,2.3-3.8c0-1.5-0.1-2.4-1.3-2.9c0-0.4,2-0.1,2-0.8h-4.5c0,0-4.5,0.1-4.5,3.9
	s4,3.4,4,3.4v1c0,0.4,0.5,0.3,0.6,1.1c-0.3,0-5.5-0.1-5.5,3.3s4.6,3.3,4.6,3.3s5.3,0.2,5.3-4.1C113.8,49.2,110.7,48.4,110.7,47.3
	L110.7,47.3z M106.9,44c-0.4-1.5,0.1-3,1.2-3.3c1.1-0.3,2.3,0.7,2.7,2.2c0.4,1.5-0.1,3-1.2,3.3C108.5,46.6,107.3,45.6,106.9,44z
	 M109.2,54.7c-1.8,0.1-3.4-0.9-3.5-2.2c-0.1-1.3,1.3-2.5,3.2-2.7c1.8-0.1,3.4,0.9,3.5,2.2C112.4,53.4,111,54.6,109.2,54.7
	L109.2,54.7z M122.2,43v0.9h-3.1V47h-0.9v-3.1H115V43h3.1v-3.1h0.9V43"/>
</svg>
