<?xml version="1.0" encoding="utf-8"?>
<!-- Generator: Adobe Illustrator 19.1.0, SVG Export Plug-In . SVG Version: 6.00 Build 0)  -->
<svg version="1.1" id="Layer_1" xmlns="http://www.w3.org/2000/svg" xmlns:xlink="http://www.w3.org/1999/xlink" x="0px" y="0px" width="83.7px" height="40px"
	 viewBox="-257 401.9 80.2 38" style="enable-background:new -257 401.9 80.2 38;" xml:space="preserve">
<style type="text/css">
	.st0{fill:url(#SVGID_1_);}
	.st1{fill:url(#SVGID_2_);}
	.st2{fill:url(#SVGID_3_);}
	.st3{fill:url(#SVGID_4_);}
	.st4{fill:url(#SVGID_5_);}
	.st5{fill:url(#SVGID_6_);}
	.st6{fill:url(#SVGID_7_);}
	.st7{fill:url(#SVGID_8_);}
	.st8{fill:url(#SVGID_9_);}
	.st9{fill:#004896;}
</style>
<g id="bt">

		<linearGradient id="SVGID_1_" gradientUnits="userSpaceOnUse" x1="7990.312" y1="-15755.5146" x2="8056.5195" y2="-15755.5146" gradientTransform="matrix(0.1171 0 0 -0.1171 -1141.5104 -1440.8955)">
		<stop  offset="0" style="stop-color:#91225C"/>
		<stop  offset="1.329301e-03" style="stop-color:#9E2363"/>
		<stop  offset="4.052155e-03" style="stop-color:#B4246E"/>
		<stop  offset="7.184552e-03" style="stop-color:#C72378"/>
		<stop  offset="1.084253e-02" style="stop-color:#D6217E"/>
		<stop  offset="1.536462e-02" style="stop-color:#E11E83"/>
		<stop  offset="2.170975e-02" style="stop-color:#E91B86"/>
		<stop  offset="3.932600e-02" style="stop-color:#ED1B88"/>
		<stop  offset="0.4382" style="stop-color:#EC3993"/>
	</linearGradient>
	<path class="st0" d="M-198.1,402.6c0.2,0.6-1.3,1.8-3.4,2.6s-4,1-4.3,0.4c-0.2-0.6,1.3-1.8,3.4-2.6
		C-200.2,402.1-198.3,402-198.1,402.6z"/>

		<radialGradient id="SVGID_2_" cx="3156.856" cy="-7343.7402" r="41.1761" gradientTransform="matrix(0.1852 0 0 -0.1852 -768.3302 -947.798)" gradientUnits="userSpaceOnUse">
		<stop  offset="0" style="stop-color:#FFF799"/>
		<stop  offset="0.1148" style="stop-color:#FFEE7A"/>
		<stop  offset="0.242" style="stop-color:#FFE758"/>
		<stop  offset="0.3734" style="stop-color:#FFE338"/>
		<stop  offset="0.5087" style="stop-color:#FFE01A"/>
		<stop  offset="0.6504" style="stop-color:#FFDE00"/>
		<stop  offset="0.809" style="stop-color:#FFDD00"/>
		<stop  offset="1" style="stop-color:#F2BF39"/>
	</radialGradient>
	<path class="st1" d="M-178.3,417.1L-178.3,417.1c-0.1,1.5-0.7,2.7-1.8,3.2c-2,1-5-0.7-6.6-3.8c-1-1.9-1.2-3.9-0.8-5.4l0,0"/>

		<linearGradient id="SVGID_3_" gradientUnits="userSpaceOnUse" x1="8146.6489" y1="-15831.0498" x2="8225.8428" y2="-15831.0498" gradientTransform="matrix(0.1171 0 0 -0.1171 -1141.5104 -1440.8955)">
		<stop  offset="0" style="stop-color:#FFDD00"/>
		<stop  offset="0.1537" style="stop-color:#FFD900"/>
		<stop  offset="0.3384" style="stop-color:#FCCD1C"/>
		<stop  offset="0.5393" style="stop-color:#F4BA32"/>
		<stop  offset="0.7515" style="stop-color:#EAA043"/>
		<stop  offset="0.9706" style="stop-color:#E0824F"/>
		<stop  offset="1" style="stop-color:#DE7D50"/>
	</linearGradient>
	<path class="st2" d="M-178.3,417.2c-1.9-0.3-5.3-2.5-8.7-5.7c-0.2-0.2-0.4-0.3-0.5-0.5l0,0c0.3-1,0.8-1.7,1.6-2.1
		c2-1,5.1,0.7,6.7,3.9C-178.5,414.3-178.2,415.9-178.3,417.2L-178.3,417.2z"/>

		<linearGradient id="SVGID_4_" gradientUnits="userSpaceOnUse" x1="8154.0366" y1="-15827.2236" x2="8191.6304" y2="-15762.1094" gradientTransform="matrix(0.1171 0 0 -0.1171 -1141.5104 -1440.8955)">
		<stop  offset="5.618000e-03" style="stop-color:#F15B52"/>
		<stop  offset="0.4218" style="stop-color:#E0413B"/>
		<stop  offset="0.7925" style="stop-color:#D62C2D"/>
		<stop  offset="1" style="stop-color:#D2232A"/>
	</linearGradient>
	<path class="st3" d="M-178.3,417.2c0.1-1.3-0.2-2.9-1-4.4c-1.6-3.2-4.5-4.9-6.6-3.8c-0.8,0.4-1.3,1.2-1.6,2.1l0,0l0,0
		c-4-3.9-6.5-7.9-5.5-8.9c0.2-0.3,1.1-0.3,1.1-0.3c4.9,0.5,13,6.7,15,13.7l0,0c0.2,0.6,0.1,1-0.1,1.3
		C-177.3,417.2-177.7,417.3-178.3,417.2L-178.3,417.2z"/>
	<g>

			<radialGradient id="SVGID_5_" cx="-196.007" cy="413.2556" r="13.7202" fx="-197.0253" fy="409.9973" gradientTransform="matrix(1 0 0 -1 0 841.67)" gradientUnits="userSpaceOnUse">
			<stop  offset="0" style="stop-color:#CDC5E2"/>
			<stop  offset="2.659917e-02" style="stop-color:#C7BFDF"/>
			<stop  offset="0.2539" style="stop-color:#9F96C8"/>
			<stop  offset="0.4715" style="stop-color:#837BB8"/>
			<stop  offset="0.6742" style="stop-color:#716AAE"/>
			<stop  offset="0.8562" style="stop-color:#6661A8"/>
			<stop  offset="1" style="stop-color:#625DA6"/>
			<stop  offset="1" style="stop-color:#625DA6"/>
			<stop  offset="1" style="stop-color:#625DA6"/>
		</radialGradient>
		<path class="st4" d="M-195.8,431.8c4.8-0.3,8.6-4.2,8.6-9c0-5-4-9.1-9-9.1c-1.8,0-3.4,0.5-4.8,1.4c0.9,1.2,1.7,2.7,2.5,4.4
			C-197.1,423-195.6,427.8-195.8,431.8z"/>

			<radialGradient id="SVGID_6_" cx="-203.9244" cy="424.1116" r="20.6123" gradientTransform="matrix(1 0 0 -1 0 841.67)" gradientUnits="userSpaceOnUse">
			<stop  offset="0" style="stop-color:#57B0DC"/>
			<stop  offset="8.909103e-02" style="stop-color:#55A9D8"/>
			<stop  offset="0.2344" style="stop-color:#4F99CE"/>
			<stop  offset="0.4166" style="stop-color:#4781BD"/>
			<stop  offset="0.5955" style="stop-color:#3D67AD"/>
			<stop  offset="0.9157" style="stop-color:#1F3E78"/>
		</radialGradient>
		<path class="st5" d="M-205.2,422.8c0-3.2,1.7-6.1,4.3-7.7c-2-2.8-4-4.3-5-4.9c-1.8-1.1-4.7-1.8-6.5,1.8c-1.3,2.6-2,5.5-2,8.6
			c0,7.6,4.4,14.2,10.9,17.3c-1.4-0.5-1.9-1.4,1.1-2.5c1.4-0.5,3.8-1,6.4-1.3c0.1-0.3,0.1-0.6,0.2-1c0.1-0.4,0.1-0.8,0.1-1.3"/>

			<radialGradient id="SVGID_7_" cx="-203.1757" cy="424.1604" r="14.7744" gradientTransform="matrix(1 0 0 -1 0 841.67)" gradientUnits="userSpaceOnUse">
			<stop  offset="0" style="stop-color:#5493C9"/>
			<stop  offset="0.4447" style="stop-color:#4573B4"/>
			<stop  offset="0.8097" style="stop-color:#3B5EA7"/>
			<stop  offset="1" style="stop-color:#3756A2"/>
		</radialGradient>
		<path class="st6" d="M-205.2,422.8c0,5,3.7,9,9,9c0.2,0,0.3,0,0.5,0c0.2-4-1.3-8.8-2.8-12.3c-0.8-1.7-1.4-3-2.4-4.4
			C-203.6,416.7-205.2,419.5-205.2,422.8z"/>

			<linearGradient id="SVGID_8_" gradientUnits="userSpaceOnUse" x1="-193.6857" y1="401.78" x2="-193.6857" y2="408.3506" gradientTransform="matrix(1 0 0 -1 0 841.67)">
			<stop  offset="0" style="stop-color:#00662E"/>
			<stop  offset="0.1179" style="stop-color:#00763A"/>
			<stop  offset="0.2895" style="stop-color:#008A4A"/>
			<stop  offset="0.4636" style="stop-color:#009A58"/>
			<stop  offset="0.6391" style="stop-color:#00A563"/>
			<stop  offset="0.8168" style="stop-color:#00AD6A"/>
			<stop  offset="1" style="stop-color:#00B06C"/>
		</linearGradient>
		<path class="st7" d="M-187,434c-2.2-0.4-5.7-0.3-9,0.1c-1.2,5.4-4.5,5.2-6.4,4.4c-0.4-0.2-0.8-0.3-1.2-0.5l0,0
			c2.5,1.2,5.3,1.9,8.3,1.9c4,0,7.8-1.3,10.9-3.4C-183.3,435.6-183.2,434.6-187,434z"/>

			<linearGradient id="SVGID_9_" gradientUnits="userSpaceOnUse" x1="-201.5121" y1="402.7874" x2="-199.2697" y2="408.9484" gradientTransform="matrix(1 0 0 -1 0 841.67)">
			<stop  offset="0.1067" style="stop-color:#00585B"/>
			<stop  offset="0.1086" style="stop-color:#00595C"/>
			<stop  offset="0.2114" style="stop-color:#007476"/>
			<stop  offset="0.3094" style="stop-color:#008A8B"/>
			<stop  offset="0.4004" style="stop-color:#009A99"/>
			<stop  offset="0.4816" style="stop-color:#00A3A2"/>
			<stop  offset="0.5449" style="stop-color:#00A7A6"/>
			<stop  offset="1" style="stop-color:#00BBC7"/>
		</linearGradient>
		<path class="st8" d="M-196,434.1c-2.6,0.3-5,0.7-6.4,1.3c-3,1.1-2.6,1.9-1.2,2.6c0.4,0.2,0.8,0.4,1.3,0.6
			C-200.4,439.2-197.2,439.5-196,434.1z"/>
	</g>
	<g>
		<g>
			<path class="st9" d="M-239.7,422c3.1-1.9,2.5-7.5-3.1-7.5h-12.1c-0.9,0-1.7,0.8-1.7,1.7v13.2c0,0.9,0.8,1.7,1.7,1.7h10.6
				C-235.9,431.2-234.9,423.7-239.7,422z M-250.3,417.1h6.5c3.7,0,3.5,4-0.5,4h-6V417.1z M-245,428.4h-5.3v-4.6h6.7
				C-239.7,423.8-239.7,428.4-245,428.4z"/>
			<path class="st9" d="M-218.4,414.5H-236c-0.8,0-1.6,0.6-1.6,1.4c0,0.8,0.8,1.4,1.6,1.4h5.8v12.2c0,0.9,0.8,1.7,1.7,1.7h2.7
				c0.9,0,1.7-0.8,1.7-1.7v-12.2h5.6c0.8,0,1.6-0.6,1.6-1.4C-216.8,415.1-217.6,414.5-218.4,414.5z"/>
		</g>
	</g>
</g>
</svg>
