<?xml version="1.0" encoding="utf-8"?>
<!-- Generator: Adobe Illustrator 18.1.1, SVG Export Plug-In . SVG Version: 6.00 Build 0)  -->
<!DOCTYPE svg PUBLIC "-//W3C//DTD SVG 1.1//EN" "http://www.w3.org/Graphics/SVG/1.1/DTD/svg11.dtd">
<svg version="1.1" id="Layer_1" xmlns="http://www.w3.org/2000/svg" xmlns:xlink="http://www.w3.org/1999/xlink" x="0px" y="0px"
	 width="1874.5px" height="800px" viewBox="-137.3 0 1874.5 800" enable-background="new -137.3 0 1874.5 800" xml:space="preserve"
	>
<rect x="0" display="none" fill="#002F67" width="1600" height="800"/>
<g>
	<g>
		<path fill="#FFFFFF" d="M-33.6,193.6l-3.9-10.4h-24.6l-3.9,10.4h-10.7l21-53.5H-44l21,53.5H-33.6z M-49.9,149.4l-9.6,25.5h19.3
			L-49.9,149.4z"/>
		<path fill="#FFFFFF" d="M-17.4,193.6v-53.5H-9v20.1c3.1-4.2,7.6-6.3,12.4-6.3c10,0,17.3,7.8,17.3,20.3c0,12.8-7.3,20.4-17.3,20.4
			c-5,0-9.5-2.4-12.4-6.3v5.3H-17.4z M1,187.1c6.7,0,10.9-5.4,10.9-12.9c0-7.5-4.3-12.8-10.9-12.8c-4,0-8.1,2.3-10,5.2v15.4
			C-7.1,184.8-3,187.1,1,187.1z"/>
		<path fill="#FFFFFF" d="M26.9,174.2c0-11.2,7.5-20.3,19.9-20.3s19.9,9.1,19.9,20.3c0,11.1-7.5,20.4-19.9,20.4
			S26.9,185.2,26.9,174.2z M57.9,174.2c0-6.8-3.9-12.8-11.2-12.8c-7.1,0-11.2,6-11.2,12.8c0,6.9,4,12.9,11.2,12.9
			C54,187.1,57.9,181.1,57.9,174.2z"/>
		<path fill="#FFFFFF" d="M101.4,193.6v-5.1c-2.7,3-7.5,6.1-13.6,6.1c-8.3,0-12.5-4.4-12.5-12.3v-27.4h8.4v24.3c0,6,3,7.9,7.9,7.9
			c4.3,0,7.9-2.5,9.9-5.1v-27.2h8.4v38.8H101.4z"/>
		<path fill="#FFFFFF" d="M122.5,184.5v-22.4h-6.4v-7.3h6.4v-10.6h8.4v10.6h7.9v7.3h-7.9v20.3c0,2.6,1.3,4.7,3.7,4.7
			c1.6,0,3-0.7,3.7-1.4l2,6.4c-1.5,1.4-4,2.5-7.9,2.5C125.9,194.5,122.5,191,122.5,184.5z"/>
		<path fill="#FFFFFF" d="M167.3,193.6v-53.5h19.9c16.8,0,28,11.1,28,26.7c0,15.8-11.2,26.8-27.9,26.8H167.3z M205.6,166.8
			c0-10.3-6.4-18.5-18.3-18.5h-10.6v37h10.5C198.8,185.3,205.6,177,205.6,166.8z"/>
		<path fill="#FFFFFF" d="M247.8,193.6v-4.3c-2.9,3.4-7.5,5.2-12.6,5.2c-6.3,0-13.4-4.3-13.4-12.8c0-9,7.1-12.7,13.4-12.7
			c5.3,0,9.7,1.7,12.6,5v-5.8c0-4.5-3.8-7.2-9.1-7.2c-4.3,0-8.2,1.6-11.5,5l-3.5-5.9c4.5-4.3,10.1-6.3,16.3-6.3
			c8.7,0,16.2,3.6,16.2,14v25.8H247.8z M247.8,184.7v-5.9c-2-2.6-5.6-4-9.2-4c-4.7,0-8.3,2.8-8.3,7c0,4.3,3.6,7,8.3,7
			C242.1,188.8,245.8,187.4,247.8,184.7z"/>
		<path fill="#FFFFFF" d="M266.1,144.9c0-2.9,2.3-5.2,5.2-5.2c2.9,0,5.2,2.3,5.2,5.2c0,2.9-2.3,5.2-5.2,5.2
			C268.5,150.1,266.1,147.8,266.1,144.9z M267.1,193.6v-38.8h8.4v38.8H267.1z"/>
		<path fill="#FFFFFF" d="M283.2,188.4l3.9-6c2.7,2.8,8.1,5.4,13.1,5.4c5.1,0,7.7-2.1,7.7-5.1c0-7.6-23.4-2.2-23.4-17.1
			c0-6.3,5.5-11.7,15.2-11.7c6.6,0,11.6,2.3,15,5.4l-3.5,5.9c-2.3-2.6-6.6-4.7-11.5-4.7c-4.4,0-7.1,2.1-7.1,4.8
			c0,6.8,23.4,1.7,23.4,17.1c0,6.9-5.7,12.1-16.1,12.1C293.1,194.5,287.2,192.4,283.2,188.4z"/>
		<path fill="#FFFFFF" d="M323.9,201.2c0.9,0.4,2.2,0.6,3.2,0.6c2.7,0,4.5-0.8,5.6-3.4l1.9-4.4l-16-39.2h9.1l11.3,29l11.3-29h9
			l-18.7,45.7c-2.6,6.6-7.2,8.7-13.2,8.7c-1.2,0-3.6-0.2-4.7-0.6L323.9,201.2z"/>
		<path fill="#FFFFFF" d="M385.6,193.6v-53.5h23.6c11.2,0,17.4,7.6,17.4,16.8c0,9.1-6.3,16.7-17.4,16.7H395v20.1H385.6z M417,156.8
			c0-5.1-3.8-8.5-9.1-8.5H395v16.9h12.9C413.2,165.2,417,161.9,417,156.8z"/>
		<path fill="#FFFFFF" d="M433.8,193.6v-53.5h9.4v45.3h23.6v8.3H433.8z"/>
		<path fill="#FFFFFF" d="M470.4,166.9c0-16.5,12.3-27.7,28.1-27.7c10.8,0,17.5,5.5,21.4,12l-7.9,4.2c-2.6-4.5-7.8-7.8-13.5-7.8
			c-10.6,0-18.5,8-18.5,19.3c0,11.2,7.9,19.3,18.5,19.3c5.7,0,10.9-3.4,13.5-7.8l8,4c-4.1,6.4-10.8,12.1-21.5,12.1
			C482.6,194.5,470.4,183.3,470.4,166.9z"/>
		<path fill="#FFFFFF" d="M-73.3,289.9v-33.5h22.9v5.2h-17.1v8.6h16.7v5.2h-16.7v9.3h17.1v5.2H-73.3z"/>
		<path fill="#FFFFFF" d="M-46.6,286.7l2.4-3.8c1.7,1.8,5.1,3.4,8.2,3.4c3.2,0,4.8-1.3,4.8-3.2c0-4.8-14.6-1.4-14.6-10.7
			c0-4,3.4-7.3,9.5-7.3c4.1,0,7.2,1.5,9.4,3.4l-2.2,3.7c-1.5-1.6-4.1-2.9-7.2-2.9c-2.8,0-4.5,1.3-4.5,3c0,4.3,14.6,1.1,14.6,10.7
			c0,4.3-3.6,7.6-10.1,7.6C-40.4,290.5-44.1,289.1-46.6,286.7z"/>
		<path fill="#FFFFFF" d="M-19.8,284.2v-14h-4v-4.6h4V259h5.3v6.6h4.9v4.6h-4.9v12.7c0,1.7,0.8,2.9,2.3,2.9c1,0,1.9-0.5,2.3-0.9
			l1.3,4c-1,0.9-2.5,1.6-4.9,1.6C-17.7,290.5-19.8,288.3-19.8,284.2z"/>
		<path fill="#FFFFFF" d="M10,289.9v-2.7c-1.8,2.1-4.7,3.3-7.9,3.3c-3.9,0-8.4-2.7-8.4-8c0-5.6,4.4-7.9,8.4-7.9
			c3.3,0,6.1,1.1,7.9,3.1V274c0-2.8-2.4-4.5-5.7-4.5c-2.7,0-5.1,1-7.2,3.1l-2.2-3.7c2.8-2.7,6.3-3.9,10.2-3.9
			c5.4,0,10.1,2.3,10.1,8.7v16.1H10z M10,284.4v-3.7c-1.3-1.7-3.5-2.5-5.8-2.5c-3,0-5.2,1.8-5.2,4.4c0,2.7,2.3,4.4,5.2,4.4
			C6.5,286.9,8.7,286,10,284.4z"/>
		<path fill="#FFFFFF" d="M22.1,289.9v-33.5h5.3V269c2-2.6,4.8-4,7.8-4c6.3,0,10.8,4.9,10.8,12.7c0,8-4.6,12.7-10.8,12.7
			c-3.1,0-5.9-1.5-7.8-3.9v3.3H22.1z M33.6,285.8c4.2,0,6.8-3.4,6.8-8.1c0-4.7-2.7-8-6.8-8c-2.5,0-5.1,1.5-6.3,3.3v9.6
			C28.5,284.4,31.1,285.8,33.6,285.8z"/>
		<path fill="#FFFFFF" d="M51.2,289.9v-33.5h5.3v33.5H51.2z"/>
		<path fill="#FFFFFF" d="M62.7,259.4c0-1.8,1.5-3.3,3.3-3.3c1.8,0,3.3,1.5,3.3,3.3s-1.5,3.3-3.3,3.3
			C64.1,262.7,62.7,261.2,62.7,259.4z M63.3,289.9v-24.2h5.3v24.2H63.3z"/>
		<path fill="#FFFFFF" d="M73.3,286.7l2.4-3.8c1.7,1.8,5.1,3.4,8.2,3.4c3.2,0,4.8-1.3,4.8-3.2c0-4.8-14.6-1.4-14.6-10.7
			c0-4,3.4-7.3,9.5-7.3c4.1,0,7.2,1.5,9.4,3.4l-2.2,3.7c-1.5-1.6-4.1-2.9-7.2-2.9c-2.8,0-4.5,1.3-4.5,3c0,4.3,14.6,1.1,14.6,10.7
			c0,4.3-3.6,7.6-10.1,7.6C79.5,290.5,75.8,289.1,73.3,286.7z"/>
		<path fill="#FFFFFF" d="M115.4,289.9v-15.2c0-3.8-1.9-4.9-4.9-4.9c-2.7,0-5,1.6-6.2,3.2v17h-5.3v-33.5h5.3v12.5
			c1.6-1.9,4.7-3.9,8.5-3.9c5.2,0,7.8,2.7,7.8,7.7v17.2H115.4z"/>
		<path fill="#FFFFFF" d="M126.1,277.7c0-7,5.1-12.7,12.3-12.7c7.3,0,11.9,5.5,11.9,13.1v1.3h-18.7c0.4,3.6,3.1,6.7,7.7,6.7
			c2.4,0,5.2-1,6.9-2.7l2.4,3.5c-2.5,2.3-6,3.6-9.8,3.6C131.4,290.5,126.1,285.4,126.1,277.7z M138.3,269.4c-4.5,0-6.6,3.5-6.8,6.4
			h13.6C145,272.9,143.1,269.4,138.3,269.4z"/>
		<path fill="#FFFFFF" d="M172.5,289.9v-3.3c-1.9,2.4-4.6,3.9-7.8,3.9c-6.2,0-10.7-4.7-10.7-12.7c0-7.8,4.5-12.7,10.7-12.7
			c3.1,0,5.9,1.4,7.8,4v-12.6h5.3v33.5H172.5z M172.5,282.5V273c-1.2-1.8-3.8-3.3-6.2-3.3c-4.2,0-6.9,3.4-6.9,8
			c0,4.7,2.7,8.1,6.9,8.1C168.7,285.8,171.4,284.4,172.5,282.5z"/>
		<path fill="#FFFFFF" d="M195.5,286.7l2.4-3.8c1.7,1.8,5.1,3.4,8.2,3.4c3.2,0,4.8-1.3,4.8-3.2c0-4.8-14.6-1.4-14.6-10.7
			c0-4,3.4-7.3,9.5-7.3c4.1,0,7.2,1.5,9.4,3.4l-2.2,3.7c-1.5-1.6-4.1-2.9-7.2-2.9c-2.8,0-4.5,1.3-4.5,3c0,4.3,14.6,1.1,14.6,10.7
			c0,4.3-3.6,7.6-10.1,7.6C201.7,290.5,198,289.1,195.5,286.7z"/>
		<path fill="#FFFFFF" d="M220.6,259.4c0-1.8,1.5-3.3,3.3-3.3s3.3,1.5,3.3,3.3s-1.5,3.3-3.3,3.3S220.6,261.2,220.6,259.4z
			 M221.2,289.9v-24.2h5.3v24.2H221.2z"/>
		<path fill="#FFFFFF" d="M249.7,289.9v-15.1c0-3.8-2-5-4.9-5c-2.7,0-5,1.6-6.2,3.2v17h-5.3v-24.2h5.3v3.3c1.6-1.9,4.8-3.9,8.6-3.9
			c5.2,0,7.8,2.8,7.8,7.8v17.1H249.7z"/>
		<path fill="#FFFFFF" d="M260.3,277.7c0-7.3,5.2-12.7,12.5-12.7c4.8,0,7.6,2,9.3,4.3l-3.5,3.2c-1.4-1.9-3.2-2.8-5.6-2.8
			c-4.4,0-7.3,3.3-7.3,8c0,4.7,3,8.1,7.3,8.1c2.4,0,4.2-1,5.6-2.9l3.5,3.3c-1.7,2.3-4.5,4.3-9.3,4.3
			C265.5,290.5,260.3,285.1,260.3,277.7z"/>
		<path fill="#FFFFFF" d="M285.3,277.7c0-7,5.1-12.7,12.3-12.7c7.3,0,11.9,5.5,11.9,13.1v1.3h-18.7c0.4,3.6,3.1,6.7,7.7,6.7
			c2.4,0,5.2-1,6.9-2.7l2.4,3.5c-2.5,2.3-6,3.6-9.8,3.6C290.7,290.5,285.3,285.4,285.3,277.7z M297.5,269.4c-4.5,0-6.6,3.5-6.8,6.4
			h13.6C304.3,272.9,302.3,269.4,297.5,269.4z"/>
		<path fill="#FFFFFF" d="M333.8,289.9V264l-5.5,5.7l-3.4-3.6l9.6-9.7h5.1v33.5H333.8z"/>
		<path fill="#FFFFFF" d="M347,286.7l2.8-4.5c1.8,1.9,3.7,3,6.9,3c6.1,0,8.8-5.6,8.8-11c0-0.3,0-0.7-0.1-1c-1.5,2.3-5,4.7-9,4.7
			c-6,0-11.2-3.7-11.2-10.8c0-6.2,4.9-11.2,12.3-11.2c9.8,0,13.8,8,13.8,17.3c0,9.7-5.1,17.3-14.7,17.3
			C352.5,290.4,349.2,288.9,347,286.7z M365.3,268.9c-0.4-3.6-2.3-7.8-7.5-7.8c-4.4,0-6.7,3.1-6.7,5.8c0,4.1,3.2,6,6.9,6
			C360.9,272.9,363.6,271.3,365.3,268.9z"/>
		<path fill="#FFFFFF" d="M377.1,286.7l2.8-4.5c1.8,1.9,3.7,3,6.9,3c6.1,0,8.8-5.6,8.8-11c0-0.3,0-0.7-0.1-1c-1.5,2.3-5,4.7-9,4.7
			c-6,0-11.2-3.7-11.2-10.8c0-6.2,4.9-11.2,12.3-11.2c9.8,0,13.8,8,13.8,17.3c0,9.7-5.1,17.3-14.7,17.3
			C382.6,290.4,379.4,288.9,377.1,286.7z M395.5,268.9c-0.4-3.6-2.3-7.8-7.5-7.8c-4.4,0-6.7,3.1-6.7,5.8c0,4.1,3.2,6,6.9,6
			C391,272.9,393.8,271.3,395.5,268.9z"/>
		<path fill="#FFFFFF" d="M413.2,289.9V264l-5.5,5.7l-3.4-3.6l9.6-9.7h5.1v33.5H413.2z"/>
		<path fill="#FFFFFF" d="M427.9,296.5l-2.4-2c1.6-1,3.3-3,3.6-4.7c-0.1,0.1-0.5,0.2-0.9,0.2c-1.7,0-3-1.4-3-3.2s1.5-3.4,3.4-3.4
			c2.1,0,3.9,1.7,3.9,4.6C432.5,291.4,430.6,294.6,427.9,296.5z"/>
		<path fill="#FFFFFF" d="M451.4,289.9v-33.5h12.4c10.5,0,17.5,6.9,17.5,16.7c0,9.9-7,16.8-17.5,16.8H451.4z M475.3,273.1
			c0-6.4-4-11.5-11.4-11.5h-6.6v23.1h6.6C471.1,284.7,475.3,279.5,475.3,273.1z"/>
		<path fill="#FFFFFF" d="M501.7,289.9v-2.7c-1.8,2.1-4.7,3.3-7.9,3.3c-3.9,0-8.4-2.7-8.4-8c0-5.6,4.4-7.9,8.4-7.9
			c3.3,0,6.1,1.1,7.9,3.1V274c0-2.8-2.4-4.5-5.7-4.5c-2.7,0-5.1,1-7.2,3.1l-2.2-3.7c2.8-2.7,6.3-3.9,10.2-3.9
			c5.4,0,10.1,2.3,10.1,8.7v16.1H501.7z M501.7,284.4v-3.7c-1.3-1.7-3.5-2.5-5.8-2.5c-3,0-5.2,1.8-5.2,4.4c0,2.7,2.3,4.4,5.2,4.4
			C498.2,286.9,500.5,286,501.7,284.4z"/>
		<path fill="#FFFFFF" d="M513.2,259.4c0-1.8,1.5-3.3,3.3-3.3c1.8,0,3.3,1.5,3.3,3.3s-1.5,3.3-3.3,3.3
			C514.6,262.7,513.2,261.2,513.2,259.4z M513.8,289.9v-24.2h5.3v24.2H513.8z"/>
		<path fill="#FFFFFF" d="M523.8,286.7l2.4-3.8c1.7,1.8,5.1,3.4,8.2,3.4c3.2,0,4.8-1.3,4.8-3.2c0-4.8-14.6-1.4-14.6-10.7
			c0-4,3.4-7.3,9.5-7.3c4.1,0,7.2,1.5,9.4,3.4l-2.2,3.7c-1.5-1.6-4.1-2.9-7.2-2.9c-2.8,0-4.5,1.3-4.5,3c0,4.3,14.6,1.1,14.6,10.7
			c0,4.3-3.6,7.6-10.1,7.6C530,290.5,526.3,289.1,523.8,286.7z"/>
		<path fill="#FFFFFF" d="M549.3,294.6c0.6,0.3,1.4,0.4,2,0.4c1.7,0,2.8-0.5,3.5-2.1l1.2-2.8l-10-24.5h5.7l7.1,18.2l7.1-18.2h5.6
			l-11.7,28.6c-1.7,4.1-4.5,5.4-8.3,5.5c-0.8,0-2.3-0.2-3-0.4L549.3,294.6z"/>
		<path fill="#FFFFFF" d="M585.7,286.7l2.4-3.8c1.7,1.8,5.1,3.4,8.2,3.4c3.2,0,4.8-1.3,4.8-3.2c0-4.8-14.6-1.4-14.6-10.7
			c0-4,3.4-7.3,9.5-7.3c4.1,0,7.2,1.5,9.4,3.4l-2.2,3.7c-1.5-1.6-4.1-2.9-7.2-2.9c-2.8,0-4.5,1.3-4.5,3c0,4.3,14.6,1.1,14.6,10.7
			c0,4.3-3.6,7.6-10.1,7.6C591.9,290.5,588.2,289.1,585.7,286.7z"/>
		<path fill="#FFFFFF" d="M609.9,277.7c0-7,5.1-12.7,12.3-12.7c7.3,0,11.9,5.5,11.9,13.1v1.3h-18.7c0.4,3.6,3.1,6.7,7.7,6.7
			c2.4,0,5.2-1,6.9-2.7l2.4,3.5c-2.5,2.3-6,3.6-9.8,3.6C615.3,290.5,609.9,285.4,609.9,277.7z M622.2,269.4c-4.5,0-6.6,3.5-6.8,6.4
			H629C628.9,272.9,626.9,269.4,622.2,269.4z"/>
		<path fill="#FFFFFF" d="M639.3,289.9v-24.2h5.3v3.5c1.9-2.3,4.8-4.1,7.9-4.1v5.2c-0.5-0.1-1-0.2-1.6-0.2c-2.3,0-5.2,1.5-6.3,3.3
			v16.5H639.3z"/>
		<path fill="#FFFFFF" d="M663.1,289.9l-9.9-24.2h5.7l7.1,18.2l7.1-18.2h5.6l-9.9,24.2H663.1z"/>
		<path fill="#FFFFFF" d="M680.5,277.7c0-7,5.1-12.7,12.3-12.7c7.3,0,11.9,5.5,11.9,13.1v1.3H686c0.4,3.6,3.1,6.7,7.7,6.7
			c2.4,0,5.2-1,6.9-2.7l2.4,3.5c-2.5,2.3-6,3.6-9.8,3.6C685.9,290.5,680.5,285.4,680.5,277.7z M692.7,269.4c-4.5,0-6.6,3.5-6.8,6.4
			h13.6C699.5,272.9,697.5,269.4,692.7,269.4z"/>
		<path fill="#FFFFFF" d="M707.8,286.7l2.4-3.8c1.7,1.8,5.1,3.4,8.2,3.4c3.2,0,4.8-1.3,4.8-3.2c0-4.8-14.6-1.4-14.6-10.7
			c0-4,3.4-7.3,9.5-7.3c4.1,0,7.2,1.5,9.4,3.4l-2.2,3.7c-1.5-1.6-4.1-2.9-7.2-2.9c-2.8,0-4.5,1.3-4.5,3c0,4.3,14.6,1.1,14.6,10.7
			c0,4.3-3.6,7.6-10.1,7.6C714,290.5,710.3,289.1,707.8,286.7z"/>
		<path fill="#FFFFFF" d="M776.2,289.9v-15.8c0-2.6-1.2-4.4-4-4.4c-2.4,0-4.6,1.6-5.6,3.2v17h-5.3v-15.8c0-2.6-1.1-4.4-4-4.4
			c-2.4,0-4.5,1.7-5.6,3.2v17h-5.3v-24.2h5.3v3.3c1.1-1.5,4.2-3.9,7.9-3.9c3.6,0,5.8,1.8,6.6,4.4c1.4-2.2,4.6-4.4,8.2-4.4
			c4.4,0,7,2.4,7,7.3v17.5H776.2z"/>
		<path fill="#FFFFFF" d="M786.9,277.7c0-7,4.7-12.7,12.4-12.7s12.4,5.7,12.4,12.7c0,6.9-4.7,12.7-12.4,12.7
			S786.9,284.7,786.9,277.7z M806.3,277.7c0-4.3-2.5-8-7-8c-4.5,0-7,3.8-7,8c0,4.3,2.5,8.1,7,8.1C803.8,285.8,806.3,282,806.3,277.7
			z"/>
		<path fill="#FFFFFF" d="M817.1,289.9v-24.2h5.3v3.5c1.9-2.3,4.8-4.1,7.9-4.1v5.2c-0.5-0.1-1-0.2-1.6-0.2c-2.3,0-5.2,1.5-6.3,3.3
			v16.5H817.1z"/>
		<path fill="#FFFFFF" d="M833.1,277.7c0-7,5.1-12.7,12.3-12.7c7.3,0,11.9,5.5,11.9,13.1v1.3h-18.7c0.4,3.6,3.1,6.7,7.7,6.7
			c2.4,0,5.2-1,6.9-2.7l2.4,3.5c-2.5,2.3-6,3.6-9.8,3.6C838.4,290.5,833.1,285.4,833.1,277.7z M845.3,269.4c-4.5,0-6.6,3.5-6.8,6.4
			h13.6C852,272.9,850.1,269.4,845.3,269.4z"/>
		<path fill="#FFFFFF" d="M876.5,284.2v-14h-4v-4.6h4V259h5.3v6.6h4.9v4.6h-4.9v12.7c0,1.7,0.8,2.9,2.3,2.9c1,0,1.9-0.5,2.3-0.9
			l1.3,4c-1,0.9-2.5,1.6-4.9,1.6C878.6,290.5,876.5,288.3,876.5,284.2z"/>
		<path fill="#FFFFFF" d="M907.8,289.9v-15.2c0-3.8-1.9-4.9-4.9-4.9c-2.7,0-5,1.6-6.2,3.2v17h-5.3v-33.5h5.3v12.5
			c1.6-1.9,4.7-3.9,8.5-3.9c5.2,0,7.8,2.7,7.8,7.7v17.2H907.8z"/>
		<path fill="#FFFFFF" d="M934.7,289.9v-2.7c-1.8,2.1-4.7,3.3-7.9,3.3c-3.9,0-8.4-2.7-8.4-8c0-5.6,4.4-7.9,8.4-7.9
			c3.3,0,6.1,1.1,7.9,3.1V274c0-2.8-2.4-4.5-5.7-4.5c-2.7,0-5.1,1-7.2,3.1l-2.2-3.7c2.8-2.7,6.3-3.9,10.2-3.9
			c5.4,0,10.1,2.3,10.1,8.7v16.1H934.7z M934.7,284.4v-3.7c-1.3-1.7-3.5-2.5-5.8-2.5c-3,0-5.2,1.8-5.2,4.4c0,2.7,2.3,4.4,5.2,4.4
			C931.2,286.9,933.5,286,934.7,284.4z"/>
		<path fill="#FFFFFF" d="M963.2,289.9v-15.1c0-3.8-2-5-4.9-5c-2.7,0-5,1.6-6.2,3.2v17h-5.3v-24.2h5.3v3.3c1.6-1.9,4.8-3.9,8.6-3.9
			c5.2,0,7.8,2.8,7.8,7.8v17.1H963.2z"/>
		<path fill="#FFFFFF" d="M986.9,273.2c0-9.6,5.1-17.3,14.7-17.3c4.1,0,7.3,1.5,9.6,3.7l-2.7,4.4c-1.8-1.8-3.7-2.9-6.9-2.9
			c-5.6,0-8.8,5.2-8.8,11c0,0.3,0,0.6,0,1c1.6-2.3,5.1-4.7,9-4.7c6,0,11.2,3.7,11.2,10.8c0,6.2-4.9,11.2-12.3,11.2
			C990.9,290.5,986.9,282.5,986.9,273.2z M1007.1,279.4c0-4.1-3.2-6-6.8-6c-2.9,0-5.7,1.5-7.3,3.9c0.3,3.6,2.3,7.9,7.4,7.9
			C1004.8,285.3,1007.1,282.1,1007.1,279.4z"/>
		<path fill="#FFFFFF" d="M1017.1,273.2c0-8.4,4-17.3,13.4-17.3c9.4,0,13.3,8.8,13.3,17.3c0,8.4-4,17.3-13.3,17.3
			C1021,290.5,1017.1,281.5,1017.1,273.2z M1037.8,273.2c0-6.4-1.9-12-7.4-12s-7.4,5.6-7.4,12c0,6.4,2,12.1,7.4,12.1
			C1035.9,285.3,1037.8,279.5,1037.8,273.2z"/>
		<path fill="#FFFFFF" d="M1049.9,296.5l-2.4-2c1.6-1,3.3-3,3.6-4.7c-0.1,0.1-0.5,0.2-0.9,0.2c-1.7,0-3-1.4-3-3.2s1.5-3.4,3.4-3.4
			c2.1,0,3.9,1.7,3.9,4.6C1054.6,291.4,1052.7,294.6,1049.9,296.5z"/>
		<path fill="#FFFFFF" d="M1057.8,273.2c0-8.4,4-17.3,13.4-17.3c9.4,0,13.3,8.8,13.3,17.3c0,8.4-4,17.3-13.3,17.3
			C1061.8,290.5,1057.8,281.5,1057.8,273.2z M1078.6,273.2c0-6.4-1.9-12-7.4-12c-5.5,0-7.4,5.6-7.4,12c0,6.4,2,12.1,7.4,12.1
			C1076.6,285.3,1078.6,279.5,1078.6,273.2z"/>
		<path fill="#FFFFFF" d="M1088.7,273.2c0-8.4,4-17.3,13.4-17.3c9.4,0,13.3,8.8,13.3,17.3c0,8.4-4,17.3-13.3,17.3
			C1092.7,290.5,1088.7,281.5,1088.7,273.2z M1109.5,273.2c0-6.4-1.9-12-7.4-12c-5.5,0-7.4,5.6-7.4,12c0,6.4,2,12.1,7.4,12.1
			C1107.5,285.3,1109.5,279.5,1109.5,273.2z"/>
		<path fill="#FFFFFF" d="M1119.7,273.2c0-8.4,4-17.3,13.4-17.3c9.4,0,13.3,8.8,13.3,17.3c0,8.4-4,17.3-13.3,17.3
			C1123.6,290.5,1119.7,281.5,1119.7,273.2z M1140.4,273.2c0-6.4-1.9-12-7.4-12c-5.5,0-7.4,5.6-7.4,12c0,6.4,2,12.1,7.4,12.1
			C1138.5,285.3,1140.4,279.5,1140.4,273.2z"/>
		<path fill="#FFFFFF" d="M-74.9,333.9c0-7.3,5.2-12.7,12.5-12.7c4.8,0,7.6,2,9.3,4.3l-3.5,3.2c-1.4-1.9-3.2-2.8-5.6-2.8
			c-4.4,0-7.3,3.3-7.3,8c0,4.7,3,8.1,7.3,8.1c2.4,0,4.2-1,5.6-2.9l3.5,3.3c-1.7,2.3-4.5,4.3-9.3,4.3
			C-69.8,346.6-74.9,341.2-74.9,333.9z"/>
		<path fill="#FFFFFF" d="M-32.2,346v-3.2c-1.7,1.9-4.7,3.8-8.5,3.8c-5.2,0-7.8-2.8-7.8-7.7v-17.2h5.3V337c0,3.8,1.9,5,4.9,5
			c2.7,0,5-1.6,6.2-3.2v-17h5.3V346H-32.2z"/>
		<path fill="#FFFFFF" d="M-22.1,342.8l2.4-3.8c1.7,1.8,5.1,3.4,8.2,3.4c3.2,0,4.8-1.3,4.8-3.2c0-4.8-14.6-1.4-14.6-10.7
			c0-4,3.4-7.3,9.5-7.3c4.1,0,7.2,1.5,9.4,3.4l-2.2,3.7c-1.5-1.6-4.1-2.9-7.2-2.9c-2.8,0-4.5,1.3-4.5,3c0,4.3,14.6,1.1,14.6,10.7
			c0,4.3-3.6,7.6-10.1,7.6C-15.9,346.6-19.6,345.3-22.1,342.8z"/>
		<path fill="#FFFFFF" d="M4.7,340.4v-14h-4v-4.6h4v-6.6H10v6.6h4.9v4.6H10v12.7c0,1.7,0.8,2.9,2.3,2.9c1,0,1.9-0.5,2.3-0.9l1.3,4
			c-1,0.9-2.5,1.6-4.9,1.6C6.8,346.6,4.7,344.4,4.7,340.4z"/>
		<path fill="#FFFFFF" d="M18.1,333.9c0-7,4.7-12.7,12.4-12.7S43,326.9,43,333.9c0,6.9-4.7,12.7-12.4,12.7S18.1,340.8,18.1,333.9z
			 M37.6,333.9c0-4.3-2.5-8-7-8c-4.5,0-7,3.8-7,8c0,4.3,2.5,8.1,7,8.1C35.1,342,37.6,338.2,37.6,333.9z"/>
		<path fill="#FFFFFF" d="M78.1,346v-15.8c0-2.6-1.2-4.4-4-4.4c-2.4,0-4.6,1.6-5.6,3.2v17h-5.3v-15.8c0-2.6-1.1-4.4-4-4.4
			c-2.4,0-4.5,1.7-5.6,3.2v17h-5.3v-24.2h5.3v3.3c1.1-1.5,4.2-3.9,7.9-3.9c3.6,0,5.8,1.8,6.6,4.4c1.4-2.2,4.6-4.4,8.2-4.4
			c4.4,0,7,2.4,7,7.3V346H78.1z"/>
		<path fill="#FFFFFF" d="M88.8,333.9c0-7,5.1-12.7,12.3-12.7c7.3,0,11.9,5.5,11.9,13.1v1.3H94.3c0.4,3.6,3.1,6.7,7.7,6.7
			c2.4,0,5.2-1,6.9-2.7l2.4,3.5c-2.5,2.3-6,3.6-9.8,3.6C94.1,346.6,88.8,341.6,88.8,333.9z M101,325.5c-4.5,0-6.6,3.5-6.8,6.4h13.6
			C107.7,329,105.8,325.5,101,325.5z"/>
		<path fill="#FFFFFF" d="M118.1,346v-24.2h5.3v3.5c1.9-2.3,4.8-4.1,7.9-4.1v5.2c-0.5-0.1-1-0.2-1.6-0.2c-2.3,0-5.2,1.5-6.3,3.3V346
			H118.1z"/>
		<path fill="#FFFFFF" d="M133.5,342.8l2.4-3.8c1.7,1.8,5.1,3.4,8.2,3.4c3.2,0,4.8-1.3,4.8-3.2c0-4.8-14.6-1.4-14.6-10.7
			c0-4,3.4-7.3,9.5-7.3c4.1,0,7.2,1.5,9.4,3.4l-2.2,3.7c-1.5-1.6-4.1-2.9-7.2-2.9c-2.8,0-4.5,1.3-4.5,3c0,4.3,14.6,1.1,14.6,10.7
			c0,4.3-3.6,7.6-10.1,7.6C139.7,346.6,136,345.3,133.5,342.8z"/>
		<path fill="#FFFFFF" d="M173.3,340.4v-14h-4v-4.6h4v-6.6h5.3v6.6h4.9v4.6h-4.9v12.7c0,1.7,0.8,2.9,2.3,2.9c1,0,1.9-0.5,2.3-0.9
			l1.3,4c-1,0.9-2.5,1.6-4.9,1.6C175.4,346.6,173.3,344.4,173.3,340.4z"/>
		<path fill="#FFFFFF" d="M186.7,333.9c0-7,4.7-12.7,12.4-12.7s12.4,5.7,12.4,12.7c0,6.9-4.7,12.7-12.4,12.7
			S186.7,340.8,186.7,333.9z M206.1,333.9c0-4.3-2.5-8-7-8c-4.5,0-7,3.8-7,8c0,4.3,2.5,8.1,7,8.1C203.7,342,206.1,338.2,206.1,333.9
			z"/>
		<path fill="#FFFFFF" d="M246.9,346v-3.3c-1.9,2.4-4.6,3.9-7.8,3.9c-6.2,0-10.7-4.7-10.7-12.7c0-7.8,4.5-12.7,10.7-12.7
			c3.1,0,5.9,1.4,7.8,4v-12.6h5.3V346H246.9z M246.9,338.7v-9.6c-1.2-1.8-3.8-3.3-6.2-3.3c-4.2,0-6.9,3.4-6.9,8
			c0,4.7,2.7,8.1,6.9,8.1C243.2,342,245.8,340.5,246.9,338.7z"/>
		<path fill="#FFFFFF" d="M257.6,333.9c0-7,5.1-12.7,12.3-12.7c7.3,0,11.9,5.5,11.9,13.1v1.3h-18.7c0.4,3.6,3.1,6.7,7.7,6.7
			c2.4,0,5.2-1,6.9-2.7l2.4,3.5c-2.5,2.3-6,3.6-9.8,3.6C262.9,346.6,257.6,341.6,257.6,333.9z M269.8,325.5c-4.5,0-6.6,3.5-6.8,6.4
			h13.6C276.5,329,274.6,325.5,269.8,325.5z"/>
		<path fill="#FFFFFF" d="M287,346v-33.5h5.3V346H287z"/>
		<path fill="#FFFFFF" d="M298.4,315.6c0-1.8,1.5-3.3,3.3-3.3s3.3,1.5,3.3,3.3c0,1.8-1.5,3.3-3.3,3.3S298.4,317.4,298.4,315.6z
			 M299,346v-24.2h5.3V346H299z"/>
		<path fill="#FFFFFF" d="M317.5,346l-9.9-24.2h5.7l7.1,18.2l7.1-18.2h5.6l-9.9,24.2H317.5z"/>
		<path fill="#FFFFFF" d="M334.9,333.9c0-7,5.1-12.7,12.3-12.7c7.3,0,11.9,5.5,11.9,13.1v1.3h-18.7c0.4,3.6,3.1,6.7,7.7,6.7
			c2.4,0,5.2-1,6.9-2.7l2.4,3.5c-2.5,2.3-6,3.6-9.8,3.6C340.3,346.6,334.9,341.6,334.9,333.9z M347.1,325.5c-4.5,0-6.6,3.5-6.8,6.4
			H354C353.9,329,351.9,325.5,347.1,325.5z"/>
		<path fill="#FFFFFF" d="M364.3,346v-24.2h5.3v3.5c1.9-2.3,4.8-4.1,7.9-4.1v5.2c-0.5-0.1-1-0.2-1.6-0.2c-2.3,0-5.2,1.5-6.3,3.3V346
			H364.3z"/>
		<path fill="#FFFFFF" d="M393.2,333.9c0-7.3,5.2-12.7,12.5-12.7c4.8,0,7.6,2,9.3,4.3l-3.5,3.2c-1.4-1.9-3.2-2.8-5.6-2.8
			c-4.4,0-7.3,3.3-7.3,8c0,4.7,3,8.1,7.3,8.1c2.4,0,4.2-1,5.6-2.9l3.5,3.3c-1.7,2.3-4.5,4.3-9.3,4.3
			C398.3,346.6,393.2,341.2,393.2,333.9z"/>
		<path fill="#FFFFFF" d="M418.2,333.9c0-7,4.7-12.7,12.4-12.7c7.7,0,12.4,5.7,12.4,12.7c0,6.9-4.7,12.7-12.4,12.7
			C422.9,346.6,418.2,340.8,418.2,333.9z M437.6,333.9c0-4.3-2.5-8-7-8c-4.5,0-7,3.8-7,8c0,4.3,2.5,8.1,7,8.1
			C435.1,342,437.6,338.2,437.6,333.9z"/>
		<path fill="#FFFFFF" d="M478.1,346v-15.8c0-2.6-1.2-4.4-4-4.4c-2.4,0-4.6,1.6-5.6,3.2v17h-5.3v-15.8c0-2.6-1.1-4.4-4-4.4
			c-2.4,0-4.5,1.7-5.6,3.2v17h-5.3v-24.2h5.3v3.3c1.1-1.5,4.2-3.9,7.9-3.9c3.6,0,5.8,1.8,6.6,4.4c1.4-2.2,4.6-4.4,8.2-4.4
			c4.4,0,7,2.4,7,7.3V346H478.1z"/>
		<path fill="#FFFFFF" d="M520,346v-15.8c0-2.6-1.2-4.4-4-4.4c-2.4,0-4.6,1.6-5.6,3.2v17h-5.3v-15.8c0-2.6-1.1-4.4-4-4.4
			c-2.4,0-4.5,1.7-5.6,3.2v17h-5.3v-24.2h5.3v3.3c1.1-1.5,4.2-3.9,7.9-3.9c3.6,0,5.8,1.8,6.6,4.4c1.4-2.2,4.6-4.4,8.2-4.4
			c4.4,0,7,2.4,7,7.3V346H520z"/>
		<path fill="#FFFFFF" d="M548.4,346v-3.2c-1.7,1.9-4.7,3.8-8.5,3.8c-5.2,0-7.8-2.8-7.8-7.7v-17.2h5.3V337c0,3.8,1.9,5,4.9,5
			c2.7,0,5-1.6,6.2-3.2v-17h5.3V346H548.4z"/>
		<path fill="#FFFFFF" d="M576.9,346v-15.1c0-3.8-2-5-4.9-5c-2.7,0-5,1.6-6.2,3.2v17h-5.3v-24.2h5.3v3.3c1.6-1.9,4.8-3.9,8.6-3.9
			c5.2,0,7.8,2.8,7.8,7.8V346H576.9z"/>
		<path fill="#FFFFFF" d="M588.4,315.6c0-1.8,1.5-3.3,3.3-3.3c1.8,0,3.3,1.5,3.3,3.3c0,1.8-1.5,3.3-3.3,3.3
			C589.8,318.9,588.4,317.4,588.4,315.6z M589,346v-24.2h5.3V346H589z"/>
		<path fill="#FFFFFF" d="M599.6,333.9c0-7.3,5.2-12.7,12.5-12.7c4.8,0,7.6,2,9.3,4.3l-3.5,3.2c-1.4-1.9-3.2-2.8-5.6-2.8
			c-4.4,0-7.3,3.3-7.3,8c0,4.7,3,8.1,7.3,8.1c2.4,0,4.2-1,5.6-2.9l3.5,3.3c-1.7,2.3-4.5,4.3-9.3,4.3
			C604.8,346.6,599.6,341.2,599.6,333.9z"/>
		<path fill="#FFFFFF" d="M640.9,346v-2.7c-1.8,2.1-4.7,3.3-7.9,3.3c-3.9,0-8.4-2.7-8.4-8c0-5.6,4.4-7.9,8.4-7.9
			c3.3,0,6.1,1.1,7.9,3.1v-3.6c0-2.8-2.4-4.5-5.7-4.5c-2.7,0-5.1,1-7.2,3.1l-2.2-3.7c2.8-2.7,6.3-3.9,10.2-3.9
			c5.4,0,10.1,2.3,10.1,8.7V346H640.9z M640.9,340.5v-3.7c-1.3-1.7-3.5-2.5-5.8-2.5c-3,0-5.2,1.8-5.2,4.4c0,2.7,2.3,4.4,5.2,4.4
			C637.4,343,639.6,342.2,640.9,340.5z"/>
		<path fill="#FFFFFF" d="M654.1,340.4v-14h-4v-4.6h4v-6.6h5.3v6.6h4.9v4.6h-4.9v12.7c0,1.7,0.8,2.9,2.3,2.9c1,0,1.9-0.5,2.3-0.9
			l1.3,4c-1,0.9-2.5,1.6-4.9,1.6C656.2,346.6,654.1,344.4,654.1,340.4z"/>
		<path fill="#FFFFFF" d="M668.4,315.6c0-1.8,1.5-3.3,3.3-3.3c1.8,0,3.3,1.5,3.3,3.3c0,1.8-1.5,3.3-3.3,3.3
			C669.8,318.9,668.4,317.4,668.4,315.6z M669,346v-24.2h5.3V346H669z"/>
		<path fill="#FFFFFF" d="M679.6,333.9c0-7,4.7-12.7,12.4-12.7c7.7,0,12.4,5.7,12.4,12.7c0,6.9-4.7,12.7-12.4,12.7
			C684.3,346.6,679.6,340.8,679.6,333.9z M699,333.9c0-4.3-2.5-8-7-8c-4.5,0-7,3.8-7,8c0,4.3,2.5,8.1,7,8.1
			C696.5,342,699,338.2,699,333.9z"/>
		<path fill="#FFFFFF" d="M726.2,346v-15.1c0-3.8-2-5-4.9-5c-2.7,0-5,1.6-6.2,3.2v17h-5.3v-24.2h5.3v3.3c1.6-1.9,4.8-3.9,8.6-3.9
			c5.2,0,7.8,2.8,7.8,7.8V346H726.2z"/>
		<path fill="#FFFFFF" d="M736.3,342.8l2.4-3.8c1.7,1.8,5.1,3.4,8.2,3.4c3.2,0,4.8-1.3,4.8-3.2c0-4.8-14.6-1.4-14.6-10.7
			c0-4,3.4-7.3,9.5-7.3c4.1,0,7.2,1.5,9.4,3.4l-2.2,3.7c-1.5-1.6-4.1-2.9-7.2-2.9c-2.8,0-4.5,1.3-4.5,3c0,4.3,14.6,1.1,14.6,10.7
			c0,4.3-3.6,7.6-10.1,7.6C742.5,346.6,738.8,345.3,736.3,342.8z"/>
		<path fill="#FFFFFF" d="M776,340.4v-14h-4v-4.6h4v-6.6h5.3v6.6h4.9v4.6h-4.9v12.7c0,1.7,0.8,2.9,2.3,2.9c1,0,1.9-0.5,2.3-0.9
			l1.3,4c-1,0.9-2.5,1.6-4.9,1.6C778.1,346.6,776,344.4,776,340.4z"/>
		<path fill="#FFFFFF" d="M789.5,333.9c0-7,4.7-12.7,12.4-12.7c7.7,0,12.4,5.7,12.4,12.7c0,6.9-4.7,12.7-12.4,12.7
			C794.2,346.6,789.5,340.8,789.5,333.9z M808.9,333.9c0-4.3-2.5-8-7-8c-4.5,0-7,3.8-7,8c0,4.3,2.5,8.1,7,8.1
			C806.4,342,808.9,338.2,808.9,333.9z"/>
		<path fill="#FFFFFF" d="M831.2,333.9c0-7,4.7-12.7,12.4-12.7c7.7,0,12.4,5.7,12.4,12.7c0,6.9-4.7,12.7-12.4,12.7
			C835.9,346.6,831.2,340.8,831.2,333.9z M850.6,333.9c0-4.3-2.5-8-7-8c-4.5,0-7,3.8-7,8c0,4.3,2.5,8.1,7,8.1
			C848.2,342,850.6,338.2,850.6,333.9z"/>
		<path fill="#FFFFFF" d="M861.4,346v-24.2h5.3v3.5c1.9-2.3,4.8-4.1,7.9-4.1v5.2c-0.5-0.1-1-0.2-1.6-0.2c-2.3,0-5.2,1.5-6.3,3.3V346
			H861.4z"/>
		<path fill="#FFFFFF" d="M878.5,352.3l2.5-3.8c2,2.3,4.5,3.1,7.7,3.1c3.5,0,7.2-1.6,7.2-6.8V342c-1.9,2.5-4.6,4.1-7.8,4.1
			c-6.2,0-10.7-4.5-10.7-12.4c0-7.9,4.5-12.4,10.7-12.4c3.1,0,5.8,1.4,7.8,4v-3.4h5.3v23c0,8.7-6.5,11.1-12.4,11.1
			C884.6,355.9,881.6,355,878.5,352.3z M895.9,338.2v-9.1c-1.2-1.8-3.8-3.2-6.2-3.2c-4.2,0-6.9,3.1-6.9,7.8c0,4.7,2.7,7.7,6.9,7.7
			C892.1,341.4,894.7,339.9,895.9,338.2z"/>
		<path fill="#FFFFFF" d="M922.8,346v-2.7c-1.8,2.1-4.7,3.3-7.9,3.3c-3.9,0-8.4-2.7-8.4-8c0-5.6,4.4-7.9,8.4-7.9
			c3.3,0,6.1,1.1,7.9,3.1v-3.6c0-2.8-2.4-4.5-5.7-4.5c-2.7,0-5.1,1-7.2,3.1l-2.2-3.7c2.8-2.7,6.3-3.9,10.2-3.9
			c5.4,0,10.1,2.3,10.1,8.7V346H922.8z M922.8,340.5v-3.7c-1.3-1.7-3.5-2.5-5.8-2.5c-3,0-5.2,1.8-5.2,4.4c0,2.7,2.3,4.4,5.2,4.4
			C919.3,343,921.6,342.2,922.8,340.5z"/>
		<path fill="#FFFFFF" d="M951.3,346v-15.1c0-3.8-2-5-4.9-5c-2.7,0-5,1.6-6.2,3.2v17h-5.3v-24.2h5.3v3.3c1.6-1.9,4.8-3.9,8.6-3.9
			c5.2,0,7.8,2.8,7.8,7.8V346H951.3z"/>
		<path fill="#FFFFFF" d="M962.8,315.6c0-1.8,1.5-3.3,3.3-3.3c1.8,0,3.3,1.5,3.3,3.3c0,1.8-1.5,3.3-3.3,3.3
			C964.3,318.9,962.8,317.4,962.8,315.6z M963.4,346v-24.2h5.3V346H963.4z"/>
		<path fill="#FFFFFF" d="M973.4,342.8l2.4-3.8c1.7,1.8,5.1,3.4,8.2,3.4c3.2,0,4.8-1.3,4.8-3.2c0-4.8-14.6-1.4-14.6-10.7
			c0-4,3.4-7.3,9.5-7.3c4.1,0,7.2,1.5,9.4,3.4l-2.2,3.7c-1.5-1.6-4.1-2.9-7.2-2.9c-2.8,0-4.5,1.3-4.5,3c0,4.3,14.6,1.1,14.6,10.7
			c0,4.3-3.6,7.6-10.1,7.6C979.6,346.6,975.9,345.3,973.4,342.8z"/>
		<path fill="#FFFFFF" d="M1014,346v-2.7c-1.8,2.1-4.7,3.3-7.9,3.3c-3.9,0-8.4-2.7-8.4-8c0-5.6,4.4-7.9,8.4-7.9
			c3.3,0,6.1,1.1,7.9,3.1v-3.6c0-2.8-2.4-4.5-5.7-4.5c-2.7,0-5.1,1-7.2,3.1l-2.2-3.7c2.8-2.7,6.3-3.9,10.2-3.9
			c5.4,0,10.1,2.3,10.1,8.7V346H1014z M1014,340.5v-3.7c-1.3-1.7-3.5-2.5-5.8-2.5c-3,0-5.2,1.8-5.2,4.4c0,2.7,2.3,4.4,5.2,4.4
			C1010.5,343,1012.7,342.2,1014,340.5z"/>
		<path fill="#FFFFFF" d="M1027.2,340.4v-14h-4v-4.6h4v-6.6h5.3v6.6h4.9v4.6h-4.9v12.7c0,1.7,0.8,2.9,2.3,2.9c1,0,1.9-0.5,2.3-0.9
			l1.3,4c-1,0.9-2.5,1.6-4.9,1.6C1029.3,346.6,1027.2,344.4,1027.2,340.4z"/>
		<path fill="#FFFFFF" d="M1041.5,315.6c0-1.8,1.5-3.3,3.3-3.3c1.8,0,3.3,1.5,3.3,3.3c0,1.8-1.5,3.3-3.3,3.3
			C1042.9,318.9,1041.5,317.4,1041.5,315.6z M1042.1,346v-24.2h5.3V346H1042.1z"/>
		<path fill="#FFFFFF" d="M1052.7,333.9c0-7,4.7-12.7,12.4-12.7c7.7,0,12.4,5.7,12.4,12.7c0,6.9-4.7,12.7-12.4,12.7
			C1057.4,346.6,1052.7,340.8,1052.7,333.9z M1072.1,333.9c0-4.3-2.5-8-7-8c-4.5,0-7,3.8-7,8c0,4.3,2.5,8.1,7,8.1
			C1069.7,342,1072.1,338.2,1072.1,333.9z"/>
		<path fill="#FFFFFF" d="M1099.4,346v-15.1c0-3.8-2-5-4.9-5c-2.7,0-5,1.6-6.2,3.2v17h-5.3v-24.2h5.3v3.3c1.6-1.9,4.8-3.9,8.6-3.9
			c5.2,0,7.8,2.8,7.8,7.8V346H1099.4z"/>
		<path fill="#FFFFFF" d="M1109.4,342.8l2.4-3.8c1.7,1.8,5.1,3.4,8.2,3.4c3.2,0,4.8-1.3,4.8-3.2c0-4.8-14.6-1.4-14.6-10.7
			c0-4,3.4-7.3,9.5-7.3c4.1,0,7.2,1.5,9.4,3.4l-2.2,3.7c-1.5-1.6-4.1-2.9-7.2-2.9c-2.8,0-4.5,1.3-4.5,3c0,4.3,14.6,1.1,14.6,10.7
			c0,4.3-3.6,7.6-10.1,7.6C1115.6,346.6,1111.9,345.3,1109.4,342.8z"/>
		<path fill="#FFFFFF" d="M-75.5,399l2.4-3.8c1.7,1.8,5.1,3.4,8.2,3.4c3.2,0,4.8-1.3,4.8-3.2c0-4.8-14.6-1.4-14.6-10.7
			c0-4,3.4-7.3,9.5-7.3c4.1,0,7.2,1.5,9.4,3.4l-2.2,3.7c-1.5-1.6-4.1-2.9-7.2-2.9c-2.8,0-4.5,1.3-4.5,3c0,4.3,14.6,1.1,14.6,10.7
			c0,4.3-3.6,7.6-10.1,7.6C-69.3,402.8-73,401.5-75.5,399z"/>
		<path fill="#FFFFFF" d="M-44.5,398.8v12.6h-5.3V378h5.3v3.3c1.8-2.4,4.6-3.9,7.8-3.9c6.3,0,10.7,4.7,10.7,12.7
			s-4.5,12.7-10.7,12.7C-39.8,402.8-42.5,401.4-44.5,398.8z M-31.5,390.1c0-4.7-2.7-8-6.9-8c-2.5,0-5,1.4-6.2,3.2v9.6
			c1.2,1.8,3.8,3.3,6.2,3.3C-34.2,398.1-31.5,394.8-31.5,390.1z"/>
		<path fill="#FFFFFF" d="M-5.9,402.2v-2.7c-1.8,2.1-4.7,3.3-7.9,3.3c-3.9,0-8.4-2.7-8.4-8c0-5.6,4.4-7.9,8.4-7.9
			c3.3,0,6.1,1.1,7.9,3.1v-3.6c0-2.8-2.4-4.5-5.7-4.5c-2.7,0-5.1,1-7.2,3.1l-2.2-3.7c2.8-2.7,6.3-3.9,10.2-3.9
			c5.4,0,10.1,2.3,10.1,8.7v16.1H-5.9z M-5.9,396.7V393c-1.3-1.7-3.5-2.5-5.8-2.5c-3,0-5.2,1.8-5.2,4.4c0,2.7,2.3,4.4,5.2,4.4
			C-9.4,399.2-7.2,398.3-5.9,396.7z"/>
		<path fill="#FFFFFF" d="M22.6,402.2v-15.1c0-3.8-2-5-4.9-5c-2.7,0-5,1.6-6.2,3.2v17H6.2V378h5.3v3.3c1.6-1.9,4.8-3.9,8.6-3.9
			c5.2,0,7.8,2.8,7.8,7.8v17.1H22.6z"/>
		<path fill="#FFFFFF" d="M51,402.2v-15.1c0-3.8-2-5-4.9-5c-2.7,0-5,1.6-6.2,3.2v17h-5.3V378h5.3v3.3c1.6-1.9,4.8-3.9,8.6-3.9
			c5.2,0,7.8,2.8,7.8,7.8v17.1H51z"/>
		<path fill="#FFFFFF" d="M62.5,371.8c0-1.8,1.5-3.3,3.3-3.3c1.8,0,3.3,1.5,3.3,3.3s-1.5,3.3-3.3,3.3C64,375,62.5,373.6,62.5,371.8z
			 M63.1,402.2V378h5.3v24.2H63.1z"/>
		<path fill="#FFFFFF" d="M91.6,402.2v-15.1c0-3.8-2-5-4.9-5c-2.7,0-5,1.6-6.2,3.2v17h-5.3V378h5.3v3.3c1.6-1.9,4.8-3.9,8.6-3.9
			c5.2,0,7.8,2.8,7.8,7.8v17.1H91.6z"/>
		<path fill="#FFFFFF" d="M103.4,408.4l2.5-3.8c2,2.3,4.5,3.1,7.7,3.1c3.5,0,7.2-1.6,7.2-6.8v-2.8c-1.9,2.5-4.6,4.1-7.8,4.1
			c-6.2,0-10.7-4.5-10.7-12.4c0-7.9,4.5-12.4,10.7-12.4c3.1,0,5.8,1.4,7.8,4V378h5.3v23c0,8.7-6.5,11.1-12.4,11.1
			C109.5,412,106.4,411.1,103.4,408.4z M120.8,394.3v-9.1c-1.2-1.8-3.8-3.2-6.2-3.2c-4.2,0-6.9,3.1-6.9,7.8s2.7,7.7,6.9,7.7
			C117,397.5,119.6,396.1,120.8,394.3z"/>
		<path fill="#FFFFFF" d="M146.9,396.5v-14h-4V378h4v-6.6h5.3v6.6h4.9v4.6h-4.9v12.7c0,1.7,0.8,2.9,2.3,2.9c1,0,1.9-0.5,2.3-0.9
			l1.3,4c-1,0.9-2.5,1.6-4.9,1.6C149,402.8,146.9,400.6,146.9,396.5z"/>
		<path fill="#FFFFFF" d="M178.2,402.2V387c0-3.8-1.9-4.9-4.9-4.9c-2.7,0-5,1.6-6.2,3.2v17h-5.3v-33.5h5.3v12.5
			c1.6-1.9,4.7-3.9,8.5-3.9c5.2,0,7.8,2.7,7.8,7.7v17.2H178.2z"/>
		<path fill="#FFFFFF" d="M188.8,390.1c0-7,5.1-12.7,12.3-12.7c7.3,0,11.9,5.5,11.9,13.1v1.3h-18.7c0.4,3.6,3.1,6.7,7.7,6.7
			c2.4,0,5.2-1,6.9-2.7l2.4,3.5c-2.5,2.3-6,3.6-9.8,3.6C194.2,402.8,188.8,397.7,188.8,390.1z M201,381.7c-4.5,0-6.6,3.5-6.8,6.4
			h13.6C207.8,385.2,205.8,381.7,201,381.7z"/>
		<path fill="#FFFFFF" d="M231.1,402.2v-33.5h5.3v33.5H231.1z"/>
		<path fill="#FFFFFF" d="M241.8,390.1c0-7,5.1-12.7,12.3-12.7c7.3,0,11.9,5.5,11.9,13.1v1.3h-18.7c0.4,3.6,3.1,6.7,7.7,6.7
			c2.4,0,5.2-1,6.9-2.7l2.4,3.5c-2.5,2.3-6,3.6-9.8,3.6C247.1,402.8,241.8,397.7,241.8,390.1z M254,381.7c-4.5,0-6.6,3.5-6.8,6.4
			h13.6C260.7,385.2,258.8,381.7,254,381.7z"/>
		<path fill="#FFFFFF" d="M287.6,402.2v-15.1c0-3.8-2-5-4.9-5c-2.7,0-5,1.6-6.2,3.2v17h-5.3V378h5.3v3.3c1.6-1.9,4.8-3.9,8.6-3.9
			c5.2,0,7.8,2.8,7.8,7.8v17.1H287.6z"/>
		<path fill="#FFFFFF" d="M299.3,408.4l2.5-3.8c2,2.3,4.5,3.1,7.7,3.1c3.5,0,7.2-1.6,7.2-6.8v-2.8c-1.9,2.5-4.6,4.1-7.8,4.1
			c-6.2,0-10.7-4.5-10.7-12.4c0-7.9,4.5-12.4,10.7-12.4c3.1,0,5.8,1.4,7.8,4V378h5.3v23c0,8.7-6.5,11.1-12.4,11.1
			C305.4,412,302.4,411.1,299.3,408.4z M316.7,394.3v-9.1c-1.2-1.8-3.8-3.2-6.2-3.2c-4.2,0-6.9,3.1-6.9,7.8s2.7,7.7,6.9,7.7
			C312.9,397.5,315.5,396.1,316.7,394.3z"/>
		<path fill="#FFFFFF" d="M329.9,396.5v-14h-4V378h4v-6.6h5.3v6.6h4.9v4.6h-4.9v12.7c0,1.7,0.8,2.9,2.3,2.9c1,0,1.9-0.5,2.3-0.9
			l1.3,4c-1,0.9-2.5,1.6-4.9,1.6C332,402.8,329.9,400.6,329.9,396.5z"/>
		<path fill="#FFFFFF" d="M361.2,402.2V387c0-3.8-1.9-4.9-4.9-4.9c-2.7,0-5,1.6-6.2,3.2v17h-5.3v-33.5h5.3v12.5
			c1.6-1.9,4.7-3.9,8.5-3.9c5.2,0,7.8,2.7,7.8,7.7v17.2H361.2z"/>
		<path fill="#FFFFFF" d="M401.1,402.2v-2.7c-1.8,2.1-4.7,3.3-7.9,3.3c-3.9,0-8.4-2.7-8.4-8c0-5.6,4.4-7.9,8.4-7.9
			c3.3,0,6.1,1.1,7.9,3.1v-3.6c0-2.8-2.4-4.5-5.7-4.5c-2.7,0-5.1,1-7.2,3.1l-2.2-3.7c2.8-2.7,6.3-3.9,10.2-3.9
			c5.4,0,10.1,2.3,10.1,8.7v16.1H401.1z M401.1,396.7V393c-1.3-1.7-3.5-2.5-5.8-2.5c-3,0-5.2,1.8-5.2,4.4c0,2.7,2.3,4.4,5.2,4.4
			C397.5,399.2,399.8,398.3,401.1,396.7z"/>
		<path fill="#FFFFFF" d="M429.5,402.2v-15.1c0-3.8-2-5-4.9-5c-2.7,0-5,1.6-6.2,3.2v17h-5.3V378h5.3v3.3c1.6-1.9,4.8-3.9,8.6-3.9
			c5.2,0,7.8,2.8,7.8,7.8v17.1H429.5z"/>
		<path fill="#FFFFFF" d="M458.7,402.2v-3.3c-1.9,2.4-4.6,3.9-7.8,3.9c-6.2,0-10.7-4.7-10.7-12.7c0-7.8,4.5-12.7,10.7-12.7
			c3.1,0,5.9,1.4,7.8,4v-12.6h5.3v33.5H458.7z M458.7,394.9v-9.6c-1.2-1.8-3.8-3.3-6.2-3.3c-4.2,0-6.9,3.4-6.9,8
			c0,4.7,2.7,8.1,6.9,8.1C454.9,398.1,457.5,396.7,458.7,394.9z"/>
		<path fill="#FFFFFF" d="M483.7,402.2v-33.5h5.3v12.6c2-2.6,4.8-4,7.8-4c6.3,0,10.8,4.9,10.8,12.7c0,8-4.6,12.7-10.8,12.7
			c-3.1,0-5.9-1.5-7.8-3.9v3.3H483.7z M495.2,398.1c4.2,0,6.8-3.4,6.8-8.1c0-4.7-2.7-8-6.8-8c-2.5,0-5.1,1.5-6.3,3.3v9.6
			C490.2,396.7,492.7,398.1,495.2,398.1z"/>
		<path fill="#FFFFFF" d="M512.8,402.2V378h5.3v3.5c1.9-2.3,4.8-4.1,7.9-4.1v5.2c-0.5-0.1-1-0.2-1.6-0.2c-2.3,0-5.2,1.5-6.3,3.3
			v16.5H512.8z"/>
		<path fill="#FFFFFF" d="M528.8,390.1c0-7,5.1-12.7,12.3-12.7c7.3,0,11.9,5.5,11.9,13.1v1.3h-18.7c0.4,3.6,3.1,6.7,7.7,6.7
			c2.4,0,5.2-1,6.9-2.7l2.4,3.5c-2.5,2.3-6,3.6-9.8,3.6C534.2,402.8,528.8,397.7,528.8,390.1z M541,381.7c-4.5,0-6.6,3.5-6.8,6.4
			h13.6C547.7,385.2,545.8,381.7,541,381.7z"/>
		<path fill="#FFFFFF" d="M573,402.2v-2.7c-1.8,2.1-4.7,3.3-7.9,3.3c-3.9,0-8.4-2.7-8.4-8c0-5.6,4.4-7.9,8.4-7.9
			c3.3,0,6.1,1.1,7.9,3.1v-3.6c0-2.8-2.4-4.5-5.7-4.5c-2.7,0-5.1,1-7.2,3.1l-2.2-3.7c2.8-2.7,6.3-3.9,10.2-3.9
			c5.4,0,10.1,2.3,10.1,8.7v16.1H573z M573,396.7V393c-1.3-1.7-3.5-2.5-5.8-2.5c-3,0-5.2,1.8-5.2,4.4c0,2.7,2.3,4.4,5.2,4.4
			C569.5,399.2,571.8,398.3,573,396.7z"/>
		<path fill="#FFFFFF" d="M602.2,402.2v-3.3c-1.9,2.4-4.6,3.9-7.8,3.9c-6.2,0-10.7-4.7-10.7-12.7c0-7.8,4.5-12.7,10.7-12.7
			c3.1,0,5.9,1.4,7.8,4v-12.6h5.3v33.5H602.2z M602.2,394.9v-9.6c-1.2-1.8-3.8-3.3-6.2-3.3c-4.2,0-6.9,3.4-6.9,8
			c0,4.7,2.7,8.1,6.9,8.1C598.4,398.1,601,396.7,602.2,394.9z"/>
		<path fill="#FFFFFF" d="M615.4,396.5v-14h-4V378h4v-6.6h5.3v6.6h4.9v4.6h-4.9v12.7c0,1.7,0.8,2.9,2.3,2.9c1,0,1.9-0.5,2.3-0.9
			l1.3,4c-1,0.9-2.5,1.6-4.9,1.6C617.5,402.8,615.4,400.6,615.4,396.5z"/>
		<path fill="#FFFFFF" d="M646.6,402.2V387c0-3.8-1.9-4.9-4.9-4.9c-2.7,0-5,1.6-6.2,3.2v17h-5.3v-33.5h5.3v12.5
			c1.6-1.9,4.7-3.9,8.5-3.9c5.2,0,7.8,2.7,7.8,7.7v17.2H646.6z"/>
		<path fill="#FFFFFF" d="M670.2,390.1c0-7,4.7-12.7,12.4-12.7s12.4,5.7,12.4,12.7c0,6.9-4.7,12.7-12.4,12.7S670.2,397,670.2,390.1z
			 M689.6,390.1c0-4.3-2.5-8-7-8c-4.5,0-7,3.8-7,8c0,4.3,2.5,8.1,7,8.1C687.2,398.1,689.6,394.4,689.6,390.1z"/>
		<path fill="#FFFFFF" d="M701.8,402.2v-19.7h-4V378h4v-1.4c0-5.3,3.1-8.4,7.6-8.4c2.2,0,4.4,0.6,5.8,2.1l-2.1,3.3
			c-0.7-0.7-1.6-1.1-2.8-1.1c-2.1,0-3.4,1.4-3.4,4.1v1.4h4.9v4.6H707v19.7H701.8z"/>
		<path fill="#FFFFFF" d="M730,396.5v-14h-4V378h4v-6.6h5.3v6.6h4.9v4.6h-4.9v12.7c0,1.7,0.8,2.9,2.3,2.9c1,0,1.9-0.5,2.3-0.9l1.3,4
			c-1,0.9-2.5,1.6-4.9,1.6C732.1,402.8,730,400.6,730,396.5z"/>
		<path fill="#FFFFFF" d="M761.3,402.2V387c0-3.8-1.9-4.9-4.9-4.9c-2.7,0-5,1.6-6.2,3.2v17h-5.3v-33.5h5.3v12.5
			c1.6-1.9,4.7-3.9,8.5-3.9c5.2,0,7.8,2.7,7.8,7.7v17.2H761.3z"/>
		<path fill="#FFFFFF" d="M771.9,390.1c0-7,5.1-12.7,12.3-12.7c7.3,0,11.9,5.5,11.9,13.1v1.3h-18.7c0.4,3.6,3.1,6.7,7.7,6.7
			c2.4,0,5.2-1,6.9-2.7l2.4,3.5c-2.5,2.3-6,3.6-9.8,3.6C777.3,402.8,771.9,397.7,771.9,390.1z M784.2,381.7c-4.5,0-6.6,3.5-6.8,6.4
			H791C790.9,385.2,788.9,381.7,784.2,381.7z"/>
		<path fill="#FFFFFF" d="M812.8,390.1c0-7.3,5.2-12.7,12.5-12.7c4.8,0,7.6,2,9.3,4.3l-3.5,3.2c-1.4-1.9-3.2-2.8-5.6-2.8
			c-4.4,0-7.3,3.3-7.3,8c0,4.7,3,8.1,7.3,8.1c2.4,0,4.2-1,5.6-2.9l3.5,3.3c-1.7,2.3-4.5,4.3-9.3,4.3
			C818,402.8,812.8,397.4,812.8,390.1z"/>
		<path fill="#FFFFFF" d="M837.8,390.1c0-7,4.7-12.7,12.4-12.7c7.7,0,12.4,5.7,12.4,12.7c0,6.9-4.7,12.7-12.4,12.7
			C842.5,402.8,837.8,397,837.8,390.1z M857.2,390.1c0-4.3-2.5-8-7-8c-4.5,0-7,3.8-7,8c0,4.3,2.5,8.1,7,8.1
			C854.7,398.1,857.2,394.4,857.2,390.1z"/>
		<path fill="#FFFFFF" d="M884.4,402.2V399c-1.7,1.9-4.7,3.8-8.5,3.8c-5.2,0-7.8-2.8-7.8-7.7V378h5.3v15.2c0,3.8,1.9,5,4.9,5
			c2.7,0,5-1.6,6.2-3.2v-17h5.3v24.2H884.4z"/>
		<path fill="#FFFFFF" d="M912.8,402.2v-15.1c0-3.8-2-5-4.9-5c-2.7,0-5,1.6-6.2,3.2v17h-5.3V378h5.3v3.3c1.6-1.9,4.8-3.9,8.6-3.9
			c5.2,0,7.8,2.8,7.8,7.8v17.1H912.8z"/>
		<path fill="#FFFFFF" d="M926,396.5v-14h-4V378h4v-6.6h5.3v6.6h4.9v4.6h-4.9v12.7c0,1.7,0.8,2.9,2.3,2.9c1,0,1.9-0.5,2.3-0.9l1.3,4
			c-1,0.9-2.5,1.6-4.9,1.6C928.1,402.8,926,400.6,926,396.5z"/>
		<path fill="#FFFFFF" d="M940.9,402.2V378h5.3v3.5c1.9-2.3,4.8-4.1,7.9-4.1v5.2c-0.5-0.1-1-0.2-1.6-0.2c-2.3,0-5.2,1.5-6.3,3.3
			v16.5H940.9z"/>
		<path fill="#FFFFFF" d="M958.1,407c0.6,0.3,1.4,0.4,2,0.4c1.7,0,2.8-0.5,3.5-2.1l1.2-2.8l-10-24.5h5.7l7.1,18.2l7.1-18.2h5.6
			l-11.7,28.6c-1.7,4.1-4.5,5.4-8.3,5.5c-0.8,0-2.3-0.2-3-0.4L958.1,407z"/>
		<path fill="#FFFFFF" d="M980.1,399.2c0-1.9,1.6-3.5,3.5-3.5s3.5,1.6,3.5,3.5c0,1.9-1.6,3.6-3.5,3.6S980.1,401.1,980.1,399.2z"/>
	</g>
	<g>
		<path fill-rule="evenodd" clip-rule="evenodd" fill="#FFFFFF" d="M314,584.7c0.3-0.1,1.4-0.1,1.3-1.2c-0.1-0.8,0-1.5,0.2-2.9
			c0.3-1.6-1-2.8-1.4-4.1c-0.7-2.7,1.7-4.1,2.4-4.6l-0.6-0.2c-1.5-0.1-3.4,0.7-4.4,1.9c-0.9,1.2-1.8,4.2,0.7,6.1
			c0.7,0.5,1.3,1.1,1.4,1.8c0.1,0.5,0.2,1.3-2.1,2.5c-1.3,0.7-2.9,1.2-4.1,1.9c-0.3,0.2-0.7,0.6,0.9,0.2
			C310.8,585.7,311.2,585.2,314,584.7L314,584.7z"/>
		<path fill-rule="evenodd" clip-rule="evenodd" fill="#FFFFFF" d="M333,611.2c-0.9-5.4-12.5-6.8-22.8-3.3c-1.2-2-0.9-5.8-0.1-7.9
			c0.8-2.4,1.9-4.7,4.2-7.9c1.3-1.8,3.3-4.7,2.1-5.6c-2-1.5-8.1,1.1-10.7,1.7c-4.1,1-5.3,1.3-5.8,1.2l-0.3-0.3
			c-0.2-1,1.3-4.9,3.3-7.2c0.9-1,1.8-1.3,2.5-2.5c0,0,1-1.9,1.4-2.8c0,0-0.5-0.6-1.6,0.4c-0.3,0.3-0.7,0.3-0.7,0.3
			c-0.5,0.1-0.6,0.1-1,0.6c-0.5,0.8-0.5-0.8,0.5-1.1l0-0.8c0.2-1.4,0.5-3.3-0.1-3.4c-0.4-0.1-0.7,0.3-0.7,0.3
			c-0.5-0.1-1,0.4-1.4,0.8c-1,0.2-1.9,2.5-1.9,2.5c-0.2,0.7-0.4,1.8-0.1,4c0.1,0.3-0.3,0.8-0.7,1.2c-1.9,1.9-6.2,6.9-5.5,10.9
			c0.5,2.6,2.8,3.9,12.3,0.5c-1,3.4-12.1,24,6.7,21.8c5.6-0.6,12.7-5.1,16.2-2.1c0,0,0.7,0.5,0.1,1.4c-1.1,1.8-12.4,13.5-10.7,23
			c0.2,0.7,1.1,0.6,1.1-0.3C319.8,623.5,333.8,618.2,333,611.2L333,611.2z"/>
		<path fill-rule="evenodd" clip-rule="evenodd" fill="#FFFFFF" d="M294.8,645.2c3.5-10.6,7.1-10.4,8.3-14.6
			c1.1-3.9,2.7-10,3.2-11.2c0.4-1.1,1.9-1.9,4.1-1.8c0.4,0,0.3,0.3,0.3,0.4c0.1,2.9-4.9,14.7-6.4,16.1c-3.6,3.6-7.3,8.8-8.7,11.7
			C294,649.3,294.2,646.9,294.8,645.2L294.8,645.2z"/>
		<path fill-rule="evenodd" clip-rule="evenodd" fill="#FFFFFF" d="M301.6,614.2c-0.1-0.1-0.5-0.8-1.5,1.7c-0.8,2.3-1.3,5.7-1.3,5.7
			c-0.3,2.6-0.6,5-1,7.3c-0.2,1.3-1,2.5-1.6,3.3c-4.1,5.4-4.1,16.4-6.6,19.1c0,0-0.8,0.9-0.9,1.9c0,0.9,0.8,4.3,2,5.3
			c0,0,0.9,0.8,2.8,0.4c1.3-0.3-0.6-1.4-0.9-2.6c-0.3-1.2-0.5-4.7-0.4-5.4c0,0,1-9.8,4.2-14.3c1.3-2.2,4-4,4.8-7.2
			c2.8-10.9,3.9-13,3-13.3C303.1,615.6,302.4,615.1,301.6,614.2L301.6,614.2z"/>
		<path fill-rule="evenodd" clip-rule="evenodd" fill="#FFFFFF" d="M337.9,572.1c-0.3,3.6-4.2,8.9-6,10.3c-3.2,2.5-5.7,0.9-10.2,1.9
			c-1.3,0.3-1.6-1.6-0.9-2.7c0.6-1.1,1.4-1.4,2.4-1.9c0.4-0.2,0.9-0.6,0.9-1.1c0-0.3-0.1-0.4-0.4-0.6c-0.1-0.1-0.2-0.3,0.1-0.7
			c0.2-0.3-0.4-0.5-0.4-0.5c-0.3-0.1,0.2-0.6,0.1-0.7c-0.1-0.3-0.4-0.1-0.5-0.4c-0.2-0.3,0.3-0.5,0.3-0.9c0-0.3-1.5-0.6-1.8-0.9
			c-1-0.8-2.1-1.5-3.6-1.9c-0.1,0-1.6,1.7-0.8,3.6c0,0-0.8-0.1-1,0.5c-0.3,0.8,0.4,1.7,1.2,2.1c0.6,0.4,1.2,0.8,1.1,2.1
			c-0.1,1-1.2,2.4-0.4,4.2c1.1,2.2,3.6,4.4-1.9,10.3c-2.1,2.3-4.2,5.6-3,9.4c0.2,0.5,0.4,0.4,0.5,0.4c0.3-0.1,0.7-0.2,1.6-0.4
			c0.7-0.1,1.6-5.9,8.2-10.5c5.6-3.9,3.5-2.1,10.4-6.1c5.4-3.1,7.8-10.5,8-15.1c0.2-7.2-1.8-3.1-3.5-3.1c-0.7,0-1.1-0.4-1.1-0.4
			s8.3-4.9,13-6.6c0.1-0.2,0-0.6-0.2-0.9c-0.2-0.4-0.5-0.7-0.7-0.7c-3.2,2.2-7.9,4.4-7.9,4.4s5.6-5.1,10.1-7.4
			c0-0.2-0.1-0.7-0.4-1.1c-0.3-0.4-0.7-0.7-0.9-0.7c-2.5,2.5-10.3,8.6-10.3,8.6c-0.8-0.1-1.7,0.1-2,0.3c-0.3,0.2-0.3,0.4-0.4,0.7
			c0,0-0.3,0.1-0.5,0.3c-0.2,0.3-0.2,0.5-0.1,1.2c-0.3,0.3-0.4,0.2-0.7,0.5c-0.6-1.1-1.5-0.4-1.5-0.4l0.4,1.2
			c-4.9,3.5-8.8,6.1-8.9,6.2l-1,0.4l0.2,0.7l0.6,0.4l0.8-0.7c0,0,3.9-2.5,8.9-5.5C335.2,570,335.7,572.1,337.9,572.1L337.9,572.1z"
			/>
		<path fill-rule="evenodd" clip-rule="evenodd" fill="#FFFFFF" d="M325.7,615c-0.9,1.7-5.4,5.9-8.4,14l-0.2,0.5
			c-0.2,0.5-0.7,0.1-0.6-0.3c1.1-8.8,5.2-12,6.2-13.2c0,0,0.7-0.7-0.7-1.2c0,0-1.3-0.4,1.2-0.7C323.2,613.9,326.4,613.6,325.7,615
			L325.7,615z"/>
		<path fill-rule="evenodd" clip-rule="evenodd" fill="#FFFFFF" d="M341.5,600.2h10.8v1.7h-0.7c-1.1,0-1.8,0.1-2.1,0.3
			c-0.3,0.2-0.5,0.4-0.5,0.8c0,0.3,0.1,0.7,0.3,1.2l0.1,0.4l6.5,20.5l5.8-18.9c-0.7-2.1-1.2-3.4-1.5-3.8c-0.4-0.4-1.1-0.5-2.1-0.5
			h-2v-1.7h13.5v1.7h-1.4c-1.2,0-2,0.1-2.4,0.3c-0.4,0.2-0.6,0.5-0.6,0.9c0,0.3,0,0.6,0.1,0.8l6.7,21.2l5.4-18.3
			c0.2-0.7,0.3-1.4,0.3-2c0-1-0.2-1.7-0.7-2.1c-0.4-0.5-1.1-0.7-2-0.7h-1v-1.7h10.1v1.7c-0.9,0.1-1.6,0.3-2.1,0.6
			c-0.5,0.3-1,0.8-1.3,1.3c-0.4,0.6-0.8,1.5-1.1,2.9l-7.9,26.5h-1.6l-7.5-23.7l-7.1,23.7H354l-9.1-28.6c-0.4-1.1-0.8-1.9-1.2-2.2
			c-0.5-0.4-1.2-0.5-2.2-0.5V600.2L341.5,600.2z"/>
		<path fill-rule="evenodd" clip-rule="evenodd" fill="#FFFFFF" d="M385.4,600.2l7.7-0.3v15.7c1.1-1.4,2.2-2.4,3.5-3.1
			c1.2-0.7,2.6-1,3.9-1c1.3,0,2.5,0.3,3.5,0.9c0.8,0.5,1.5,1.4,2.1,2.6c0.6,1.2,0.9,2.7,0.9,4.4v9.7c0,0.6,0.2,1.1,0.5,1.4
			c0.3,0.3,0.8,0.4,1.5,0.4h1.8v1.7h-11.1v-1.7h1.2c0.9,0,1.6-0.1,1.9-0.4c0.4-0.3,0.5-0.7,0.5-1.3v-9.6c0-1.7-0.4-3-1.2-4
			c-0.8-0.9-1.9-1.4-3.1-1.4c-1,0-1.9,0.3-2.8,0.8c-0.9,0.5-1.6,1.3-2.2,2.4c-0.6,1.1-0.9,2.2-0.9,3.5v8.1c0,0.7,0.2,1.2,0.5,1.5
			c0.3,0.3,0.8,0.5,1.5,0.5h1.8v1.7H386v-1.7h1.2c0.8,0,1.4-0.2,1.8-0.5c0.4-0.3,0.5-0.8,0.5-1.5v-24.3c0-0.9-0.2-1.5-0.7-1.9
			c-0.5-0.4-1.1-0.6-2-0.6h-1.5V600.2L385.4,600.2z"/>
		<path fill-rule="evenodd" clip-rule="evenodd" fill="#FFFFFF" d="M422.7,611.4c2.7,0,5.1,1,6.9,3c1.9,2,2.8,4.6,2.8,7.8
			c0,2.2-0.4,4.1-1.3,5.7c-0.8,1.6-2,2.8-3.6,3.7c-1.5,0.9-3.2,1.4-5,1.4c-2.6,0-4.9-1-6.7-3c-1.8-2-2.8-4.6-2.8-7.8
			c0-3.2,0.9-5.8,2.8-7.8C417.7,612.4,420,611.4,422.7,611.4L422.7,611.4z M422.7,613c-1.6,0-3,0.7-4,2.2c-1.1,1.5-1.6,3.8-1.6,6.9
			c0,3.2,0.5,5.6,1.6,7.1c1,1.5,2.4,2.2,4,2.2c1.7,0,3.1-0.7,4.1-2.2c1.1-1.5,1.6-3.9,1.6-7.3c0-3.1-0.5-5.4-1.6-6.8
			C425.8,613.7,424.5,613,422.7,613L422.7,613z"/>
		<path fill-rule="evenodd" clip-rule="evenodd" fill="#FFFFFF" d="M443.2,599.9v29.5c0,0.4,0.1,0.7,0.4,0.9
			c0.4,0.3,0.8,0.4,1.3,0.4h2.1v1.7h-11.6v-1.7h2c0.7,0,1.2-0.2,1.5-0.5c0.3-0.3,0.5-0.8,0.5-1.4v-24.8c0-0.7-0.2-1.3-0.6-1.6
			c-0.5-0.5-1.2-0.7-2-0.7h-1.8v-1.7L443.2,599.9L443.2,599.9z"/>
		<path fill-rule="evenodd" clip-rule="evenodd" fill="#FFFFFF" d="M468.6,622.4h-14.7c0.1,3.1,0.7,5.3,1.8,6.6
			c1.3,1.4,2.9,2.1,4.8,2.1c2.9,0,5.2-1.6,6.9-4.9l1.4,0.6c-2.1,4.1-5.2,6.2-9.2,6.2c-2.7,0-5-1-6.9-3c-1.9-2-2.8-4.5-2.8-7.6
			c0-3.3,0.9-6,2.8-8c1.8-2,4.1-3.1,6.8-3.1c2,0,3.7,0.5,5.1,1.5c1.4,1,2.5,2.5,3.2,4.4C468.3,618.7,468.6,620.4,468.6,622.4
			L468.6,622.4z M453.9,620.9h9c0.5,0,0.9-0.2,1.2-0.5c0.3-0.4,0.4-1,0.4-1.8c0-1.6-0.5-3-1.5-4.1c-1-1.1-2.2-1.7-3.6-1.7
			c-1.5,0-2.8,0.7-3.9,2C454.5,616.1,453.9,618.2,453.9,620.9L453.9,620.9z"/>
		<path fill-rule="evenodd" clip-rule="evenodd" fill="#FFFFFF" d="M474.2,624.9c0.9,2.5,1.9,4.2,3.1,5.2c1.2,1,2.6,1.4,4.3,1.4
			c1.6,0,2.8-0.3,3.7-1c0.8-0.7,1.3-1.6,1.3-2.7c0-0.6-0.2-1.2-0.5-1.6c-0.3-0.5-0.7-0.8-1.3-1c-0.6-0.2-2-0.6-4.3-1
			c-2.2-0.4-3.8-0.9-4.6-1.4c-0.9-0.5-1.6-1.1-2-2c-0.5-0.8-0.7-1.8-0.7-2.7c0-1.5,0.5-2.9,1.5-4.1c1.3-1.6,3.1-2.3,5.4-2.3
			c1.8,0,3.4,0.6,4.9,1.7l1.4-1.5h0.9l0.6,7.3h-1.5c-0.6-2.1-1.5-3.6-2.6-4.5c-1.1-0.9-2.4-1.4-4-1.4c-1.4,0-2.5,0.3-3.3,1
			c-0.8,0.7-1.2,1.5-1.2,2.5c0,0.9,0.4,1.6,1.1,2.1c0.7,0.6,2.1,1,4.2,1.4c2.4,0.4,4,0.7,4.7,1c1.2,0.4,2.1,1.1,2.8,2
			c0.7,0.9,1,2,1,3.3c0,1.8-0.7,3.3-2.1,4.6c-1.4,1.3-3.2,1.9-5.4,1.9c-2,0-3.9-0.7-5.6-2l-1.6,1.8h-1.2l-0.4-8H474.2L474.2,624.9z"
			/>
		<path fill-rule="evenodd" clip-rule="evenodd" fill="#FFFFFF" d="M513.9,630.3l0.8,1.2c-1.1,1.1-2.3,1.6-3.6,1.6
			c-1,0-1.8-0.3-2.5-0.8c-0.7-0.5-1.3-1.5-1.8-2.8c-1.4,1.5-2.6,2.4-3.6,2.9c-1,0.5-2.3,0.7-3.7,0.7c-2.1,0-3.7-0.5-4.7-1.4
			c-1.1-0.9-1.6-2.1-1.6-3.5c0-2.1,1.2-3.9,3.7-5.3c2.5-1.4,5.8-2.3,9.9-2.8V617c0-1.1-0.4-2.1-1.3-2.8c-0.9-0.8-2-1.2-3.4-1.2
			c-1.3,0-2.3,0.3-3.2,0.8c-0.6,0.4-1,0.8-1,1.2c0,0.2,0.2,0.6,0.6,1c0.4,0.6,0.7,1.1,0.7,1.6c0,0.7-0.2,1.2-0.6,1.6
			c-0.4,0.4-1,0.6-1.7,0.6c-0.7,0-1.3-0.2-1.8-0.7c-0.5-0.5-0.7-1.1-0.7-1.9c0-1.4,0.8-2.8,2.4-3.9c1.6-1.2,3.7-1.8,6.4-1.8
			c2.4,0,4.3,0.5,5.6,1.6c1.3,1.1,1.9,2.3,1.9,3.8V628c0,1,0.2,1.7,0.5,2.2c0.3,0.5,0.7,0.7,1.2,0.7
			C512.7,630.9,513.3,630.7,513.9,630.3L513.9,630.3z M506.7,621.7c-3.7,0.5-6.3,1.3-7.9,2.4c-1.2,0.9-1.7,2.1-1.7,3.6
			c0,1.1,0.3,2,0.9,2.6c0.6,0.6,1.4,0.9,2.3,0.9c1.7,0,3.2-0.6,4.5-1.9c1.3-1.3,1.9-2.9,1.9-4.8V621.7L506.7,621.7z"/>
		<path fill-rule="evenodd" clip-rule="evenodd" fill="#FFFFFF" d="M525,599.9v29.5c0,0.4,0.1,0.7,0.4,0.9c0.4,0.3,0.8,0.4,1.3,0.4
			h2.1v1.7h-11.6v-1.7h2c0.7,0,1.2-0.2,1.5-0.5c0.3-0.3,0.5-0.8,0.5-1.4v-24.8c0-0.7-0.2-1.3-0.6-1.6c-0.5-0.5-1.2-0.7-2-0.7h-1.8
			v-1.7L525,599.9L525,599.9z"/>
		<path fill-rule="evenodd" clip-rule="evenodd" fill="#FFFFFF" d="M550.4,622.4h-14.7c0.1,3.1,0.7,5.3,1.8,6.6
			c1.3,1.4,2.9,2.1,4.8,2.1c2.9,0,5.2-1.6,6.9-4.9l1.4,0.6c-2.1,4.1-5.2,6.2-9.2,6.2c-2.7,0-5-1-6.9-3c-1.9-2-2.8-4.5-2.8-7.6
			c0-3.3,0.9-6,2.8-8c1.8-2,4.1-3.1,6.8-3.1c2,0,3.7,0.5,5.1,1.5c1.4,1,2.5,2.5,3.2,4.4C550.1,618.7,550.3,620.4,550.4,622.4
			L550.4,622.4z M535.6,620.9h9c0.5,0,0.9-0.2,1.2-0.5c0.3-0.4,0.4-1,0.4-1.8c0-1.6-0.5-3-1.5-4.1c-1-1.1-2.2-1.7-3.6-1.7
			c-1.5,0-2.9,0.7-3.9,2C536.2,616.1,535.7,618.2,535.6,620.9L535.6,620.9z"/>
		<path fill-rule="evenodd" clip-rule="evenodd" fill="#FFFFFF" d="M266.7,604.9h-11.2c-1.5,0-3-1.2-3-2.7c0-1.5,1.5-2.7,3-2.7h33.7
			c1.5,0,3,1.2,3,2.7c0,1.5-1.5,2.7-3,2.7h-10.7v23.3c0,1.8-1.5,3.3-3.3,3.3H270c-1.8,0-3.3-1.5-3.3-3.3V604.9L266.7,604.9z"/>
		<path fill-rule="evenodd" clip-rule="evenodd" fill="#FFFFFF" d="M219.3,631.5c-1.8,0-3.3-1.5-3.3-3.3v-25.3
			c0-1.8,1.5-3.3,3.3-3.3l23.2,0c10.7,0,11.9,10.7,5.9,14.3c9.2,3.3,7.2,17.6-8.9,17.6L219.3,631.5L219.3,631.5z M239.6,612.3
			c7.7,0,8.1-7.7,0.9-7.7h-12.5v7.7H239.6L239.6,612.3z M228.1,617.3v8.8h10.1c10.2,0,10.1-8.8,2.8-8.8H228.1L228.1,617.3z"/>
	</g>
	<g>
		<path fill="#FFFFFF" d="M629.2,612.2c-0.1,0.1-0.2,0.2-0.2,0.2c0.4,1.1-0.1,2.3-0.2,3.5c-0.1,2.1-0.7,4.1-0.6,6.1
			c0,0.7-0.2,1.3-0.3,2c0.1,0,0.3,0.1,0.4,0.1c-0.8,0.5-1.5,1.2-2.3,1.5c-0.6,0.2-1.3-0.2-1.3-0.9c-0.1-2.9,0.4-5.8,0.4-8.7
			c0.1-1.5,0.1-3.2,1.2-4.3c0.6-0.5,1.4-1.1,2.2-1C629,610.9,629,611.7,629.2,612.2z"/>
		<path fill="#FFFFFF" d="M628.1,606.5c-0.5-0.1-1.2-0.4-1.2-1c0-1.3,1.1-2.3,2.2-2.8c0.4-0.2,0.8-0.1,1.2-0.1
			c0.2,0.5,0.5,1.1,0.3,1.7C630.2,605.3,629.1,605.9,628.1,606.5z"/>
		<path fill="#FFFFFF" d="M622,613c-0.3,0.7-0.1,1.5-0.4,2.2c-0.2,0.7-0.3,1.4-0.4,2.1c-0.2,0.8-0.4,1.7-0.5,2.6
			c0.5,0.7,0,1.5-0.2,2.1c-0.1,0.7-0.3,1.4,0,2c-0.3,0.5-0.5,1.1-0.6,1.7c-0.4,3.4-0.8,6.8-1.4,10.2c-0.1,0.7-0.3,1.5-1,1.9
			c-0.7,0.5-1.9,0.2-2.2-0.7c-0.8-2.8-1-5.7-1.7-8.5c-0.1-1.3-0.4-2.5-0.5-3.8c-0.4-2.5-0.7-5.1-1.2-7.6c-0.2-1.3-0.3-2.6-0.6-3.9
			c-0.2-0.6-0.3-1.1-0.3-1.7c-0.2-0.2-0.3-0.3-0.5-0.5c-0.6,1-1.1,2.1-1.4,3.2c-0.3,1.3-1,2.5-1.4,3.7c-0.5,0.6-1.4,0.9-2.1,0.5
			c-0.5-0.3-1-0.9-0.7-1.6c1-3.2,2.3-6.3,3.2-9.5c0.5-1.5,1-3.1,1.5-4.6c0.3-0.8,1.2-1.5,2.1-1.3c0.9,0,1.4,0.9,1.6,1.6
			c0.3,1.7,0.5,3.3,0.9,5c0.4,1.8,0.4,3.6,1,5.3c0.2,0.5,0.3,1,0.4,1.6c0.1,0.9,0.3,1.8,0.5,2.7c-0.1,0.7-0.1,1.3,0.2,2
			c0.1,1.1,0.1,2.3,0.6,3.4c0.4-1,0.3-2,0.5-3c0.6-3.9,1.2-7.8,2.1-11.7c1-4.2,2.2-8.3,3.3-12.5c1.5-4.3,3.1-8.6,4.7-12.9
			c0.7-1.8,1.2-3.9,2.9-5.1c1.5-1.3,4.1-0.3,4.4,1.6c0.4,1.2-0.4,2.4-1.1,3.3c-1.7,1.4-2.9,3.3-3.8,5.3c-0.5,1.2-1.1,2.4-1.4,3.7
			c-0.8,1.6-1.3,3.3-1.9,5c-0.4,1.5-0.8,3-1.3,4.4c-0.3,0.8-0.2,1.6-0.4,2.4C623.2,606.7,622.6,609.9,622,613z"/>
		<path fill="#FFFFFF" d="M633,608.4c0.6-0.5,1.4-0.7,2.1-0.8c0.9-0.1,1.7-0.7,2.6-1c1.3-0.5,2.1,1.5,1.3,2.3
			c-0.9,1-2.2,1.5-2.8,2.7c-1,2.4-0.6,5.1-0.9,7.6c-0.1,1.5-1.6,2.5-3,2.6c-0.9-0.3-0.9-1.4-0.8-2.2c0.1-1.4,0-2.8,0.2-4.2
			c0.3-1.6,0.3-3.2,0.4-4.7C632.2,609.9,632.4,609,633,608.4z"/>
		<path fill="#FFFFFF" d="M654,611c-0.4-0.6-0.2-1.3-0.2-1.9c0.3-3.1,0.5-6.1,1-9.2c0.2-1.3,1.6-2.7,3-2.1c0.6,1.5-0.2,3-0.1,4.5
			c0.1,1.2,0,2.5-0.1,3.7c-0.3,1-0.1,2.1-0.2,3.1c-0.2,0.9-1,1.5-1.8,1.9C655.1,611.2,654.5,611.4,654,611z"/>
		<path fill="#FFFFFF" d="M655.9,593.4c-0.1-1.7,1.8-3,3.4-2.5c0.1,0.3,0.3,0.6,0.4,0.9c-0.4,1-1.1,2-2.1,2.4
			C656.9,594.5,656,594.2,655.9,593.4z"/>
		<path fill="#FFFFFF" d="M680.2,603.3c-0.4,0.6-0.7,1.4-1.4,1.8c-1.1,0.8-2.4,1.1-3.6,1.5c-2.2,0.7-4.3,1.7-6.3,2.8
			c-5.7,2.9-11.3,6.1-16.6,9.7c-0.6,0.4-1.1,0.9-1.7,1.3c-0.1,2.1-0.2,4.2-0.2,6.4c-0.1,1.5,0.1,3.1-0.2,4.6c0.1,0.6,0.2,1.3,0,1.9
			c0.1,0.2,0.2,0.4,0.2,0.6c-0.1,0.1-0.2,0.3-0.2,0.4c0,0.2,0.1,0.5,0,0.7c0,1.1,0.6,2.2,0.3,3.3c0.1,0.1,0.2,0.2,0.3,0.3
			c0.1,0.3,0.2,0.6,0.3,0.9c-0.2,0.3-0.3,0.6-0.4,1c0.1,0.1,0.4,0.2,0.5,0.3c0.1,0.2,0.1,0.3,0.2,0.5c-0.1,0.1-0.2,0.4-0.3,0.5
			c0.1,0.2,0.3,0.4,0.4,0.6c-0.1,0.3-0.2,0.6-0.2,1c-0.3,0.6-0.8,1.2-1.6,1.4c-0.9,0.2-2-0.1-2.5-1c-0.7-1.6-0.4-3.5-0.4-5.2
			c0.2-5.3,0.2-10.5,0.3-15.8c-1.1,0.6-2.1,1.5-3.1,2.3c-3.1,2.4-6.1,4.9-9.1,7.4c-0.8,0.6-1.3,1.4-2.1,2c-1.3,1.1-2.4,2.4-3.6,3.6
			c-1.4,1.3-2.6,2.9-4.1,4.2c-0.9,1.2-3.2,0.6-3.4-0.9c-0.2-0.5-0.1-1.1,0.3-1.5c1.2-1.7,2.8-3,4.3-4.4c1.7-1.6,3.5-3.1,5.3-4.6
			c2.1-1.8,4.2-3.5,6.4-5.2c1.6-1.2,3.2-2.3,4.8-3.5c1.4-1.1,2.8-2.2,4.3-3.2c0-0.7,0-1.4,0-2.1c-1.3,1-2.9,1.6-4.6,1.5
			c-0.9-0.1-1.8-0.7-2-1.7c-0.4-1.3-0.1-2.8-0.2-4.1c0.2-2,0.2-4.1,1.1-6c0.7-1.5,1.8-2.9,3.3-3.6c0.6-0.2,1.2-0.4,1.8-0.1
			c0.4,0.8-0.1,1.8-0.7,2.4c-0.8,0.8-1.2,1.8-1.5,2.9c-0.2,0.7-0.4,1.4-0.3,2.1c-0.1,1.1-0.3,2.3-0.2,3.4c0.1,0.5,0.3,1,0.8,1.1
			c1.2,0,2.2-0.9,2.4-2.1c0.6-3.4,0.7-6.9,1.1-10.3c0.2-1.5,2.6-2.2,3.3-0.8c0.2,2-0.3,4.1-0.3,6.1c-0.1,2-0.4,3.9-0.4,5.9
			c0,1-0.1,2.1-0.1,3.1c2.9-1.8,5.8-3.8,8.9-5.4c3.2-1.9,6.5-3.6,9.7-5.6c-0.4-0.3-0.9-0.7-1-1.2c-0.1-1,0-2,0-3
			c0-1.7,0.3-3.5,0.1-5.2c-0.1-0.5-0.7-0.5-1.1-0.5c-1,0.3-1.6,1.3-2.3,2.1c-0.2,0.7-0.3,1.3-0.5,2c-0.2,0.3-0.1,0.7,0,1
			c-0.1,0.2-0.2,0.3-0.4,0.5c0.1,0.2,0.2,0.5,0.3,0.7c-0.1,0.1-0.3,0.2-0.3,0.3c0,0.6-0.1,1.1,0,1.7c0,0.3,0,0.6,0.1,0.8
			c0,0.4-0.1,0.7-0.1,1.1c-0.3,0.5-0.4,1.2-1,1.6c-0.6,0.4-1.4,0.8-2.1,0.5c-0.6-0.3-0.6-1.1-0.6-1.6c0.2-2.9,0.2-5.8,0.4-8.7
			c0-1,0.6-2.1,1.5-2.6c0.9-0.5,2-0.4,3-0.3c1.1-0.3,1.6-1.4,2.5-2c0.9-0.6,2-1.1,3.1-0.6c0.5,0.2,0.7,0.8,0.9,1.3
			c0,0.3,0.1,0.6,0.1,0.8c-0.2,0.4-0.2,0.8,0,1.3c0,0.3,0,0.7,0,1l-0.1,0.1c-0.2,1.7,0.1,3.5,0,5.2c0.1,0.7,0.3,1.5,1,1.8
			c1.5-0.3,2.7-1.3,4.1-1.9c0.8-0.4,1.7-0.3,2.5-0.1C680,602,680.2,602.7,680.2,603.3z"/>
		<path fill="#FFFFFF" d="M728.1,611.2c0-1,0-2.1-0.6-2.9c-1.2-1.4-3.7-1.3-4.7,0.3c-1-1.6-3.5-1.6-4.6-0.1c0-0.4-0.1-0.9-0.6-0.9
			c-0.5,0-1.4-0.3-1.5,0.5c0,2.3,0,4.7,0,7c0,0.5,0.7,0.4,1,0.4c0.4,0,1,0.1,1.1-0.4c0.1-1.6-0.1-3.2,0.1-4.8
			c0.3-1.2,2.3-1.4,2.7-0.1c0.2,1.7-0.1,3.4,0.1,5.1c0.3,0.2,0.7,0.2,1.1,0.2c0.3,0,0.8,0.1,0.9-0.3c0.1-1.5,0-3,0.1-4.5
			c0-0.9,0.9-1.5,1.8-1.3c0.5,0.1,1,0.5,1,1.1c0.1,1.5,0,3.1,0.1,4.6c0,0.5,0.7,0.4,1,0.4c0.3,0,0.9,0.1,1-0.4
			C728.1,613.8,728,612.5,728.1,611.2z M735.5,608.1c-1.5-1.1-3.7-1-5,0.2c-2,1.7-1.8,5.4,0.5,6.8c1.9,1.2,5,0.6,5.7-1.7
			c-0.4-0.5-1.1-0.5-1.6-0.7c-0.4,0.6-0.9,1.2-1.7,1.1c-1.1,0.1-2-0.7-2.2-1.8c1.6,0,3.3,0,4.9,0c0.3,0,0.8,0,0.7-0.4
			C737,610.3,736.6,608.9,735.5,608.1z M731.2,610.6c0.2-1,1.1-1.7,2.2-1.5c0.8,0.1,1.3,0.8,1.5,1.5
			C733.7,610.6,732.4,610.6,731.2,610.6z M746,604.1c-0.5-0.5-1.4-0.3-2-0.1c-0.1,1.4,0,2.8,0,4.2c-1.3-1.3-3.8-1.1-5,0.3
			c-1.3,1.5-1.4,3.9-0.2,5.6c1.1,1.6,3.8,2.1,5.2,0.5c0.1,0.2,0,0.6,0.3,0.7c0.6,0.1,1.2,0,1.9,0C745.9,611.6,746.1,607.8,746,604.1
			z M741.8,613.7c-2.1-0.1-2.4-3.6-0.6-4.3c0.6-0.2,1.4-0.2,1.9,0.2C744.7,610.8,743.9,613.9,741.8,613.7z M749.9,607.8
			c-0.4-0.5-1.3-0.2-1.9-0.2c0,0.1-0.1,0.2-0.2,0.3c-0.1,2.2,0,4.3,0,6.5c0,0.3-0.1,0.8,0.3,1c0.5,0.1,1.1,0.1,1.6,0
			c0.4-0.1,0.2-0.6,0.3-1C749.9,612.2,750,610,749.9,607.8z M748.2,603.8c-0.8,0.4-0.9,1.7-0.2,2.2c0.8,0.6,2.1,0.1,2.1-0.9
			C750.3,604.1,749.1,603.3,748.2,603.8z M759.3,607.8c-0.6-0.4-1.4-0.1-2-0.2c0,0.2,0,0.5,0,0.6c-1.2-1.2-3.2-1.1-4.5-0.1
			c-1.8,1.4-2,4.2-0.7,6c1.1,1.6,3.9,2.1,5.2,0.5c0,0.2,0,0.5,0,0.7c0.7,0.1,1.4,0.2,2,0C759.3,612.8,759.4,610.3,759.3,607.8z
			 M755.2,613.7c-2.2-0.1-2.5-3.8-0.4-4.4c0.6-0.2,1.2,0,1.7,0.3C757.9,610.8,757.3,613.9,755.2,613.7z M759.3,607.8
			c-0.6-0.4-1.4-0.1-2-0.2c0,0.2,0,0.5,0,0.6c-1.2-1.2-3.2-1.1-4.5-0.1c-1.8,1.4-2,4.2-0.7,6c1.1,1.6,3.9,2.1,5.2,0.5
			c0,0.2,0,0.5,0,0.7c0.7,0.1,1.4,0.2,2,0C759.3,612.8,759.4,610.3,759.3,607.8z M755.2,613.7c-2.2-0.1-2.5-3.8-0.4-4.4
			c0.6-0.2,1.2,0,1.7,0.3C757.9,610.8,757.3,613.9,755.2,613.7z M748.2,603.8c-0.8,0.4-0.9,1.7-0.2,2.2c0.8,0.6,2.1,0.1,2.1-0.9
			C750.3,604.1,749.1,603.3,748.2,603.8z M749.9,607.8c-0.4-0.5-1.3-0.2-1.9-0.2c0,0.1-0.1,0.2-0.2,0.3c-0.1,2.2,0,4.3,0,6.5
			c0,0.3-0.1,0.8,0.3,1c0.5,0.1,1.1,0.1,1.6,0c0.4-0.1,0.2-0.6,0.3-1C749.9,612.2,750,610,749.9,607.8z M746,604.1
			c-0.5-0.5-1.4-0.3-2-0.1c-0.1,1.4,0,2.8,0,4.2c-1.3-1.3-3.8-1.1-5,0.3c-1.3,1.5-1.4,3.9-0.2,5.6c1.1,1.6,3.8,2.1,5.2,0.5
			c0.1,0.2,0,0.6,0.3,0.7c0.6,0.1,1.2,0,1.9,0C745.9,611.6,746.1,607.8,746,604.1z M741.8,613.7c-2.1-0.1-2.4-3.6-0.6-4.3
			c0.6-0.2,1.4-0.2,1.9,0.2C744.7,610.8,743.9,613.9,741.8,613.7z M735.5,608.1c-1.5-1.1-3.7-1-5,0.2c-2,1.7-1.8,5.4,0.5,6.8
			c1.9,1.2,5,0.6,5.7-1.7c-0.4-0.5-1.1-0.5-1.6-0.7c-0.4,0.6-0.9,1.2-1.7,1.1c-1.1,0.1-2-0.7-2.2-1.8c1.6,0,3.3,0,4.9,0
			c0.3,0,0.8,0,0.7-0.4C737,610.3,736.6,608.9,735.5,608.1z M731.2,610.6c0.2-1,1.1-1.7,2.2-1.5c0.8,0.1,1.3,0.8,1.5,1.5
			C733.7,610.6,732.4,610.6,731.2,610.6z M728.1,611.2c0-1,0-2.1-0.6-2.9c-1.2-1.4-3.7-1.3-4.7,0.3c-1-1.6-3.5-1.6-4.6-0.1
			c0-0.4-0.1-0.9-0.6-0.9c-0.5,0-1.4-0.3-1.5,0.5c0,2.3,0,4.7,0,7c0,0.5,0.7,0.4,1,0.4c0.4,0,1,0.1,1.1-0.4c0.1-1.6-0.1-3.2,0.1-4.8
			c0.3-1.2,2.3-1.4,2.7-0.1c0.2,1.7-0.1,3.4,0.1,5.1c0.3,0.2,0.7,0.2,1.1,0.2c0.3,0,0.8,0.1,0.9-0.3c0.1-1.5,0-3,0.1-4.5
			c0-0.9,0.9-1.5,1.8-1.3c0.5,0.1,1,0.5,1,1.1c0.1,1.5,0,3.1,0.1,4.6c0,0.5,0.7,0.4,1,0.4c0.3,0,0.9,0.1,1-0.4
			C728.1,613.8,728,612.5,728.1,611.2z M728.1,611.2c0-1,0-2.1-0.6-2.9c-1.2-1.4-3.7-1.3-4.7,0.3c-1-1.6-3.5-1.6-4.6-0.1
			c0-0.4-0.1-0.9-0.6-0.9c-0.5,0-1.4-0.3-1.5,0.5c0,2.3,0,4.7,0,7c0,0.5,0.7,0.4,1,0.4c0.4,0,1,0.1,1.1-0.4c0.1-1.6-0.1-3.2,0.1-4.8
			c0.3-1.2,2.3-1.4,2.7-0.1c0.2,1.7-0.1,3.4,0.1,5.1c0.3,0.2,0.7,0.2,1.1,0.2c0.3,0,0.8,0.1,0.9-0.3c0.1-1.5,0-3,0.1-4.5
			c0-0.9,0.9-1.5,1.8-1.3c0.5,0.1,1,0.5,1,1.1c0.1,1.5,0,3.1,0.1,4.6c0,0.5,0.7,0.4,1,0.4c0.3,0,0.9,0.1,1-0.4
			C728.1,613.8,728,612.5,728.1,611.2z M735.5,608.1c-1.5-1.1-3.7-1-5,0.2c-2,1.7-1.8,5.4,0.5,6.8c1.9,1.2,5,0.6,5.7-1.7
			c-0.4-0.5-1.1-0.5-1.6-0.7c-0.4,0.6-0.9,1.2-1.7,1.1c-1.1,0.1-2-0.7-2.2-1.8c1.6,0,3.3,0,4.9,0c0.3,0,0.8,0,0.7-0.4
			C737,610.3,736.6,608.9,735.5,608.1z M731.2,610.6c0.2-1,1.1-1.7,2.2-1.5c0.8,0.1,1.3,0.8,1.5,1.5
			C733.7,610.6,732.4,610.6,731.2,610.6z M746,604.1c-0.5-0.5-1.4-0.3-2-0.1c-0.1,1.4,0,2.8,0,4.2c-1.3-1.3-3.8-1.1-5,0.3
			c-1.3,1.5-1.4,3.9-0.2,5.6c1.1,1.6,3.8,2.1,5.2,0.5c0.1,0.2,0,0.6,0.3,0.7c0.6,0.1,1.2,0,1.9,0C745.9,611.6,746.1,607.8,746,604.1
			z M741.8,613.7c-2.1-0.1-2.4-3.6-0.6-4.3c0.6-0.2,1.4-0.2,1.9,0.2C744.7,610.8,743.9,613.9,741.8,613.7z M749.9,607.8
			c-0.4-0.5-1.3-0.2-1.9-0.2c0,0.1-0.1,0.2-0.2,0.3c-0.1,2.2,0,4.3,0,6.5c0,0.3-0.1,0.8,0.3,1c0.5,0.1,1.1,0.1,1.6,0
			c0.4-0.1,0.2-0.6,0.3-1C749.9,612.2,750,610,749.9,607.8z M748.2,603.8c-0.8,0.4-0.9,1.7-0.2,2.2c0.8,0.6,2.1,0.1,2.1-0.9
			C750.3,604.1,749.1,603.3,748.2,603.8z M759.3,607.8c-0.6-0.4-1.4-0.1-2-0.2c0,0.2,0,0.5,0,0.6c-1.2-1.2-3.2-1.1-4.5-0.1
			c-1.8,1.4-2,4.2-0.7,6c1.1,1.6,3.9,2.1,5.2,0.5c0,0.2,0,0.5,0,0.7c0.7,0.1,1.4,0.2,2,0C759.3,612.8,759.4,610.3,759.3,607.8z
			 M755.2,613.7c-2.2-0.1-2.5-3.8-0.4-4.4c0.6-0.2,1.2,0,1.7,0.3C757.9,610.8,757.3,613.9,755.2,613.7z M759.3,607.8
			c-0.6-0.4-1.4-0.1-2-0.2c0,0.2,0,0.5,0,0.6c-1.2-1.2-3.2-1.1-4.5-0.1c-1.8,1.4-2,4.2-0.7,6c1.1,1.6,3.9,2.1,5.2,0.5
			c0,0.2,0,0.5,0,0.7c0.7,0.1,1.4,0.2,2,0C759.3,612.8,759.4,610.3,759.3,607.8z M755.2,613.7c-2.2-0.1-2.5-3.8-0.4-4.4
			c0.6-0.2,1.2,0,1.7,0.3C757.9,610.8,757.3,613.9,755.2,613.7z M748.2,603.8c-0.8,0.4-0.9,1.7-0.2,2.2c0.8,0.6,2.1,0.1,2.1-0.9
			C750.3,604.1,749.1,603.3,748.2,603.8z M749.9,607.8c-0.4-0.5-1.3-0.2-1.9-0.2c0,0.1-0.1,0.2-0.2,0.3c-0.1,2.2,0,4.3,0,6.5
			c0,0.3-0.1,0.8,0.3,1c0.5,0.1,1.1,0.1,1.6,0c0.4-0.1,0.2-0.6,0.3-1C749.9,612.2,750,610,749.9,607.8z M746,604.1
			c-0.5-0.5-1.4-0.3-2-0.1c-0.1,1.4,0,2.8,0,4.2c-1.3-1.3-3.8-1.1-5,0.3c-1.3,1.5-1.4,3.9-0.2,5.6c1.1,1.6,3.8,2.1,5.2,0.5
			c0.1,0.2,0,0.6,0.3,0.7c0.6,0.1,1.2,0,1.9,0C745.9,611.6,746.1,607.8,746,604.1z M741.8,613.7c-2.1-0.1-2.4-3.6-0.6-4.3
			c0.6-0.2,1.4-0.2,1.9,0.2C744.7,610.8,743.9,613.9,741.8,613.7z M735.5,608.1c-1.5-1.1-3.7-1-5,0.2c-2,1.7-1.8,5.4,0.5,6.8
			c1.9,1.2,5,0.6,5.7-1.7c-0.4-0.5-1.1-0.5-1.6-0.7c-0.4,0.6-0.9,1.2-1.7,1.1c-1.1,0.1-2-0.7-2.2-1.8c1.6,0,3.3,0,4.9,0
			c0.3,0,0.8,0,0.7-0.4C737,610.3,736.6,608.9,735.5,608.1z M731.2,610.6c0.2-1,1.1-1.7,2.2-1.5c0.8,0.1,1.3,0.8,1.5,1.5
			C733.7,610.6,732.4,610.6,731.2,610.6z M727.4,608.3c-1.2-1.4-3.7-1.3-4.7,0.3c-1-1.6-3.5-1.6-4.6-0.1c0-0.4-0.1-0.9-0.6-0.9
			c-0.5,0-1.4-0.3-1.5,0.5c0,2.3,0,4.7,0,7c0,0.5,0.7,0.4,1,0.4c0.4,0,1,0.1,1.1-0.4c0.1-1.6-0.1-3.2,0.1-4.8
			c0.3-1.2,2.3-1.4,2.7-0.1c0.2,1.7-0.1,3.4,0.1,5.1c0.3,0.2,0.7,0.2,1.1,0.2c0.3,0,0.8,0.1,0.9-0.3c0.1-1.5,0-3,0.1-4.5
			c0-0.9,0.9-1.5,1.8-1.3c0.5,0.1,1,0.5,1,1.1c0.1,1.5,0,3.1,0.1,4.6c0,0.5,0.7,0.4,1,0.4c0.3,0,0.9,0.1,1-0.4c0.1-1.3,0-2.5,0-3.8
			C728.1,610.2,728.1,609.1,727.4,608.3z M767.3,605.1c-0.5-4.1-1.6-8.1-3.3-11.8c-1.4-2.9-3.2-5.6-5.6-7.7
			c-2.6-2.4-5.9-4.1-9.3-4.8c-3.5-0.8-7.2-0.6-10.7,0.1c-4.4,1-8.5,2.9-12.3,5.2c-6,3.7-11.3,8.4-15.8,13.8c-2.4,2.9-4.7,5.9-7,8.9
			c-6.7-9.4-14-18.3-22.3-26.3c-7.6-7.3-16-13.8-25.4-18.3c-7.6-3.7-15.9-6-24.4-5.8c-7,0.1-14,2.2-19.7,6.2
			c-6.7,4.8-11.5,11.9-14.7,19.4c-3.7,9-5.2,18.9-5,28.6c0.1,8.7,1.6,17.4,4.8,25.5c2.8,7.1,7.2,13.8,13.1,18.7
			c5.6,4.6,12.8,7.1,20,7.5c7.6,0.5,15.2-1.3,22.2-4.2c7.7-3.2,14.8-7.8,21.3-13c11.7-9.5,21.4-21,30.2-33.2c2,2.6,4.1,5.2,6.1,7.8
			c2.4,3.1,5.1,5.9,8,8.5c4.8,4.2,10.2,7.8,16.1,10.2c4.4,1.7,9.2,2.6,13.9,2c4.2-0.6,8.3-2.5,11.4-5.5c4.3-4.1,6.7-9.8,7.9-15.5
			C767.8,616.1,768,610.5,767.3,605.1z M670.6,645.3c-6.3,5-13.1,9.3-20.6,12.3c-7.5,3-15.8,4.6-23.9,3.3c-4.4-0.7-8.6-2.3-12.3-4.8
			c-5.1-3.5-9-8.5-11.9-13.9c-3.4-6.4-5.4-13.5-6.4-20.6c-1.3-9.7-0.8-19.7,1.8-29.2c2.3-8.2,6.2-16.2,12.3-22.2
			c4.5-4.5,10.5-7.3,16.8-8.3c8.1-1.3,16.4,0.4,23.9,3.4c9.7,4,18.4,10.2,26.1,17.3c9.4,8.6,17.5,18.5,24.9,28.8
			C692.5,623.9,682.5,635.8,670.6,645.3z M764.5,614.2c-0.3,4.3-1.1,8.6-2.7,12.6c-1.3,3.2-3.2,6.2-5.8,8.5c-2.6,2.3-6,3.8-9.5,4.2
			c-4.1,0.5-8.3-0.4-12.1-2c-5.9-2.4-11.1-6-15.8-10.3c-2.6-2.4-5-5-7.2-7.8c-2.1-2.6-4.1-5.3-6.2-8c2.5-3.2,4.9-6.4,7.5-9.6
			c4.3-5.1,9.3-9.6,15-13.1c3.9-2.4,8.2-4.3,12.7-5.1c3.8-0.7,7.8-0.4,11.3,1.2c2.9,1.2,5.3,3.3,7.1,5.8c2.3,3.1,3.7,6.7,4.6,10.4
			C764.5,605.4,764.8,609.8,764.5,614.2z M757.3,607.6c0,0.2,0,0.5,0,0.6c-1.2-1.2-3.2-1.1-4.5-0.1c-1.8,1.4-2,4.2-0.7,6
			c1.1,1.6,3.9,2.1,5.2,0.5c0,0.2,0,0.5,0,0.7c0.7,0.1,1.4,0.2,2,0c0-2.5,0.1-5.1,0-7.6C758.7,607.3,757.9,607.6,757.3,607.6z
			 M755.2,613.7c-2.2-0.1-2.5-3.8-0.4-4.4c0.6-0.2,1.2,0,1.7,0.3C757.9,610.8,757.3,613.9,755.2,613.7z M748.2,603.8
			c-0.8,0.4-0.9,1.7-0.2,2.2c0.8,0.6,2.1,0.1,2.1-0.9C750.3,604.1,749.1,603.3,748.2,603.8z M749.9,607.8c-0.4-0.5-1.3-0.2-1.9-0.2
			c0,0.1-0.1,0.2-0.2,0.3c-0.1,2.2,0,4.3,0,6.5c0,0.3-0.1,0.8,0.3,1c0.5,0.1,1.1,0.1,1.6,0c0.4-0.1,0.2-0.6,0.3-1
			C749.9,612.2,750,610,749.9,607.8z M746,604.1c-0.5-0.5-1.4-0.3-2-0.1c-0.1,1.4,0,2.8,0,4.2c-1.3-1.3-3.8-1.1-5,0.3
			c-1.3,1.5-1.4,3.9-0.2,5.6c1.1,1.6,3.8,2.1,5.2,0.5c0.1,0.2,0,0.6,0.3,0.7c0.6,0.1,1.2,0,1.9,0C745.9,611.6,746.1,607.8,746,604.1
			z M741.8,613.7c-2.1-0.1-2.4-3.6-0.6-4.3c0.6-0.2,1.4-0.2,1.9,0.2C744.7,610.8,743.9,613.9,741.8,613.7z M735.5,608.1
			c-1.5-1.1-3.7-1-5,0.2c-2,1.7-1.8,5.4,0.5,6.8c1.9,1.2,5,0.6,5.7-1.7c-0.4-0.5-1.1-0.5-1.6-0.7c-0.4,0.6-0.9,1.2-1.7,1.1
			c-1.1,0.1-2-0.7-2.2-1.8c1.6,0,3.3,0,4.9,0c0.3,0,0.8,0,0.7-0.4C737,610.3,736.6,608.9,735.5,608.1z M731.2,610.6
			c0.2-1,1.1-1.7,2.2-1.5c0.8,0.1,1.3,0.8,1.5,1.5C733.7,610.6,732.4,610.6,731.2,610.6z M727.4,608.3c-1.2-1.4-3.7-1.3-4.7,0.3
			c-1-1.6-3.5-1.6-4.6-0.1c0-0.4-0.1-0.9-0.6-0.9c-0.5,0-1.4-0.3-1.5,0.5c0,2.3,0,4.7,0,7c0,0.5,0.7,0.4,1,0.4c0.4,0,1,0.1,1.1-0.4
			c0.1-1.6-0.1-3.2,0.1-4.8c0.3-1.2,2.3-1.4,2.7-0.1c0.2,1.7-0.1,3.4,0.1,5.1c0.3,0.2,0.7,0.2,1.1,0.2c0.3,0,0.8,0.1,0.9-0.3
			c0.1-1.5,0-3,0.1-4.5c0-0.9,0.9-1.5,1.8-1.3c0.5,0.1,1,0.5,1,1.1c0.1,1.5,0,3.1,0.1,4.6c0,0.5,0.7,0.4,1,0.4c0.3,0,0.9,0.1,1-0.4
			c0.1-1.3,0-2.5,0-3.8C728.1,610.2,728.1,609.1,727.4,608.3z M728.1,611.2c0-1,0-2.1-0.6-2.9c-1.2-1.4-3.7-1.3-4.7,0.3
			c-1-1.6-3.5-1.6-4.6-0.1c0-0.4-0.1-0.9-0.6-0.9c-0.5,0-1.4-0.3-1.5,0.5c0,2.3,0,4.7,0,7c0,0.5,0.7,0.4,1,0.4c0.4,0,1,0.1,1.1-0.4
			c0.1-1.6-0.1-3.2,0.1-4.8c0.3-1.2,2.3-1.4,2.7-0.1c0.2,1.7-0.1,3.4,0.1,5.1c0.3,0.2,0.7,0.2,1.1,0.2c0.3,0,0.8,0.1,0.9-0.3
			c0.1-1.5,0-3,0.1-4.5c0-0.9,0.9-1.5,1.8-1.3c0.5,0.1,1,0.5,1,1.1c0.1,1.5,0,3.1,0.1,4.6c0,0.5,0.7,0.4,1,0.4c0.3,0,0.9,0.1,1-0.4
			C728.1,613.8,728,612.5,728.1,611.2z M735.5,608.1c-1.5-1.1-3.7-1-5,0.2c-2,1.7-1.8,5.4,0.5,6.8c1.9,1.2,5,0.6,5.7-1.7
			c-0.4-0.5-1.1-0.5-1.6-0.7c-0.4,0.6-0.9,1.2-1.7,1.1c-1.1,0.1-2-0.7-2.2-1.8c1.6,0,3.3,0,4.9,0c0.3,0,0.8,0,0.7-0.4
			C737,610.3,736.6,608.9,735.5,608.1z M731.2,610.6c0.2-1,1.1-1.7,2.2-1.5c0.8,0.1,1.3,0.8,1.5,1.5
			C733.7,610.6,732.4,610.6,731.2,610.6z M746,604.1c-0.5-0.5-1.4-0.3-2-0.1c-0.1,1.4,0,2.8,0,4.2c-1.3-1.3-3.8-1.1-5,0.3
			c-1.3,1.5-1.4,3.9-0.2,5.6c1.1,1.6,3.8,2.1,5.2,0.5c0.1,0.2,0,0.6,0.3,0.7c0.6,0.1,1.2,0,1.9,0C745.9,611.6,746.1,607.8,746,604.1
			z M741.8,613.7c-2.1-0.1-2.4-3.6-0.6-4.3c0.6-0.2,1.4-0.2,1.9,0.2C744.7,610.8,743.9,613.9,741.8,613.7z M749.9,607.8
			c-0.4-0.5-1.3-0.2-1.9-0.2c0,0.1-0.1,0.2-0.2,0.3c-0.1,2.2,0,4.3,0,6.5c0,0.3-0.1,0.8,0.3,1c0.5,0.1,1.1,0.1,1.6,0
			c0.4-0.1,0.2-0.6,0.3-1C749.9,612.2,750,610,749.9,607.8z M748.2,603.8c-0.8,0.4-0.9,1.7-0.2,2.2c0.8,0.6,2.1,0.1,2.1-0.9
			C750.3,604.1,749.1,603.3,748.2,603.8z M759.3,607.8c-0.6-0.4-1.4-0.1-2-0.2c0,0.2,0,0.5,0,0.6c-1.2-1.2-3.2-1.1-4.5-0.1
			c-1.8,1.4-2,4.2-0.7,6c1.1,1.6,3.9,2.1,5.2,0.5c0,0.2,0,0.5,0,0.7c0.7,0.1,1.4,0.2,2,0C759.3,612.8,759.4,610.3,759.3,607.8z
			 M755.2,613.7c-2.2-0.1-2.5-3.8-0.4-4.4c0.6-0.2,1.2,0,1.7,0.3C757.9,610.8,757.3,613.9,755.2,613.7z M759.3,607.8
			c-0.6-0.4-1.4-0.1-2-0.2c0,0.2,0,0.5,0,0.6c-1.2-1.2-3.2-1.1-4.5-0.1c-1.8,1.4-2,4.2-0.7,6c1.1,1.6,3.9,2.1,5.2,0.5
			c0,0.2,0,0.5,0,0.7c0.7,0.1,1.4,0.2,2,0C759.3,612.8,759.4,610.3,759.3,607.8z M755.2,613.7c-2.2-0.1-2.5-3.8-0.4-4.4
			c0.6-0.2,1.2,0,1.7,0.3C757.9,610.8,757.3,613.9,755.2,613.7z M748.2,603.8c-0.8,0.4-0.9,1.7-0.2,2.2c0.8,0.6,2.1,0.1,2.1-0.9
			C750.3,604.1,749.1,603.3,748.2,603.8z M749.9,607.8c-0.4-0.5-1.3-0.2-1.9-0.2c0,0.1-0.1,0.2-0.2,0.3c-0.1,2.2,0,4.3,0,6.5
			c0,0.3-0.1,0.8,0.3,1c0.5,0.1,1.1,0.1,1.6,0c0.4-0.1,0.2-0.6,0.3-1C749.9,612.2,750,610,749.9,607.8z M746,604.1
			c-0.5-0.5-1.4-0.3-2-0.1c-0.1,1.4,0,2.8,0,4.2c-1.3-1.3-3.8-1.1-5,0.3c-1.3,1.5-1.4,3.9-0.2,5.6c1.1,1.6,3.8,2.1,5.2,0.5
			c0.1,0.2,0,0.6,0.3,0.7c0.6,0.1,1.2,0,1.9,0C745.9,611.6,746.1,607.8,746,604.1z M741.8,613.7c-2.1-0.1-2.4-3.6-0.6-4.3
			c0.6-0.2,1.4-0.2,1.9,0.2C744.7,610.8,743.9,613.9,741.8,613.7z M735.5,608.1c-1.5-1.1-3.7-1-5,0.2c-2,1.7-1.8,5.4,0.5,6.8
			c1.9,1.2,5,0.6,5.7-1.7c-0.4-0.5-1.1-0.5-1.6-0.7c-0.4,0.6-0.9,1.2-1.7,1.1c-1.1,0.1-2-0.7-2.2-1.8c1.6,0,3.3,0,4.9,0
			c0.3,0,0.8,0,0.7-0.4C737,610.3,736.6,608.9,735.5,608.1z M731.2,610.6c0.2-1,1.1-1.7,2.2-1.5c0.8,0.1,1.3,0.8,1.5,1.5
			C733.7,610.6,732.4,610.6,731.2,610.6z M728.1,611.2c0-1,0-2.1-0.6-2.9c-1.2-1.4-3.7-1.3-4.7,0.3c-1-1.6-3.5-1.6-4.6-0.1
			c0-0.4-0.1-0.9-0.6-0.9c-0.5,0-1.4-0.3-1.5,0.5c0,2.3,0,4.7,0,7c0,0.5,0.7,0.4,1,0.4c0.4,0,1,0.1,1.1-0.4c0.1-1.6-0.1-3.2,0.1-4.8
			c0.3-1.2,2.3-1.4,2.7-0.1c0.2,1.7-0.1,3.4,0.1,5.1c0.3,0.2,0.7,0.2,1.1,0.2c0.3,0,0.8,0.1,0.9-0.3c0.1-1.5,0-3,0.1-4.5
			c0-0.9,0.9-1.5,1.8-1.3c0.5,0.1,1,0.5,1,1.1c0.1,1.5,0,3.1,0.1,4.6c0,0.5,0.7,0.4,1,0.4c0.3,0,0.9,0.1,1-0.4
			C728.1,613.8,728,612.5,728.1,611.2z"/>
		<path fill="#FFFFFF" d="M629.2,612.2c-0.1,0.1-0.2,0.2-0.2,0.2c0.4,1.1-0.1,2.3-0.2,3.5c-0.1,2.1-0.7,4.1-0.6,6.1
			c0,0.7-0.2,1.3-0.3,2c0.1,0,0.3,0.1,0.4,0.1c-0.8,0.5-1.5,1.2-2.3,1.5c-0.6,0.2-1.3-0.2-1.3-0.9c-0.1-2.9,0.4-5.8,0.4-8.7
			c0.1-1.5,0.1-3.2,1.2-4.3c0.6-0.5,1.4-1.1,2.2-1C629,610.9,629,611.7,629.2,612.2z"/>
		<path fill="#FFFFFF" d="M628.1,606.5c-0.5-0.1-1.2-0.4-1.2-1c0-1.3,1.1-2.3,2.2-2.8c0.4-0.2,0.8-0.1,1.2-0.1
			c0.2,0.5,0.5,1.1,0.3,1.7C630.2,605.3,629.1,605.9,628.1,606.5z"/>
		<path fill="#FFFFFF" d="M622,613c-0.3,0.7-0.1,1.5-0.4,2.2c-0.2,0.7-0.3,1.4-0.4,2.1c-0.2,0.8-0.4,1.7-0.5,2.6
			c0.5,0.7,0,1.5-0.2,2.1c-0.1,0.7-0.3,1.4,0,2c-0.3,0.5-0.5,1.1-0.6,1.7c-0.4,3.4-0.8,6.8-1.4,10.2c-0.1,0.7-0.3,1.5-1,1.9
			c-0.7,0.5-1.9,0.2-2.2-0.7c-0.8-2.8-1-5.7-1.7-8.5c-0.1-1.3-0.4-2.5-0.5-3.8c-0.4-2.5-0.7-5.1-1.2-7.6c-0.2-1.3-0.3-2.6-0.6-3.9
			c-0.2-0.6-0.3-1.1-0.3-1.7c-0.2-0.2-0.3-0.3-0.5-0.5c-0.6,1-1.1,2.1-1.4,3.2c-0.3,1.3-1,2.5-1.4,3.7c-0.5,0.6-1.4,0.9-2.1,0.5
			c-0.5-0.3-1-0.9-0.7-1.6c1-3.2,2.3-6.3,3.2-9.5c0.5-1.5,1-3.1,1.5-4.6c0.3-0.8,1.2-1.5,2.1-1.3c0.9,0,1.4,0.9,1.6,1.6
			c0.3,1.7,0.5,3.3,0.9,5c0.4,1.8,0.4,3.6,1,5.3c0.2,0.5,0.3,1,0.4,1.6c0.1,0.9,0.3,1.8,0.5,2.7c-0.1,0.7-0.1,1.3,0.2,2
			c0.1,1.1,0.1,2.3,0.6,3.4c0.4-1,0.3-2,0.5-3c0.6-3.9,1.2-7.8,2.1-11.7c1-4.2,2.2-8.3,3.3-12.5c1.5-4.3,3.1-8.6,4.7-12.9
			c0.7-1.8,1.2-3.9,2.9-5.1c1.5-1.3,4.1-0.3,4.4,1.6c0.4,1.2-0.4,2.4-1.1,3.3c-1.7,1.4-2.9,3.3-3.8,5.3c-0.5,1.2-1.1,2.4-1.4,3.7
			c-0.8,1.6-1.3,3.3-1.9,5c-0.4,1.5-0.8,3-1.3,4.4c-0.3,0.8-0.2,1.6-0.4,2.4C623.2,606.7,622.6,609.9,622,613z"/>
		<path fill="#FFFFFF" d="M633,608.4c0.6-0.5,1.4-0.7,2.1-0.8c0.9-0.1,1.7-0.7,2.6-1c1.3-0.5,2.1,1.5,1.3,2.3
			c-0.9,1-2.2,1.5-2.8,2.7c-1,2.4-0.6,5.1-0.9,7.6c-0.1,1.5-1.6,2.5-3,2.6c-0.9-0.3-0.9-1.4-0.8-2.2c0.1-1.4,0-2.8,0.2-4.2
			c0.3-1.6,0.3-3.2,0.4-4.7C632.2,609.9,632.4,609,633,608.4z"/>
		<path fill="#FFFFFF" d="M654,611c-0.4-0.6-0.2-1.3-0.2-1.9c0.3-3.1,0.5-6.1,1-9.2c0.2-1.3,1.6-2.7,3-2.1c0.6,1.5-0.2,3-0.1,4.5
			c0.1,1.2,0,2.5-0.1,3.7c-0.3,1-0.1,2.1-0.2,3.1c-0.2,0.9-1,1.5-1.8,1.9C655.1,611.2,654.5,611.4,654,611z"/>
		<path fill="#FFFFFF" d="M655.9,593.4c-0.1-1.7,1.8-3,3.4-2.5c0.1,0.3,0.3,0.6,0.4,0.9c-0.4,1-1.1,2-2.1,2.4
			C656.9,594.5,656,594.2,655.9,593.4z"/>
		<path fill="#FFFFFF" d="M680.2,603.3c-0.4,0.6-0.7,1.4-1.4,1.8c-1.1,0.8-2.4,1.1-3.6,1.5c-2.2,0.7-4.3,1.7-6.3,2.8
			c-5.7,2.9-11.3,6.1-16.6,9.7c-0.6,0.4-1.1,0.9-1.7,1.3c-0.1,2.1-0.2,4.2-0.2,6.4c-0.1,1.5,0.1,3.1-0.2,4.6c0.1,0.6,0.2,1.3,0,1.9
			c0.1,0.2,0.2,0.4,0.2,0.6c-0.1,0.1-0.2,0.3-0.2,0.4c0,0.2,0.1,0.5,0,0.7c0,1.1,0.6,2.2,0.3,3.3c0.1,0.1,0.2,0.2,0.3,0.3
			c0.1,0.3,0.2,0.6,0.3,0.9c-0.2,0.3-0.3,0.6-0.4,1c0.1,0.1,0.4,0.2,0.5,0.3c0.1,0.2,0.1,0.3,0.2,0.5c-0.1,0.1-0.2,0.4-0.3,0.5
			c0.1,0.2,0.3,0.4,0.4,0.6c-0.1,0.3-0.2,0.6-0.2,1c-0.3,0.6-0.8,1.2-1.6,1.4c-0.9,0.2-2-0.1-2.5-1c-0.7-1.6-0.4-3.5-0.4-5.2
			c0.2-5.3,0.2-10.5,0.3-15.8c-1.1,0.6-2.1,1.5-3.1,2.3c-3.1,2.4-6.1,4.9-9.1,7.4c-0.8,0.6-1.3,1.4-2.1,2c-1.3,1.1-2.4,2.4-3.6,3.6
			c-1.4,1.3-2.6,2.9-4.1,4.2c-0.9,1.2-3.2,0.6-3.4-0.9c-0.2-0.5-0.1-1.1,0.3-1.5c1.2-1.7,2.8-3,4.3-4.4c1.7-1.6,3.5-3.1,5.3-4.6
			c2.1-1.8,4.2-3.5,6.4-5.2c1.6-1.2,3.2-2.3,4.8-3.5c1.4-1.1,2.8-2.2,4.3-3.2c0-0.7,0-1.4,0-2.1c-1.3,1-2.9,1.6-4.6,1.5
			c-0.9-0.1-1.8-0.7-2-1.7c-0.4-1.3-0.1-2.8-0.2-4.1c0.2-2,0.2-4.1,1.1-6c0.7-1.5,1.8-2.9,3.3-3.6c0.6-0.2,1.2-0.4,1.8-0.1
			c0.4,0.8-0.1,1.8-0.7,2.4c-0.8,0.8-1.2,1.8-1.5,2.9c-0.2,0.7-0.4,1.4-0.3,2.1c-0.1,1.1-0.3,2.3-0.2,3.4c0.1,0.5,0.3,1,0.8,1.1
			c1.2,0,2.2-0.9,2.4-2.1c0.6-3.4,0.7-6.9,1.1-10.3c0.2-1.5,2.6-2.2,3.3-0.8c0.2,2-0.3,4.1-0.3,6.1c-0.1,2-0.4,3.9-0.4,5.9
			c0,1-0.1,2.1-0.1,3.1c2.9-1.8,5.8-3.8,8.9-5.4c3.2-1.9,6.5-3.6,9.7-5.6c-0.4-0.3-0.9-0.7-1-1.2c-0.1-1,0-2,0-3
			c0-1.7,0.3-3.5,0.1-5.2c-0.1-0.5-0.7-0.5-1.1-0.5c-1,0.3-1.6,1.3-2.3,2.1c-0.2,0.7-0.3,1.3-0.5,2c-0.2,0.3-0.1,0.7,0,1
			c-0.1,0.2-0.2,0.3-0.4,0.5c0.1,0.2,0.2,0.5,0.3,0.7c-0.1,0.1-0.3,0.2-0.3,0.3c0,0.6-0.1,1.1,0,1.7c0,0.3,0,0.6,0.1,0.8
			c0,0.4-0.1,0.7-0.1,1.1c-0.3,0.5-0.4,1.2-1,1.6c-0.6,0.4-1.4,0.8-2.1,0.5c-0.6-0.3-0.6-1.1-0.6-1.6c0.2-2.9,0.2-5.8,0.4-8.7
			c0-1,0.6-2.1,1.5-2.6c0.9-0.5,2-0.4,3-0.3c1.1-0.3,1.6-1.4,2.5-2c0.9-0.6,2-1.1,3.1-0.6c0.5,0.2,0.7,0.8,0.9,1.3
			c0,0.3,0.1,0.6,0.1,0.8c-0.2,0.4-0.2,0.8,0,1.3c0,0.3,0,0.7,0,1l-0.1,0.1c-0.2,1.7,0.1,3.5,0,5.2c0.1,0.7,0.3,1.5,1,1.8
			c1.5-0.3,2.7-1.3,4.1-1.9c0.8-0.4,1.7-0.3,2.5-0.1C680,602,680.2,602.7,680.2,603.3z"/>
		<path fill="#FFFFFF" d="M633.5,583.1c-1.7,1.4-2.9,3.3-3.8,5.3c-0.5,1.2-1.1,2.4-1.4,3.7c-0.8,1.6-1.3,3.3-1.9,5
			c-0.4,1.5-0.8,3-1.3,4.4c-0.3,0.8-0.2,1.6-0.4,2.4c-1.5,2.8-2.1,6-2.7,9.1c-0.3,0.7-0.1,1.5-0.4,2.2c-0.2,0.7-0.3,1.4-0.4,2.1
			c-0.2,0.8-0.4,1.7-0.5,2.6c0.5,0.7,0,1.5-0.2,2.1c-0.1,0.7-0.3,1.4,0,2c-0.3,0.5-0.5,1.1-0.6,1.7c-0.4,3.4-0.8,6.8-1.4,10.2
			c-0.1,0.7-0.3,1.5-1,1.9c-0.7,0.5-1.9,0.2-2.2-0.7c-0.8-2.8-1-5.7-1.7-8.5c-0.1-1.3-0.4-2.5-0.5-3.8c-0.4-2.5-0.7-5.1-1.2-7.6
			c-0.2-1.3-0.3-2.6-0.6-3.9c-0.2-0.6-0.3-1.1-0.3-1.7c-0.2-0.2-0.3-0.3-0.5-0.5c-0.6,1-1.1,2.1-1.4,3.2c-0.3,1.3-1,2.5-1.4,3.7
			c-0.5,0.6-1.4,0.9-2.1,0.5c-0.5-0.3-1-0.9-0.7-1.6c1-3.2,2.3-6.3,3.2-9.5c0.5-1.5,1-3.1,1.5-4.6c0.3-0.8,1.2-1.5,2.1-1.3
			c0.9,0,1.4,0.9,1.6,1.6c0.3,1.7,0.5,3.3,0.9,5c0.4,1.8,0.4,3.6,1,5.3c0.2,0.5,0.3,1,0.4,1.6c0.1,0.9,0.3,1.8,0.5,2.7
			c-0.1,0.7-0.1,1.3,0.2,2c0.1,1.1,0.1,2.3,0.6,3.4c0.4-1,0.3-2,0.5-3c0.6-3.9,1.2-7.8,2.1-11.7c1-4.2,2.2-8.3,3.3-12.5
			c1.5-4.3,3.1-8.6,4.7-12.9c0.7-1.8,1.2-3.9,2.9-5.1c1.5-1.3,4.1-0.3,4.4,1.6C635,581,634.2,582.1,633.5,583.1z"/>
		<path fill="#FFFFFF" d="M728.1,611.2c0,1.3,0,2.5,0,3.8c0,0.5-0.7,0.4-1,0.4c-0.3,0-1,0.1-1-0.4c-0.1-1.5,0-3.1-0.1-4.6
			c0-0.5-0.5-1-1-1.1c-0.8-0.2-1.7,0.4-1.8,1.3c-0.1,1.5,0.1,3-0.1,4.5c-0.1,0.4-0.6,0.3-0.9,0.3c-0.4,0-0.8,0.1-1.1-0.2
			c-0.2-1.7,0.1-3.4-0.1-5.1c-0.4-1.3-2.4-1.1-2.7,0.1c-0.2,1.6,0,3.2-0.1,4.8c-0.1,0.5-0.7,0.3-1.1,0.4c-0.3,0-1,0.1-1-0.4
			c0-2.3,0-4.7,0-7c0-0.7,1-0.4,1.5-0.5c0.5-0.1,0.6,0.5,0.6,0.9c1.1-1.5,3.6-1.5,4.6,0.1c1-1.5,3.5-1.7,4.7-0.3
			C728.1,609.1,728.1,610.2,728.1,611.2z"/>
		<path fill="#FFFFFF" d="M735.5,608.1c-1.5-1.1-3.7-1-5,0.2c-2,1.7-1.8,5.4,0.5,6.8c1.9,1.2,5,0.6,5.7-1.7
			c-0.4-0.5-1.1-0.5-1.6-0.7c-0.4,0.6-0.9,1.2-1.7,1.1c-1.1,0.1-2-0.7-2.2-1.8c1.6,0,3.3,0,4.9,0c0.3,0,0.8,0,0.7-0.4
			C737,610.3,736.6,608.9,735.5,608.1z M731.2,610.6c0.2-1,1.1-1.7,2.2-1.5c0.8,0.1,1.3,0.8,1.5,1.5
			C733.7,610.6,732.4,610.6,731.2,610.6z"/>
		<path fill="#FFFFFF" d="M746,604.1c-0.5-0.5-1.4-0.3-2-0.1c-0.1,1.4,0,2.8,0,4.2c-1.3-1.3-3.8-1.1-5,0.3c-1.3,1.5-1.4,3.9-0.2,5.6
			c1.1,1.6,3.8,2.1,5.2,0.5c0.1,0.2,0,0.6,0.3,0.7c0.6,0.1,1.2,0,1.9,0C745.9,611.6,746.1,607.8,746,604.1z M741.8,613.7
			c-2.1-0.1-2.4-3.6-0.6-4.3c0.6-0.2,1.4-0.2,1.9,0.2C744.7,610.8,743.9,613.9,741.8,613.7z"/>
		<path fill="#FFFFFF" d="M750,614.4c-0.1,0.3,0.1,0.8-0.3,1c-0.5,0.1-1.1,0.1-1.6,0c-0.4-0.2-0.2-0.6-0.3-1c0-2.2,0-4.4,0-6.5
			c0-0.1,0.1-0.2,0.2-0.3c0.6,0,1.5-0.3,1.9,0.2C750,610,749.9,612.2,750,614.4z"/>
		<path fill="#FFFFFF" d="M750.2,605.1c0,1-1.3,1.6-2.1,0.9c-0.8-0.5-0.7-1.8,0.2-2.2C749.1,603.3,750.3,604.1,750.2,605.1z"/>
		<path fill="#FFFFFF" d="M759.3,607.8c-0.6-0.4-1.4-0.1-2-0.2c0,0.2,0,0.5,0,0.6c-1.2-1.2-3.2-1.1-4.5-0.1c-1.8,1.4-2,4.2-0.7,6
			c1.1,1.6,3.9,2.1,5.2,0.5c0,0.2,0,0.5,0,0.7c0.7,0.1,1.4,0.2,2,0C759.3,612.8,759.4,610.3,759.3,607.8z M755.2,613.7
			c-2.2-0.1-2.5-3.8-0.4-4.4c0.6-0.2,1.2,0,1.7,0.3C757.9,610.8,757.3,613.9,755.2,613.7z"/>
		<path fill="#FFFFFF" d="M659.7,591.9c-0.4,1-1.1,2-2.1,2.4c-0.6,0.2-1.6-0.1-1.6-0.9c-0.1-1.7,1.8-3,3.4-2.5
			C659.5,591.2,659.6,591.6,659.7,591.9z"/>
		<path fill="#FFFFFF" d="M680.2,603.3c-0.4,0.6-0.7,1.4-1.4,1.8c-1.1,0.8-2.4,1.1-3.6,1.5c-2.2,0.7-4.3,1.7-6.3,2.8
			c-5.7,2.9-11.3,6.1-16.6,9.7c-0.6,0.4-1.1,0.9-1.7,1.3c-0.1,2.1-0.2,4.2-0.2,6.4c-0.1,1.5,0.1,3.1-0.2,4.6c0.1,0.6,0.2,1.3,0,1.9
			c0.1,0.2,0.2,0.4,0.2,0.6c-0.1,0.1-0.2,0.3-0.2,0.4c0,0.2,0.1,0.5,0,0.7c0,1.1,0.6,2.2,0.3,3.3c0.1,0.1,0.2,0.2,0.3,0.3
			c0.1,0.3,0.2,0.6,0.3,0.9c-0.2,0.3-0.3,0.6-0.4,1c0.1,0.1,0.4,0.2,0.5,0.3c0.1,0.2,0.1,0.3,0.2,0.5c-0.1,0.1-0.2,0.4-0.3,0.5
			c0.1,0.2,0.3,0.4,0.4,0.6c-0.1,0.3-0.2,0.6-0.2,1c-0.3,0.6-0.8,1.2-1.6,1.4c-0.9,0.2-2-0.1-2.5-1c-0.7-1.6-0.4-3.5-0.4-5.2
			c0.2-5.3,0.2-10.5,0.3-15.8c-1.1,0.6-2.1,1.5-3.1,2.3c-3.1,2.4-6.1,4.9-9.1,7.4c-0.8,0.6-1.3,1.4-2.1,2c-1.3,1.1-2.4,2.4-3.6,3.6
			c-1.4,1.3-2.6,2.9-4.1,4.2c-0.9,1.2-3.2,0.6-3.4-0.9c-0.2-0.5-0.1-1.1,0.3-1.5c1.2-1.7,2.8-3,4.3-4.4c1.7-1.6,3.5-3.1,5.3-4.6
			c2.1-1.8,4.2-3.5,6.4-5.2c1.6-1.2,3.2-2.3,4.8-3.5c1.4-1.1,2.8-2.2,4.3-3.2c0-0.7,0-1.4,0-2.1c-1.3,1-2.9,1.6-4.6,1.5
			c-0.9-0.1-1.8-0.7-2-1.7c-0.4-1.3-0.1-2.8-0.2-4.1c0.2-2,0.2-4.1,1.1-6c0.7-1.5,1.8-2.9,3.3-3.6c0.6-0.2,1.2-0.4,1.8-0.1
			c0.4,0.8-0.1,1.8-0.7,2.4c-0.8,0.8-1.2,1.8-1.5,2.9c-0.2,0.7-0.4,1.4-0.3,2.1c-0.1,1.1-0.3,2.3-0.2,3.4c0.1,0.5,0.3,1,0.8,1.1
			c1.2,0,2.2-0.9,2.4-2.1c0.6-3.4,0.7-6.9,1.1-10.3c0.2-1.5,2.6-2.2,3.3-0.8c0.2,2-0.3,4.1-0.3,6.1c-0.1,2-0.4,3.9-0.4,5.9
			c0,1-0.1,2.1-0.1,3.1c2.9-1.8,5.8-3.8,8.9-5.4c3.2-1.9,6.5-3.6,9.7-5.6c-0.4-0.3-0.9-0.7-1-1.2c-0.1-1,0-2,0-3
			c0-1.7,0.3-3.5,0.1-5.2c-0.1-0.5-0.7-0.5-1.1-0.5c-1,0.3-1.6,1.3-2.3,2.1c-0.2,0.7-0.3,1.3-0.5,2c-0.2,0.3-0.1,0.7,0,1
			c-0.1,0.2-0.2,0.3-0.4,0.5c0.1,0.2,0.2,0.5,0.3,0.7c-0.1,0.1-0.3,0.2-0.3,0.3c0,0.6-0.1,1.1,0,1.7c0,0.3,0,0.6,0.1,0.8
			c0,0.4-0.1,0.7-0.1,1.1c-0.3,0.5-0.4,1.2-1,1.6c-0.6,0.4-1.4,0.8-2.1,0.5c-0.6-0.3-0.6-1.1-0.6-1.6c0.2-2.9,0.2-5.8,0.4-8.7
			c0-1,0.6-2.1,1.5-2.6c0.9-0.5,2-0.4,3-0.3c1.1-0.3,1.6-1.4,2.5-2c0.9-0.6,2-1.1,3.1-0.6c0.5,0.2,0.7,0.8,0.9,1.3
			c0,0.3,0.1,0.6,0.1,0.8c-0.2,0.4-0.2,0.8,0,1.3c0,0.3,0,0.7,0,1l-0.1,0.1c-0.2,1.7,0.1,3.5,0,5.2c0.1,0.7,0.3,1.5,1,1.8
			c1.5-0.3,2.7-1.3,4.1-1.9c0.8-0.4,1.7-0.3,2.5-0.1C680,602,680.2,602.7,680.2,603.3z"/>
		<path fill="#FFFFFF" d="M657.7,602.3c0.1,1.2,0,2.5-0.1,3.7c-0.3,1-0.1,2.1-0.2,3.1c-0.2,0.9-1,1.5-1.8,1.9
			c-0.5,0.3-1.2,0.5-1.6,0c-0.4-0.6-0.2-1.3-0.2-1.9c0.3-3.1,0.5-6.1,1-9.2c0.2-1.3,1.6-2.7,3-2.1
			C658.4,599.3,657.6,600.8,657.7,602.3z"/>
		<path fill="#FFFFFF" d="M630.7,604.2c-0.4,1.1-1.5,1.7-2.5,2.3c-0.5-0.1-1.2-0.4-1.2-1c0-1.3,1.1-2.3,2.2-2.8
			c0.4-0.2,0.8-0.1,1.2-0.1C630.5,603.1,630.9,603.7,630.7,604.2z"/>
		<path fill="#FFFFFF" d="M746,604.1c-0.5-0.5-1.4-0.3-2-0.1c-0.1,1.4,0,2.8,0,4.2c-1.3-1.3-3.8-1.1-5,0.3c-1.3,1.5-1.4,3.9-0.2,5.6
			c1.1,1.6,3.8,2.1,5.2,0.5c0.1,0.2,0,0.6,0.3,0.7c0.6,0.1,1.2,0,1.9,0C745.9,611.6,746.1,607.8,746,604.1z M741.8,613.7
			c-2.1-0.1-2.4-3.6-0.6-4.3c0.6-0.2,1.4-0.2,1.9,0.2C744.7,610.8,743.9,613.9,741.8,613.7z"/>
		<path fill="#FFFFFF" d="M750.2,605.1c0,1-1.3,1.6-2.1,0.9c-0.8-0.5-0.7-1.8,0.2-2.2C749.1,603.3,750.3,604.1,750.2,605.1z"/>
		<path fill="#FFFFFF" d="M639,608.9c-0.9,1-2.2,1.5-2.8,2.7c-1,2.4-0.6,5.1-0.9,7.6c-0.1,1.5-1.6,2.5-3,2.6
			c-0.9-0.3-0.9-1.4-0.8-2.2c0.1-1.4,0-2.8,0.2-4.2c0.3-1.6,0.3-3.2,0.4-4.7c0.1-0.8,0.2-1.8,0.9-2.3c0.6-0.5,1.4-0.7,2.1-0.8
			c0.9-0.1,1.7-0.7,2.6-1C639.1,606.1,639.8,608.1,639,608.9z"/>
		<path fill="#FFFFFF" d="M728,615c0,0.5-0.7,0.4-1,0.4c-0.3,0-1,0.1-1-0.4c-0.1-1.5,0-3.1-0.1-4.6c0-0.5-0.5-1-1-1.1
			c-0.8-0.2-1.7,0.4-1.8,1.3c-0.1,1.5,0.1,3-0.1,4.5c-0.1,0.4-0.6,0.3-0.9,0.3c-0.4,0-0.8,0.1-1.1-0.2c-0.2-1.7,0.1-3.4-0.1-5.1
			c-0.4-1.3-2.4-1.1-2.7,0.1c-0.2,1.6,0,3.2-0.1,4.8c-0.1,0.5-0.7,0.3-1.1,0.4c-0.3,0-1,0.1-1-0.4c0-2.3,0-4.7,0-7
			c0-0.7,1-0.4,1.5-0.5c0.5-0.1,0.6,0.5,0.6,0.9c1.1-1.5,3.6-1.5,4.6,0.1c1-1.5,3.5-1.7,4.7-0.3c0.7,0.8,0.6,1.9,0.6,2.9
			C728,612.5,728.1,613.8,728,615z"/>
		<path fill="#FFFFFF" d="M735.5,608.1c-1.5-1.1-3.7-1-5,0.2c-2,1.7-1.8,5.4,0.5,6.8c1.9,1.2,5,0.6,5.7-1.7
			c-0.4-0.5-1.1-0.5-1.6-0.7c-0.4,0.6-0.9,1.2-1.7,1.1c-1.1,0.1-2-0.7-2.2-1.8c1.6,0,3.3,0,4.9,0c0.3,0,0.8,0,0.7-0.4
			C737,610.3,736.6,608.9,735.5,608.1z M731.2,610.6c0.2-1,1.1-1.7,2.2-1.5c0.8,0.1,1.3,0.8,1.5,1.5
			C733.7,610.6,732.4,610.6,731.2,610.6z"/>
		<path fill="#FFFFFF" d="M759.3,607.8c-0.6-0.4-1.4-0.1-2-0.2c0,0.2,0,0.5,0,0.6c-1.2-1.2-3.2-1.1-4.5-0.1c-1.8,1.4-2,4.2-0.7,6
			c1.1,1.6,3.9,2.1,5.2,0.5c0,0.2,0,0.5,0,0.7c0.7,0.1,1.4,0.2,2,0C759.3,612.8,759.4,610.3,759.3,607.8z M755.2,613.7
			c-2.2-0.1-2.5-3.8-0.4-4.4c0.6-0.2,1.2,0,1.7,0.3C757.9,610.8,757.3,613.9,755.2,613.7z"/>
		<path fill="#FFFFFF" d="M750,614.4c-0.1,0.3,0.1,0.8-0.3,1c-0.5,0.1-1.1,0.1-1.6,0c-0.4-0.2-0.2-0.6-0.3-1c0-2.2,0-4.4,0-6.5
			c0-0.1,0.1-0.2,0.2-0.3c0.6,0,1.5-0.3,1.9,0.2C750,610,749.9,612.2,750,614.4z"/>
		<path fill="#FFFFFF" d="M629,612.4c0.4,1.1-0.1,2.3-0.2,3.5c-0.1,2.1-0.7,4.1-0.6,6.1c0,0.7-0.2,1.3-0.3,2c0.1,0,0.3,0.1,0.4,0.1
			c-0.8,0.5-1.5,1.2-2.3,1.5c-0.6,0.2-1.3-0.2-1.3-0.9c-0.1-2.9,0.4-5.8,0.4-8.7c0.1-1.5,0.1-3.2,1.2-4.3c0.6-0.5,1.4-1.1,2.2-1
			c0.6,0.2,0.6,0.9,0.8,1.4C629.1,612.2,629,612.4,629,612.4z"/>
	</g>
	<g>
		<path fill="#FFFFFF" d="M1412.6,547.9V544l19.4-8.6h2.8v63.6c0,4,0.9,5.6,4,5.6c0.6,0,1.7,0,3.5-0.2v6.1l-22,3.2l-0.3-6.4
			c-5.3,4.3-10.7,6.6-16.2,6.6c-12.8,0-22.7-10.3-22.7-25.3c0-16.4,10.3-27,25.5-27c4.2,0,8.6,1.3,13.4,3.9v-13.9L1412.6,547.9z
			 M1409,567.4c-7,0-12.4,7-12.4,18.6c0,11.6,5.9,18.7,13.6,18.7c2.7,0,6-1.7,9.8-5.1v-23.1C1417.6,570.5,1413.2,567.4,1409,567.4"
			/>
		<path fill="#FFFFFF" d="M1461.5,613.6c-9.8,0-15.1-4.1-15.1-10.8c0-9.1,10.3-15.4,30.9-20.7v-7.1c0-4.1-2.5-6.4-6.9-6.4
			c-6.1,0-10,1.4-10,3.2c0,1.2,1.1,3,1.1,5.1c0,3.8-2.7,6-7.5,6c-4.3,0-6.8-2.3-6.8-6.1c0-6.8,10.4-14.9,25.3-14.9
			c6.1,0,11.6,1.4,15.6,4.2c4,2.7,4.2,6,4.2,10.7v19.5c0,4.7,0.2,6.7,2.7,6.7c1,0,2-0.6,3.2-1.4l3.8,3.3c-4.7,5.9-9,8.9-14,8.9
			c-4.4,0-7.5-2-10.1-6.1C1472.4,611.6,1466.9,613.6,1461.5,613.6 M1477.7,588.4c-10.5,2.7-15.8,7-15.8,11.9c0,2.7,2.1,4.8,5,4.8
			c3,0,6.5-1.7,10.8-4.6V588.4z"/>
		<path fill="#FFFFFF" d="M1505.1,606c5.5,0,6.8-2.1,6.8-7.8v-20l-7.4-3.8v-3.9l19.5-8.7h2.8v36.3c0,5.7,1.3,7.8,6.8,7.8v6.4h-28.5
			V606z"/>
		<path fill="#FFFFFF" d="M1540,594.9l3.9,0.2c6,7.9,12.2,11.7,16.7,11.7c4.2,0,7.2-2.9,7.2-6.4c0-4.7-7-5.2-17.7-9.6
			c-7.2-2.9-10.6-6.7-10.6-13.5c0-9,7.9-15.6,21-15.6c5.9,0,11.7,1.3,17.4,4.1v13.3h-3.9c-5-7.1-10.8-10.8-16.3-10.8
			c-4,0-6.6,2.1-6.6,4.9c0,4.9,6.9,5,18.3,9.5c8,3.1,11.9,7.9,11.9,14.9c0,9.3-8.4,16.1-21.8,16.1c-6.4,0-12.5-2-19.5-5.1V594.9z"/>
		<path fill="#FFFFFF" d="M1590.2,574.4c-1.3-3.2-3.8-5-6.9-5c-0.3,0-0.8,0.1-1.1,0.1v-6.5h29.2v6.5h-1c-3.3,0-5,1-5,3
			c0,0.9,0.4,1.8,0.9,3l9.9,23.6l9.3-24c0.3-0.9,0.6-1.8,0.6-2.6c0-2-1.6-3.2-4.6-3.2c-0.4,0-1,0-1.6,0.1v-6.5h20.7v6.5
			c-4,0.1-6.5,1.7-7.9,5.2l-17.1,42.7c-5.5,13.8-9.4,21.8-19.6,21.8c-6.7,0-11.4-4.1-11.4-9.3c0-3.8,2.8-6.7,6.5-6.7
			c1.4,0,3.1,0.6,4.3,1.6c3.1,2.7,4.9,4.5,6,4.5c1.9,0,4.2-3.9,6.9-11.7L1590.2,574.4z"/>
		<path fill="#F48120" d="M1643,595.1c5,0,9.1,3.9,9.1,9.1c0,5.2-4.1,9.2-9.1,9.2c-5.1,0-9.1-4-9.1-9.2
			C1633.9,599,1637.9,595.1,1643,595.1"/>
		<path fill="#FFFFFF" d="M1519,535.2c5,0,9.1,4,9.1,9.1c0,5.1-4,9.1-9.1,9.1c-5.1,0-9.1-4-9.1-9.1
			C1509.9,539.2,1513.8,535.2,1519,535.2"/>
		<g>
			<path fill="#FFFFFF" d="M1366.7,180.2v-40.1h17.7c8.4,0,13,5.7,13,12.6c0,6.8-4.7,12.5-13,12.5h-10.6v15H1366.7z M1390.2,152.6
				c0-3.8-2.8-6.4-6.8-6.4h-9.7v12.7h9.7C1387.4,158.9,1390.2,156.4,1390.2,152.6z"/>
			<path fill="#FFFFFF" d="M1399.3,165.6c0-8.4,5.7-15.2,14.9-15.2c9.3,0,14.9,6.9,14.9,15.2c0,8.3-5.7,15.3-14.9,15.3
				C1405,180.9,1399.3,173.9,1399.3,165.6z M1422.6,165.6c0-5.1-2.9-9.6-8.4-9.6c-5.4,0-8.4,4.5-8.4,9.6c0,5.2,3,9.7,8.4,9.7
				C1419.6,175.3,1422.6,170.8,1422.6,165.6z"/>
			<path fill="#FFFFFF" d="M1459.7,180.2l-6.8-21.3l-6.7,21.3h-6.6l-9-29h6.6l6.1,21.1l6.9-21.1h5.6l6.9,21.1l6.1-21.1h6.6l-9,29
				H1459.7z"/>
			<path fill="#FFFFFF" d="M1476.8,165.6c0-8.4,6.1-15.2,14.7-15.2c8.7,0,14.3,6.6,14.3,15.8v1.6h-22.4c0.5,4.3,3.7,8,9.2,8
				c2.9,0,6.2-1.1,8.3-3.2l2.9,4.2c-2.9,2.8-7.2,4.3-11.8,4.3C1483.2,180.9,1476.8,174.8,1476.8,165.6z M1491.5,155.6
				c-5.3,0-7.9,4.2-8.1,7.6h16.4C1499.5,159.8,1497.2,155.6,1491.5,155.6z"/>
			<path fill="#FFFFFF" d="M1510.8,180.2v-29h6.3v4.2c2.2-2.8,5.7-4.9,9.4-4.9v6.3c-0.5-0.1-1.1-0.2-1.9-0.2c-2.7,0-6.3,1.8-7.5,3.9
				v19.8H1510.8z"/>
			<path fill="#FFFFFF" d="M1528.7,165.6c0-8.4,6.1-15.2,14.7-15.2c8.7,0,14.3,6.6,14.3,15.8v1.6h-22.4c0.5,4.3,3.7,8,9.2,8
				c2.9,0,6.2-1.1,8.3-3.2l2.9,4.2c-2.9,2.8-7.2,4.3-11.8,4.3C1535.2,180.9,1528.7,174.8,1528.7,165.6z M1543.4,155.6
				c-5.3,0-7.9,4.2-8.1,7.6h16.4C1551.5,159.8,1549.1,155.6,1543.4,155.6z"/>
			<path fill="#FFFFFF" d="M1583.2,180.2v-4c-2.2,2.9-5.5,4.7-9.3,4.7c-7.4,0-12.9-5.7-12.9-15.3c0-9.4,5.4-15.2,12.9-15.2
				c3.7,0,7,1.6,9.3,4.8v-15.1h6.3v40.1H1583.2z M1583.2,171.4v-11.5c-1.4-2.2-4.5-3.9-7.5-3.9c-5.1,0-8.2,4-8.2,9.6
				c0,5.7,3.2,9.7,8.2,9.7C1578.7,175.3,1581.8,173.5,1583.2,171.4z"/>
			<path fill="#FFFFFF" d="M1610.8,180.2v-40.1h6.3v15.1c2.3-3.1,5.7-4.8,9.3-4.8c7.5,0,12.9,5.8,12.9,15.2
				c0,9.6-5.5,15.3-12.9,15.3c-3.7,0-7.1-1.8-9.3-4.7v4H1610.8z M1624.6,175.3c5,0,8.2-4,8.2-9.7c0-5.6-3.2-9.6-8.2-9.6
				c-3,0-6.1,1.7-7.5,3.9v11.5C1618.6,173.6,1621.6,175.3,1624.6,175.3z"/>
			<path fill="#FFFFFF" d="M1644.2,185.9c0.7,0.3,1.7,0.5,2.4,0.5c2,0,3.4-0.6,4.2-2.5l1.4-3.3l-12-29.4h6.8l8.5,21.8l8.5-21.8h6.7
				l-14,34.3c-2,4.9-5.4,6.5-9.9,6.6c-0.9,0-2.7-0.2-3.5-0.4L1644.2,185.9z"/>
		</g>
		<g>
			<path fill="#F48120" d="M1518.1,378.5c-13.4,0-24.3-10.9-24.3-24.3c0-13.4,10.9-24.3,24.3-24.3c13.4,0,24.3,10.9,24.3,24.3
				C1542.4,367.6,1531.5,378.5,1518.1,378.5"/>
			<path fill="#FFFFFF" d="M1494.5,332c-0.5-0.3-49-27.6-63.8-44.1c-16.2-18.1-18.4-34.4-15.7-37.1c0.6-0.6,2.1-1,3.9-1
				c7.3,0,20.4,5.2,33.2,16.7c16.5,14.8,43.8,63.3,44.1,63.8l1.7,3.1c-0.1,0.1-0.2,0.2-0.4,0.3L1494.5,332z"/>
			<path fill="#FFFFFF" d="M1504.8,324.7c-0.3-0.4-34.7-44.2-42.1-65.2c-8.1-22.9-3.8-38.8-0.3-40.3c0.3-0.1,0.6-0.2,1-0.2
				c5.5,0,18.4,10.3,27.3,28.9c9.6,20,16.2,75.3,16.3,75.8l0.4,3.5c-0.2,0.1-0.3,0.1-0.5,0.2L1504.8,324.7z"/>
			<path fill="#FFFFFF" d="M1544.9,343l2.7-2.2c0.4-0.3,44.2-34.7,65.2-42.1c10.8-3.8,19.5-4.6,24.8-4.6c8.9,0,14.6,2.2,15.5,4.3
				c1.5,3.5-6.8,17.8-28.7,28.3c-20,9.6-75.3,16.2-75.8,16.3l-3.5,0.4C1545.1,343.4,1544.9,343.1,1544.9,343"/>
			<path fill="#FFFFFF" d="M1487.8,342.8c-0.6-0.1-55.8-6.7-75.8-16.3c-21.9-10.5-30.2-24.8-28.7-28.3c0.9-2.1,6.6-4.3,15.5-4.3
				c5.4,0,14,0.8,24.8,4.6c20.9,7.4,64.7,41.8,65.2,42.1l2.7,2.2c-0.1,0.2-0.1,0.3-0.2,0.5L1487.8,342.8z"/>
			<path fill="#FFFFFF" d="M1518,325.2l-0.9-3.3c-0.2-0.5-15.2-54.1-14-76.3c1.3-24.3,11.3-37.3,15.2-37.3
				c3.8,0,13.9,13.1,15.2,37.3c1.2,22.2-13.8,75.8-14,76.3l-0.9,3.3C1518.5,325.2,1518,325.2,1518,325.2"/>
			<path fill="#FFFFFF" d="M1529.1,327.4l0.4-3.5c0.1-0.6,6.7-55.8,16.3-75.8c8.9-18.6,21.8-28.9,27.3-28.9c0.4,0,0.7,0.1,1,0.2
				c3.5,1.5,7.8,17.4-0.3,40.3c-7.4,20.9-41.8,64.7-42.1,65.1l-2.2,2.7C1529.6,327.5,1529.3,327.4,1529.1,327.4"/>
			<path fill="#FFFFFF" d="M1538.5,333.6l1.7-3c0.3-0.5,27.6-49,44.1-63.8c12.8-11.5,25.9-16.7,33.2-16.7c1.8,0,3.3,0.4,3.9,1
				c2.7,2.7,0.6,19.1-15.7,37.1c-14.8,16.5-63.3,43.8-63.8,44.1l-3.1,1.7C1538.9,334,1538.7,333.7,1538.5,333.6"/>
			<path fill="#FFFFFF" d="M1412.1,369.3c-0.9,0-1.8,0-2.7-0.1c-24.3-1.3-37.3-11.3-37.3-15.2c0-3.8,13.1-13.9,37.4-15.2
				c0.9,0,1.7-0.1,2.7-0.1c23.5,0,73.1,13.9,73.6,14l3.3,0.9c0,0.1,0,0.5,0,0.5l-3.3,0.9C1485.3,355.4,1435.6,369.3,1412.1,369.3"/>
			<path fill="#FFFFFF" d="M1617.4,458.5c-7.3,0-20.4-5.2-33.2-16.7c-16.5-14.8-43.8-63.3-44.1-63.8l-1.7-3.1
				c0.1-0.1,0.2-0.2,0.4-0.3l3,1.7c0.5,0.3,49,27.6,63.8,44.1c16.2,18.1,18.4,34.4,15.7,37.1
				C1620.6,458.1,1619.2,458.5,1617.4,458.5z"/>
			<path fill="#FFFFFF" d="M1572.9,489.3c-5.5,0-18.4-10.3-27.3-28.9c-9.6-20-16.2-75.3-16.3-75.8l-0.4-3.5c0.2-0.1,0.3-0.1,0.5-0.2
				l2.2,2.7c0.3,0.4,34.7,44.2,42.1,65.2c8.1,22.9,3.8,38.8,0.3,40.3C1573.6,489.2,1573.3,489.3,1572.9,489.3"/>
			<path fill="#FFFFFF" d="M1637.5,414.5c-5.4,0-14-0.8-24.8-4.6c-20.9-7.4-64.7-41.8-65.2-42.1l-2.7-2.2c0.1-0.2,0.1-0.3,0.2-0.5
				l3.5,0.4c0.6,0.1,55.8,6.7,75.9,16.3c21.9,10.5,30.2,24.8,28.7,28.3C1652.1,412.3,1646.4,414.5,1637.5,414.5z"/>
			<path fill="#FFFFFF" d="M1398.7,414.2c-8.9,0-14.6-2.2-15.5-4.3c-1.5-3.5,6.8-17.8,28.7-28.3c20-9.6,75.3-16.2,75.8-16.3l3.5-0.4
				c0.1,0.2,0.1,0.3,0.2,0.5l-2.7,2.2c-0.4,0.3-44.2,34.7-65.2,42.1C1412.7,413.4,1404,414.2,1398.7,414.2z"/>
			<path fill="#FFFFFF" d="M1624.1,369.5c-23.5,0-73.1-13.9-73.6-14l-3.3-0.9c0-0.1,0-0.5,0-0.5l3.3-0.9c0.5-0.1,50.2-14,73.7-14
				c0.9,0,1.8,0,2.7,0.1c24.3,1.3,37.4,11.3,37.3,15.2c0,3.8-13.1,13.9-37.3,15.2C1625.9,369.5,1625,369.5,1624.1,369.5z"/>
			<path fill="#FFFFFF" d="M1518,500.2c-3.8,0-13.9-13.1-15.2-37.3c-1.2-22.2,13.8-75.8,14-76.3l0.9-3.3c0.1,0,0.5,0,0.5,0l0.9,3.3
				c0.2,0.5,15.2,54.1,14,76.3C1531.8,487.1,1521.8,500.2,1518,500.2z"/>
			<path fill="#FFFFFF" d="M1418.7,458.3c-1.8,0-3.3-0.4-3.9-1c-2.7-2.7-0.5-19.1,15.7-37.1c14.8-16.5,63.3-43.8,63.8-44.1l3.1-1.7
				c0.1,0.1,0.2,0.2,0.3,0.4l-1.7,3c-0.3,0.5-27.6,49-44.1,63.8C1439.1,453.2,1426,458.3,1418.7,458.3z"/>
			<path fill="#FFFFFF" d="M1463.1,489.2c-0.4,0-0.7-0.1-1-0.2c-3.5-1.5-7.8-17.4,0.3-40.3c7.4-20.9,41.8-64.7,42.1-65.2
				c0.8-1,1.5-1.9,2.2-2.7c0.2,0.1,0.3,0.1,0.5,0.2l-0.4,3.5c-0.1,0.6-6.7,55.8-16.3,75.8C1481.5,478.9,1468.6,489.2,1463.1,489.2z"
				/>
		</g>
	</g>
	<g>
		<path fill="#FFFFFF" d="M-73.5,627.6v-29.4h11.8c5.9,0,9.2,4.1,9.2,8.9c0,4.8-3.4,8.9-9.2,8.9h-8.2v11.7H-73.5z M-56.2,607.1
			c0-3.3-2.4-5.6-5.9-5.6h-7.7v11.2h7.7C-58.6,612.7-56.2,610.4-56.2,607.1z"/>
		<path fill="#FFFFFF" d="M-35.2,627.6v-2.4c-1.7,1.9-4.2,3-7.1,3c-3.6,0-7.4-2.4-7.4-7.1c0-4.8,3.8-7,7.4-7c2.9,0,5.3,0.9,7.1,2.9
			v-3.8c0-2.8-2.3-4.5-5.4-4.5c-2.6,0-4.6,0.9-6.5,3l-1.5-2.3c2.3-2.4,5-3.5,8.5-3.5c4.5,0,8.3,2,8.3,7.2v14.7H-35.2z M-35.2,623.1
			v-4.1c-1.3-1.7-3.5-2.6-5.8-2.6c-3.1,0-5.3,1.9-5.3,4.6c0,2.7,2.2,4.7,5.3,4.7C-38.8,625.8-36.5,624.9-35.2,623.1z"/>
		<path fill="#FFFFFF" d="M-25.3,627.6v-21.3h3.3v3.4c1.7-2.2,4.2-3.9,7.1-3.9v3.4c-0.4,0-0.8-0.1-1.3-0.1c-2.1,0-4.9,1.7-5.8,3.4
			v15.1H-25.3z"/>
		<path fill="#FFFFFF" d="M-10,623.2v-13.9h-3.5v-2.9h3.5v-5.8h3.4v5.8h4.3v2.9h-4.3v13.2c0,1.6,0.7,2.7,2.1,2.7
			c1,0,1.8-0.4,2.3-0.9l1,2.5c-0.8,0.8-2,1.4-3.9,1.4C-8.4,628.2-10,626.4-10,623.2z"/>
		<path fill="#FFFFFF" d="M16.7,627.6v-13.9c0-3.8-1.9-4.9-4.8-4.9c-2.6,0-5,1.6-6.3,3.3v15.6H2.3v-21.3h3.3v3.1
			c1.5-1.8,4.4-3.6,7.6-3.6c4.4,0,6.8,2.3,6.8,6.9v15H16.7z"/>
		<path fill="#FFFFFF" d="M25.4,617c0-6.2,4.4-11.2,10.5-11.2c6.4,0,10.2,5,10.2,11.4v0.8H28.9c0.3,4,3,7.4,7.6,7.4
			c2.5,0,4.9-1,6.6-2.7l1.6,2.2c-2.2,2.1-5,3.3-8.5,3.3C30,628.2,25.4,623.6,25.4,617z M35.9,608.5c-4.5,0-6.8,3.8-7,7.1h14
			C42.8,612.5,40.7,608.5,35.9,608.5z"/>
		<path fill="#FFFFFF" d="M51.5,627.6v-21.3h3.3v3.4c1.7-2.2,4.2-3.9,7.1-3.9v3.4c-0.4,0-0.8-0.1-1.3-0.1c-2.1,0-4.9,1.7-5.8,3.4
			v15.1H51.5z"/>
		<path fill="#FFFFFF" d="M64.2,624.8l1.7-2.4c1.4,1.6,4.1,3,7,3c3.3,0,5.1-1.5,5.1-3.7c0-5.2-13.2-2-13.2-9.9
			c0-3.4,2.8-6.1,7.9-6.1c3.7,0,6.2,1.4,7.9,3.1l-1.5,2.3c-1.3-1.5-3.6-2.7-6.4-2.7c-2.9,0-4.7,1.5-4.7,3.4c0,4.6,13.2,1.6,13.2,9.9
			c0,3.6-2.9,6.4-8.3,6.4C69.3,628.2,66.4,627.1,64.2,624.8z"/>
		<path fill="#FFFFFF" d="M116.5,627.6l-5.6-17.1l-5.6,17.1H102l-6.8-21.3h3.4l5.2,17l5.6-17h2.9l5.6,17l5.2-17h3.5l-6.8,21.3H116.5
			z"/>
		<path fill="#FFFFFF" d="M129.8,601.1c0-1.2,1-2.3,2.3-2.3s2.2,1,2.2,2.3c0,1.2-1,2.2-2.2,2.2S129.8,602.3,129.8,601.1z
			 M130.4,627.6v-21.3h3.3v21.3H130.4z"/>
		<path fill="#FFFFFF" d="M141,623.2v-13.9h-3.5v-2.9h3.5v-5.8h3.4v5.8h4.3v2.9h-4.3v13.2c0,1.6,0.7,2.7,2.1,2.7
			c1,0,1.8-0.4,2.3-0.9l1,2.5c-0.8,0.8-2,1.4-3.9,1.4C142.6,628.2,141,626.4,141,623.2z"/>
		<path fill="#FFFFFF" d="M167.7,627.6v-14c0-3.8-1.9-4.9-4.8-4.9c-2.6,0-5,1.6-6.3,3.3v15.6h-3.3v-29.4h3.3v11.2
			c1.5-1.8,4.4-3.6,7.6-3.6c4.5,0,6.8,2.2,6.8,6.8v15H167.7z"/>
	</g>
</g>
</svg>
