{
    "products": {
        "BB": {
            "title": "Business Broadband",
            "price": "9.99",
            "link": "http://cashback-test.elder.co.uk/availability?package_id=e1",
            "desc": [
                "mb24",
                "gb50"
            ],
            "badge": [
                "cashpaid",
                "basic"
            ],
            "flash": "100",
            "sub": "vans.svg",
            "subtext": "Quick and easy installation",
            "subtext-sub": "Our engineers will install your broadband as quickly as possible",
            "default": "active"
        },
        "BBP": {
            "title": "Business Broadband <span>Plus</span>",
            "price": "19.99",
            "link": "http://cashback-test.elder.co.uk/availability?package_id=e2",
            "desc": [
                "mb24",
                "gbunl",
                "min500"
            ],
            "badge": [
                "cashpaid",
                "763",
                "basic"
            ],
            "sub": "vans.svg",
            "subtext": "Quick and easy installation",
            "subtext-sub": "Our engineers will install your broadband as quickly as possible",
            "flash": "140"
        },
        "BBU": {
            "title": "Business Broadband <span>Unlimited</span>",
            "price": "29.99",
            "link": "http://cashback-test.elder.co.uk/availability?package_id=e3",
            "desc": [
                "mb24",
                "gbunl",
                "minunl",
                "mob100"
            ],
            "badge": [
                "cashpaid",
                "763",
                "discount932",
                "basic"
            ],
            "sub": "sfb.gif",
            "flash": "180"
        },
        "SFB": {
            "title": "SuperFast Fibre Broadband",
            "price": "39.99",
            "link": "http://cashback-test.elder.co.uk/availability?package_id=e4",
            "desc": [
                "mb40",
                "gb100",
                "minunl",
                "mob200"
            ],
            "badge": [
                "cashpaid",
                "763",
                "discount932",
                "fast5x"
            ],
            "sub": "vans.svg",
            "subtext": "Quick and easy installation",
            "subtext-sub": "Our engineers will install your broadband as quickly as possible",
            "flash": "280"
        },
        "SFBU": {
            "title": "SuperFast Fibre Broadband <span>Unlimited</span>",
            "price": "49.99",
            "link": "http://cashback-test.elder.co.uk/availability?package_id=e5",
            "desc": [
                "mb40",
                "gbunl",
                "minunl",
                "mob250"
            ],
            "badge": [
                "cashpaid",
                "763",
                "discount932",
                "reliable",
                "fast5x"
            ],
            "sub": "vans.svg",
            "subtext": "Quick and easy installation",
            "subtext-sub": "Our engineers will install your broadband as quickly as possible",
            "flash": "350"
        },
        "UFB": {
            "title": "Ultrafast Fibre Broadband",
            "price": "59.99",
            "link": "http://cashback-test.elder.co.uk/availability?package_id=e6",
            "desc": [
                "mb80",
                "gb100",
                "minunl",
                "mob300"
            ],
            "badge": [
                "cashpaid",
                "discount932",
                "763",
                "nobull",
                "fast10x"
            ],
            "sub": "hare.svg",
            "subtext": "Increase your speed",
            "subtext-sub": "And get unlimited useage to future proof your business",
            "flash": "450"
        },
        "UFBU": {
            "title": "Ultrafast Fibre Broadband <span>Unlimited</span>",
            "price": "69.99",
            "link": "http://cashback-test.elder.co.uk/availability?package_id=e7",
            "desc": [
                "mb80",
                "gbunl",
                "minunl",
                "mob400"
            ],
            "badge": [
                "cashpaid",
                "discount932",
                "763",
                "nobull",
                "fast10x"
            ],
            "sub": "hare.svg",
            "subtext": "Increase your speed",
            "subtext-sub": "And get unlimited useage to future proof your business",
            "flash": "540"
        }
    }
}
